20-05-13  17:30 000000     1    39
20-05-13  17:00 000000     1    41
20-05-13  16:30 000000     1    20
20-05-13  16:00 000000     1    26
20-05-13  15:30 000000     1    13
20-05-13  15:00 000000     1    26
20-05-13  14:30 000000     1    25
20-05-13  14:00 000000     1    27
20-05-13  13:30 000000     1    32
20-05-13  13:00 000000     1    27
20-05-13  12:30 000000     1    24
20-05-13  12:00 000000     1    30
20-05-13  11:30 000000     1    23
20-05-13  11:00 000000     1    19
20-05-13  10:30 000000     1    29
20-05-13  10:00 000000     1    55
20-05-13  09:30 000000     1    76
20-05-13  09:00 000000     1    56
20-05-13  08:30 000000     1    40
20-05-13  08:00 000000     1    35
20-05-13  07:30 000000     1    30
20-05-13  07:00 000000     1    18
20-05-13  06:30 000000     1    23
20-05-13  06:00 000000     1    15
20-05-13  05:30 000000     1    13
20-05-13  05:00 000000     1    14
20-05-13  04:30 000000     1    15
20-05-13  04:00 000000     1    19
20-05-13  03:30 000000     1    20
20-05-13  03:00 000000     1    21
20-05-13  02:30 000000     1    24
20-05-13  02:00 000000     1    33
20-05-13  01:30 000000     1    32
20-05-13  01:00 000000     1    38
20-05-13  00:30 00004F     1    45
20-05-13  00:00 000000     1    55
20-05-12  23:30 000000     1    56
20-05-12  23:00 000000     1    50
20-05-12  22:30 000000     1    37
20-05-12  22:00 000000     1    46
20-05-12  21:30 000000     1    58
20-05-12  21:00 000000     1    65
20-05-12  20:30 000000     1    68
20-05-12  20:00 000000     1    76
20-05-12  19:30 000000     1   107
20-05-12  19:00 000000     1    78
20-05-12  18:30 000000     1    40
20-05-12  18:00 000000     1    46
20-05-12  17:30 000000     1    39
20-05-12  17:00 000000     1    55
20-05-12  16:30 000000     1    40
20-05-12  16:00 000000     1    41
20-05-12  15:30 000000     1    37
20-05-12  15:00 000000     1    42
20-05-12  14:30 000000     1    42
20-05-12  14:00 000000     1    37
20-05-12  13:30 000000     1    28
20-05-12  13:00 000000     1    29
20-05-12  12:30 000000     1    29
20-05-12  12:00 000000    24    12
20-05-12  11:30 000000     1    31
20-05-12  11:00 000000     1    33
20-05-12  10:30 000000     1    43
20-05-12  10:00 000000     1    51
20-05-12  09:30 000000     1    54
20-05-12  09:00 000000     1    59
20-05-12  08:30 000000     1    72
20-05-12  08:00 000000     1    53
20-05-12  07:30 000000     1    28
20-05-12  07:00 000000     1    24
20-05-12  06:30 000000     1    12
20-05-12  06:00 000000     1     7
20-05-12  05:30 000000     1    22
20-05-12  05:00 000000     1    10
20-05-12  04:30 000000     1     8
20-05-12  04:00 000000     1    11
20-05-12  03:30 000000     1    25
20-05-12  03:00 000000     1    14
20-05-12  02:30 000000     1    21
20-05-12  02:00 000000     1    30
20-05-12  01:30 000000     1    39
20-05-12  01:00 000000     1    44
20-05-12  00:30 00004F     1    37
20-05-12  00:00 000000     1    44
20-05-11  23:30 000000     1    46
20-05-11  23:00 000000     1    36
20-05-11  22:30 000000     1    33
20-05-11  22:00 000000     1    30
20-05-11  21:30 000000     1    38
20-05-11  21:00 000000     1    57
20-05-11  20:30 000000     1    65
20-05-11  20:00 000000     1    56
20-05-11  19:30 000000     1    48
20-05-11  19:00 000000     1    33
20-05-11  18:30 000000     1    41
20-05-11  18:00 000000     1    43
20-05-11  17:30 000000     1    40
20-05-11  17:00 000000     1    39
20-05-11  16:30 000000     1    40
20-05-11  16:00 000000     1    36
20-05-11  15:30 000000     1    41
20-05-11  15:00 000000     1    40
20-05-11  14:30 000000     1    38
20-05-11  14:00 000000     1    42
20-05-11  13:30 000000     1    48
20-05-11  13:00 000000     1    36
20-05-11  12:30 000000     1    43
20-05-11  12:00 000000     1    47
20-05-11  11:30 000000     1    27
20-05-11  11:00 000000     1    20
20-05-11  10:30 000000     1    33
20-05-11  10:00 000000     1    52
20-05-11  09:30 000000     1    49
20-05-11  09:00 000000     1    49
20-05-11  08:30 000000     1    55
20-05-11  08:00 000000     1    49
20-05-11  07:30 000000     1    49
20-05-11  07:00 000000     1    33
20-05-11  06:30 000000     1    26
20-05-11  06:00 000000     1    30
20-05-11  05:30 000000     1    19
20-05-11  05:00 000000     1    22
20-05-11  04:30 000000     1    17
20-05-11  04:00 000000     1    19
20-05-11  03:30 000000     1    21
20-05-11  03:00 000000     1    19
20-05-11  02:30 000000     1    25
20-05-11  02:00 000000     1    36
20-05-11  01:30 000000     1    29
20-05-11  01:00 000000     1    36
20-05-11  00:30 00004F     1    30
20-05-11  00:00 000000     1    31
20-05-10  23:30 000000     1    29
20-05-10  23:00 000000     1    15
20-05-10  22:30 000000     1    11
20-05-10  22:00 000000     1    18
20-05-10  21:30 000000     1    44
20-05-10  21:00 000000     1    43
20-05-10  20:30 000000     1    56
20-05-10  20:00 000000     1    42
20-05-10  19:30 000000     1    32
20-05-10  19:00 000000     1    23
20-05-10  18:30 000000     1    28
20-05-10  18:00 000000     1    29
20-05-10  17:30 000000     1    23
20-05-10  17:00 000000     1    34
20-05-10  16:30 000000     1    34
20-05-10  16:00 000000     1    30
20-05-10  15:30 000000     1    31
20-05-10  15:00 000000     1    42
20-05-10  14:30 000000     1    47
20-05-10  14:00 000000     1    49
20-05-10  13:30 000000     1    32
20-05-10  13:00 000000     1    28
20-05-10  12:30 000000     1    17
20-05-10  12:00 000000     1    29
20-05-10  11:30 000000     1    26
20-05-10  11:00 000000     1     2
20-05-10  10:30 000000     1    14
20-05-10  10:00 000000     1    31
20-05-10  09:30 000000     1    20
20-05-10  09:00 000000     1    23
20-05-10  08:30 000000     1    26
20-05-10  08:00 000000     1    41
20-05-10  07:30 000000     1    32
20-05-10  07:00 000000     1    37
20-05-10  06:30 000000     1    30
20-05-10  06:00 000000     1    23
20-05-10  05:30 000000     1    25
20-05-10  05:00 000000     1    25
20-05-10  04:30 000000     1    24
20-05-10  04:00 000000     1    31
20-05-10  03:30 000000     1    24
20-05-10  03:00 000000     1    39
20-05-10  02:30 000000     1    45
20-05-10  02:00 000000     1    37
20-05-10  01:30 000000     1    38
20-05-10  01:00 000000     1    57
20-05-10  00:30 00004F     1    69
20-05-10  00:00 000000     1    63
20-05-09  23:30 000000     1    57
20-05-09  23:00 000000     1    51
20-05-09  22:30 000000     1    54
20-05-09  22:00 000000     1    67
20-05-09  21:30 000000     1    84
20-05-09  21:00 000000     1   227
20-05-09  20:30 000000     1   570
20-05-09  20:00 000000     1    94
20-05-09  19:30 000000     1    92
20-05-09  19:00 000000     1    65
20-05-09  18:30 000000     1    40
20-05-09  18:00 000000     1    35
20-05-09  17:30 000000     1    25
20-05-09  17:00 000000     1    40
20-05-09  16:30 000000     1    29
20-05-09  16:00 000000     1    36
20-05-09  15:30 000000     1    32
20-05-09  15:00 000000     1    40
20-05-09  14:30 000000     1    49
20-05-09  14:00 000000     1    48
20-05-09  13:30 000000     1    50
20-05-09  13:00 000000     1    40
20-05-09  12:30 000000     1    34
20-05-09  12:00 000000     1    45
20-05-09  11:30 000000     1    41
20-05-09  11:00 000000     1    25
20-05-09  10:30 000000     1    19
20-05-09  10:00 000000     1    41
20-05-09  09:30 000000    24    62
20-05-09  09:00 000000     1    43
20-05-09  08:30 000000     1    59
20-05-09  08:00 000000     1    47
20-05-09  07:30 000000     1    36
20-05-09  07:00 000000     1    28
20-05-09  06:30 000000     1    16
20-05-09  06:00 000000     1    20
20-05-09  05:30 000000     1    25
20-05-09  05:00 000000     1    24
20-05-09  04:30 000000     1    27
20-05-09  04:00 000000     1    24
20-05-09  03:30 000000     1    30
20-05-09  03:00 000000     1    25
20-05-09  02:30 000000     1    28
20-05-09  02:00 000000     1    25
20-05-09  01:30 000000     1    32
20-05-09  01:00 000000     1    47
20-05-09  00:30 00004F     1    58
20-05-09  00:00 000000     1    55
20-05-08  23:30 000000     1    56
20-05-08  23:00 000000     1    58
20-05-08  22:30 000000     1    47
20-05-08  22:00 000000     1    50
20-05-08  21:30 000000     1    61
20-05-08  21:00 000000     1    55
20-05-08  20:30 000000     1    60
20-05-08  20:00 000000     1    62
20-05-08  19:30 000000     1    40
20-05-08  19:00 000000     1    31
20-05-08  18:30 000000     1    42
20-05-08  18:00 000000     1    33
20-05-08  17:30 000000     1    24
20-05-08  17:00 000000     1    43
20-05-08  16:30 000000     1    33
20-05-08  16:00 000000     1    30
20-05-08  15:30 000000     1    34
20-05-08  15:00 000000     1    38
20-05-08  14:30 000000     1    27
20-05-08  14:00 000000     1    48
20-05-08  13:30 000000     1    56
20-05-08  13:00 000000     1    48
20-05-08  12:30 000000     1    37
20-05-08  12:00 000000     1    38
20-05-08  11:30 000000     1    35
20-05-08  11:00 000000     1    27
20-05-08  10:30 000000     1    19
20-05-08  10:00 000000     1    30
20-05-08  09:30 000000     1    48
20-05-08  09:00 000000     1    58
20-05-08  08:30 000000     1    47
20-05-08  08:00 000000     1    37
20-05-08  07:30 000000     1    33
20-05-08  07:00 000000     1    34
20-05-08  06:30 000000     1    19
20-05-08  06:00 000000     1     7
20-05-08  05:30 000000     1    15
20-05-08  05:00 000000     1    12
20-05-08  04:30 000000     1    15
20-05-08  04:00 000000     1    13
20-05-08  03:30 000000     1    20
20-05-08  03:00 000000     1    30
20-05-08  02:30 000000     1    46
20-05-08  02:00 000000     1    57
20-05-08  01:30 000000     1    63
20-05-08  01:00 000000     1    53
20-05-08  00:30 00004F     1    67
20-05-08  00:00 000000     1    69
20-05-07  23:30 000000     1    40
20-05-07  23:00 000000     1    41
20-05-07  22:30 000000     1    40
