		Temp	Hi	Low	Out	Dew	Wind	Wind	Wind	Hi	Hi	Wind	Heat	THW	THSW			Rain	Solar	Solar	Hi Solar	UV 	UV 	Hi 	Heat	Cool	In 	In	In 	In 	In 	In Air	Temp		Wind	Wind	ISS 	Arc.
Date	Time	Out	Temp	Temp	Hum	Pt.	Speed	Dir	Run	Speed	Dir	Chill	Index	Index	Index	Bar  	Rain	Rate	Rad.	Energy	Rad. 	Index	Dose	UV 	D-D 	D-D 	Temp	Hum	Dew	Heat	EMC	Density	2nd	ET 	Samp	Tx 	Recept	Int.
24/04/20	0:30	18.3	18.5	18.2	63	11.2	0.0	---	0.00	0.0	---	18.3	17.9	17.9	---	999.9	0.00	0.0	---	---	---	---	---	---	0.000	0.000	21.8	49	10.6	21.1	9.05	1.1664	---	0.00	702	1	100.0	30
24/04/20	1:00	18.1	18.2	17.9	64	11.1	0.0	---	0.00	0.0	---	18.1	17.7	17.7	---	999.7	0.00	0.0	---	---	---	---	---	---	0.006	0.000	21.9	52	11.6	21.4	9.62	1.1646	---	0.00	703	1	100.0	30
24/04/20	1:30	17.6	17.9	17.4	65	11.0	0.0	ENE	0.00	1.8	ENE	17.6	17.2	17.2	---	999.3	0.00	0.0	---	---	---	---	---	---	0.015	0.000	21.9	51	11.3	21.4	9.42	1.1644	---	0.00	702	1	100.0	30
24/04/20	2:00	17.3	17.4	17.2	66	10.9	0.0	ENE	0.00	0.4	ENE	17.3	16.9	16.9	---	999.1	0.00	0.0	---	---	---	---	---	---	0.022	0.000	21.9	50	11.0	21.3	9.25	1.1645	---	0.00	702	1	100.0	30
24/04/20	2:30	17.2	17.2	17.1	65	10.5	0.0	ENE	0.00	1.8	ENE	17.2	16.7	16.7	---	999.1	0.00	0.0	---	---	---	---	---	---	0.024	0.000	21.7	51	11.1	21.1	9.43	1.1654	---	0.00	703	1	100.0	30
24/04/20	3:00	17.2	17.2	17.1	65	10.5	0.0	E	0.00	1.3	E	17.2	16.7	16.7	---	998.9	0.00	0.0	---	---	---	---	---	---	0.024	0.000	21.9	47	10.1	21.2	8.75	1.1653	---	0.00	702	1	100.0	30
24/04/20	3:30	16.9	17.1	16.8	66	10.5	0.0	E	0.00	0.4	E	16.9	16.5	16.5	---	999.0	0.00	0.0	---	---	---	---	---	---	0.029	0.000	21.9	51	11.3	21.4	9.42	1.1641	---	0.00	703	1	100.0	30
24/04/20	4:00	16.6	16.8	16.6	67	10.5	0.0	ESE	0.00	1.8	ESE	16.6	16.2	16.2	---	998.8	0.00	0.0	---	---	---	---	---	---	0.036	0.000	21.9	50	11.0	21.3	9.25	1.1644	---	0.00	702	1	100.0	30
24/04/20	4:30	16.6	16.7	16.6	68	10.7	0.0	ESE	0.00	0.9	ESE	16.6	16.2	16.2	---	998.6	0.00	0.0	---	---	---	---	---	---	0.036	0.000	22.0	47	10.2	21.2	8.75	1.1646	---	0.00	703	1	100.0	30
24/04/20	5:00	16.6	16.6	16.5	68	10.6	0.0	SE	0.00	0.4	SE	16.6	16.1	16.1	---	998.8	0.00	0.0	---	---	---	---	---	---	0.037	0.000	21.9	51	11.3	21.3	9.42	1.1641	---	0.00	702	1	100.0	30
24/04/20	5:30	16.5	16.6	16.4	68	10.6	0.0	SE	0.00	0.9	SE	16.5	16.1	16.1	---	998.9	0.00	0.0	---	---	---	---	---	---	0.038	0.000	21.8	51	11.2	21.2	9.42	1.1646	---	0.00	703	1	100.0	30
24/04/20	6:00	16.5	16.6	16.4	68	10.6	0.0	SE	0.00	1.8	SE	16.5	16.1	16.1	---	999.4	0.00	0.0	---	---	---	---	---	---	0.038	0.000	21.9	50	11.0	21.3	9.25	1.1652	---	0.00	702	1	100.0	30
24/04/20	6:30	16.7	16.9	16.6	68	10.8	0.0	SE	0.00	0.4	SE	16.7	16.3	16.3	---	1000.3	0.00	0.0	---	---	---	---	---	---	0.034	0.000	21.9	45	9.4	21.0	8.45	1.1678	---	0.00	702	1	100.0	30
24/04/20	7:00	16.7	16.8	16.5	69	11.0	0.0	SE	0.00	2.2	SE	16.7	16.3	16.3	---	1001.2	0.00	0.0	---	---	---	---	---	---	0.035	0.000	21.9	51	11.3	21.3	9.42	1.1669	---	0.00	703	1	100.0	30
24/04/20	7:30	16.7	16.9	16.5	66	10.3	1.3	SSE	2.41	4.5	SSE	16.7	16.2	16.2	---	1001.9	0.00	0.0	---	---	---	---	---	---	0.035	0.000	21.9	50	11.0	21.3	9.25	1.1682	---	0.00	702	1	100.0	30
24/04/20	8:00	16.6	16.8	16.3	66	10.2	1.8	S	3.22	6.3	S	16.6	16.1	16.1	---	1002.3	0.00	0.0	---	---	---	---	---	---	0.037	0.000	21.9	48	10.4	21.2	8.88	1.1690	---	0.00	703	1	100.0	30
24/04/20	8:30	16.4	16.7	16.3	65	9.8	1.8	S	3.22	7.2	S	16.4	15.9	15.9	---	1002.7	0.00	0.0	---	---	---	---	---	---	0.039	0.000	21.9	48	10.4	21.2	8.88	1.1695	---	0.00	702	1	100.0	30
24/04/20	9:00	16.9	17.1	16.7	64	10.0	1.8	S	3.22	7.2	S	16.9	16.4	16.4	---	1003.2	0.00	0.0	---	---	---	---	---	---	0.030	0.000	21.9	50	11.0	21.3	9.25	1.1696	---	0.00	703	1	100.0	30
24/04/20	9:30	17.4	17.8	17.1	62	10.0	2.2	S	4.02	6.7	S	17.4	16.8	16.8	---	1003.6	0.00	0.0	---	---	---	---	---	---	0.020	0.000	21.9	46	9.8	21.1	8.62	1.1711	---	0.00	702	1	100.0	30
24/04/20	10:00	18.1	18.4	17.8	58	9.7	3.1	S	5.63	7.2	S	18.1	17.4	17.4	---	1003.8	0.00	0.0	---	---	---	---	---	---	0.006	0.000	21.8	50	10.9	21.2	9.25	1.1706	---	0.00	703	1	100.0	30
24/04/20	10:30	18.8	19.2	18.4	55	9.5	2.2	S	4.02	8.5	S	18.8	18.1	18.1	---	1003.9	0.00	0.0	---	---	---	---	---	---	0.000	0.009	21.9	46	9.8	21.1	8.62	1.1715	---	0.00	702	1	100.0	30
24/04/20	11:00	19.4	19.7	19.2	52	9.3	2.2	S	4.02	7.2	S	19.4	18.7	18.7	---	1004.1	0.00	0.0	---	---	---	---	---	---	0.000	0.022	21.9	46	9.8	21.1	8.62	1.1717	---	0.00	702	1	100.0	30
24/04/20	11:30	19.8	20.2	19.7	51	9.4	2.2	S	4.02	7.2	S	19.8	19.1	19.1	---	1004.2	0.00	0.0	---	---	---	---	---	---	0.000	0.031	22.0	48	10.5	21.3	8.88	1.1710	---	0.00	703	1	100.0	30
24/04/20	12:00	20.1	20.3	19.8	51	9.6	2.7	SSE	4.83	8.0	SE	20.1	19.3	19.3	---	1004.2	0.00	0.0	---	---	---	---	---	---	0.000	0.036	22.2	46	10.0	21.5	8.61	1.1705	---	0.00	702	1	100.0	30
24/04/20	12:30	20.4	20.7	20.1	50	9.6	2.7	SSE	4.83	8.0	S	20.4	19.6	19.6	---	1004.1	0.00	0.0	---	---	---	---	---	---	0.000	0.043	22.2	45	9.7	21.4	8.45	1.1710	---	0.00	703	1	100.0	30
24/04/20	13:00	20.9	21.1	20.6	48	9.5	2.7	S	4.83	7.2	S	20.9	19.9	19.9	---	1003.8	0.00	0.0	---	---	---	---	---	---	0.000	0.053	22.1	46	9.9	21.3	8.62	1.1708	---	0.00	702	1	100.0	30
24/04/20	13:30	21.1	21.2	20.8	49	9.9	3.1	S	5.63	8.5	S	21.1	20.1	20.1	---	1003.4	0.00	0.0	---	---	---	---	---	---	0.000	0.057	22.5	45	10.0	21.8	8.45	1.1684	---	0.00	703	1	100.0	30
24/04/20	14:00	21.4	21.7	21.2	48	10.0	2.7	S	4.83	7.2	SSE	21.4	20.6	20.6	---	1003.2	0.00	0.0	---	---	---	---	---	---	0.000	0.065	22.7	46	10.5	22.2	8.59	1.1671	---	0.00	702	1	100.0	30
24/04/20	14:30	21.7	21.9	21.6	47	9.9	2.2	SSE	4.02	7.2	S	21.7	20.8	20.8	---	1003.0	0.00	0.0	---	---	---	---	---	---	0.000	0.071	22.3	46	10.1	21.7	8.61	1.1685	---	0.00	703	1	100.0	30
24/04/20	15:00	22.0	22.2	21.7	46	9.8	2.7	S	4.83	8.5	S	22.0	21.2	21.2	---	1003.0	0.00	0.0	---	---	---	---	---	---	0.000	0.076	22.3	46	10.1	21.7	8.61	1.1685	---	0.00	702	1	100.0	30
24/04/20	15:30	22.3	22.5	21.9	46	10.1	2.7	S	4.83	6.3	S	22.3	21.6	21.6	---	1002.8	0.00	0.0	---	---	---	---	---	---	0.000	0.082	22.4	46	10.2	21.7	8.60	1.1680	---	0.00	702	1	100.0	30
24/04/20	16:00	22.7	23.0	22.2	46	10.5	1.3	SSE	2.41	5.8	S	22.7	22.2	22.2	---	1002.8	0.00	0.0	---	---	---	---	---	---	0.000	0.090	22.4	47	10.5	21.8	8.75	1.1677	---	0.00	703	1	100.0	30
24/04/20	16:30	22.9	23.1	22.7	45	10.3	2.2	S	4.02	8.0	S	22.9	22.4	22.4	---	1003.1	0.00	0.0	---	---	---	---	---	---	0.000	0.095	22.4	49	11.1	21.9	9.05	1.1674	---	0.00	702	1	100.0	30
24/04/20	17:00	23.0	23.2	22.8	44	10.1	2.2	S	4.02	8.5	S	23.0	22.5	22.5	---	1003.0	0.00	0.0	---	---	---	---	---	---	0.000	0.097	22.3	50	11.4	21.8	9.25	1.1675	---	0.00	703	1	100.0	30
24/04/20	17:30	23.2	23.3	23.0	44	10.2	1.8	S	3.22	5.4	S	23.2	22.7	22.7	---	1003.6	0.00	0.0	---	---	---	---	---	---	0.000	0.101	22.1	51	11.5	21.6	9.41	1.1688	---	0.00	702	1	100.0	30
24/04/20	18:00	23.0	23.2	22.8	46	10.8	0.4	S	0.80	4.0	S	23.0	22.6	22.6	---	1003.9	0.00	0.0	---	---	---	---	---	---	0.000	0.097	22.2	51	11.5	21.7	9.41	1.1688	---	0.00	703	1	100.0	30
24/04/20	18:30	22.5	22.8	22.2	46	10.3	0.4	S	0.80	3.1	S	22.5	21.9	21.9	---	1004.3	0.00	0.0	---	---	---	---	---	---	0.000	0.087	22.0	52	11.7	21.5	9.62	1.1698	---	0.00	702	1	100.0	30
24/04/20	19:00	21.9	22.2	21.7	48	10.4	0.0	S	0.00	2.7	SSE	21.9	21.2	21.2	---	1004.8	0.00	0.0	---	---	---	---	---	---	0.000	0.075	21.9	50	11.0	21.3	9.25	1.1713	---	0.00	703	1	100.0	30
24/04/20	19:30	21.7	21.7	21.5	47	9.9	0.4	S	0.80	3.1	S	21.7	20.8	20.8	---	1005.5	0.00	0.0	---	---	---	---	---	---	0.000	0.069	21.9	48	10.4	21.2	8.88	1.1730	---	0.00	702	1	100.0	30
24/04/20	20:00	21.2	21.6	20.9	48	9.8	0.4	S	0.80	2.7	SSE	21.2	20.2	20.2	---	1006.3	0.00	0.0	---	---	---	---	---	---	0.000	0.060	21.9	50	11.0	21.3	9.25	1.1733	---	0.00	702	1	100.0	30
24/04/20	20:30	20.7	20.9	20.4	50	9.9	0.0	SSE	0.00	2.7	SSE	20.7	19.8	19.8	---	1006.4	0.00	0.0	---	---	---	---	---	---	0.000	0.049	21.9	50	11.0	21.3	9.25	1.1735	---	0.00	703	1	100.0	30
24/04/20	21:00	20.2	20.4	20.1	51	9.8	0.0	SSE	0.00	0.9	SSE	20.2	19.5	19.5	---	1007.2	0.00	0.0	---	---	---	---	---	---	0.000	0.039	21.9	50	11.0	21.3	9.25	1.1744	---	0.00	702	1	100.0	30
24/04/20	21:30	19.8	20.1	19.5	51	9.3	0.4	SSE	0.80	3.6	ESE	19.8	19.1	19.1	---	1007.8	0.00	0.0	---	---	---	---	---	---	0.000	0.030	21.9	48	10.4	21.2	8.88	1.1757	---	0.00	703	1	100.0	30
24/04/20	22:00	19.6	19.6	19.5	51	9.1	0.4	SSE	0.80	4.0	S	19.6	18.8	18.8	---	1008.2	0.00	0.0	---	---	---	---	---	---	0.000	0.025	21.9	46	9.7	21.1	8.62	1.1768	---	0.00	702	1	100.0	30
24/04/20	22:30	19.3	19.5	19.2	51	8.9	0.9	S	1.61	4.0	S	19.3	18.4	18.4	---	1008.5	0.00	0.0	---	---	---	---	---	---	0.000	0.020	21.8	47	10.0	21.0	8.75	1.1772	---	0.00	703	1	100.0	30
24/04/20	23:00	19.2	19.3	19.1	50	8.5	0.4	SSE	0.80	3.1	SSE	19.2	18.3	18.3	---	1008.7	0.00	0.0	---	---	---	---	---	---	0.000	0.017	21.8	49	10.6	21.1	9.05	1.1768	---	0.00	702	1	100.0	30
24/04/20	23:30	19.2	19.2	19.1	49	8.2	0.4	S	0.80	2.7	S	19.2	18.2	18.2	---	1009.0	0.00	0.0	---	---	---	---	---	---	0.000	0.017	21.8	49	10.6	21.1	9.05	1.1772	---	0.00	702	1	100.0	30
25/04/20	00:00	19.0	19.1	18.8	50	8.3	0.4	SSW	0.80	3.6	SSW	19.0	18.1	18.1	---	1009.4	0.00	0.0	---	---	---	---	---	---	0.000	0.014	21.8	46	9.7	20.9	8.62	1.1784	---	0.00	703	1	100.0	30
25/04/20	0:30	18.6	18.8	18.4	51	8.2	0.0	S	0.00	2.7	SSW	18.6	17.6	17.6	---	1009.6	0.00	0.0	---	---	---	---	---	---	0.000	0.005	21.9	47	10.1	21.1	8.75	1.1781	---	0.00	702	1	100.0	30
25/04/20	1:00	18.4	18.5	18.3	49	7.5	0.4	S	0.80	3.6	SSE	18.4	17.4	17.4	---	1009.5	0.00	0.0	---	---	---	---	---	---	0.000	0.001	21.9	47	10.1	21.1	8.75	1.1780	---	0.00	703	1	100.0	30
25/04/20	1:30	18.3	18.4	18.1	50	7.7	0.4	S	0.80	3.1	SSE	18.3	17.3	17.3	---	1009.5	0.00	0.0	---	---	---	---	---	---	0.001	0.000	21.9	45	9.5	21.1	8.45	1.1784	---	0.00	702	1	100.0	30
25/04/20	2:00	17.9	18.1	17.8	50	7.3	0.4	SSE	0.80	3.6	SSW	17.9	16.8	16.8	---	1009.5	0.00	0.0	---	---	---	---	---	---	0.009	0.000	21.8	47	10.0	21.0	8.75	1.1782	---	0.00	702	1	100.0	30
25/04/20	2:30	17.6	17.8	17.3	51	7.3	0.4	S	0.80	3.1	S	17.6	16.6	16.6	---	1009.2	0.00	0.0	---	---	---	---	---	---	0.015	0.000	21.9	44	9.1	21.0	8.32	1.1784	---	0.00	703	1	100.0	30
25/04/20	3:00	17.1	17.3	16.9	53	7.4	0.0	S	0.00	2.2	S	17.1	16.2	16.2	---	1008.9	0.00	0.0	---	---	---	---	---	---	0.025	0.000	21.8	46	9.7	20.9	8.62	1.1779	---	0.00	702	1	100.0	30
25/04/20	3:30	16.4	16.8	16.1	54	7.1	0.0	S	0.00	2.2	S	16.4	15.4	15.4	---	1008.4	0.00	0.0	---	---	---	---	---	---	0.041	0.000	21.9	44	9.1	20.9	8.32	1.1776	---	0.00	703	1	100.0	30
25/04/20	4:00	16.1	16.2	16.0	54	6.8	0.0	S	0.00	0.9	S	16.1	15.1	15.1	---	1008.4	0.00	0.0	---	---	---	---	---	---	0.046	0.000	21.8	46	9.7	20.9	8.62	1.1773	---	0.00	702	1	100.0	30
25/04/20	4:30	16.1	16.3	15.9	53	6.5	0.0	S	0.00	2.7	S	16.1	15.1	15.1	---	1008.2	0.00	0.0	---	---	---	---	---	---	0.047	0.000	21.8	45	9.3	20.8	8.45	1.1776	---	0.00	703	1	100.0	30
25/04/20	5:00	16.2	16.3	15.8	55	7.1	0.0	S	0.00	2.2	S	16.2	15.2	15.2	---	1008.5	0.00	0.0	---	---	---	---	---	---	0.045	0.000	21.8	43	8.7	20.8	8.20	1.1784	---	0.00	702	1	100.0	30
25/04/20	5:30	15.4	15.8	15.2	58	7.2	0.0	---	0.00	0.0	---	15.4	14.6	14.6	---	1008.8	0.00	0.0	---	---	---	---	---	---	0.060	0.000	21.7	45	9.3	20.7	8.45	1.1786	---	0.00	703	1	100.0	30
25/04/20	6:00	14.9	15.2	14.7	60	7.2	0.0	S	0.00	1.8	S	14.9	14.2	14.2	---	1009.0	0.00	0.0	---	---	---	---	---	---	0.071	0.000	21.7	45	9.3	20.7	8.45	1.1789	---	0.00	702	1	100.0	30
25/04/20	6:30	14.6	14.7	14.4	60	6.9	0.0	S	0.00	0.9	S	14.6	13.8	13.8	---	1009.4	0.00	0.0	---	---	---	---	---	---	0.079	0.000	21.8	44	9.0	20.8	8.33	1.1793	---	0.00	702	1	100.0	30
25/04/20	7:00	14.4	14.4	14.3	59	6.5	0.0	---	0.00	0.0	---	14.4	13.6	13.6	---	1010.0	0.00	0.0	---	---	---	---	---	---	0.082	0.000	21.7	44	8.9	20.7	8.33	1.1804	---	0.00	703	1	100.0	30
25/04/20	7:30	14.4	14.7	14.3	58	6.3	0.0	S	0.00	2.7	S	14.4	13.6	13.6	---	1010.5	0.00	0.0	---	---	---	---	---	---	0.081	0.000	21.8	43	8.6	20.7	8.20	1.1810	---	0.00	702	1	100.0	30
25/04/20	8:00	14.8	14.9	14.7	58	6.6	0.0	S	0.00	1.8	S	14.8	14.0	14.0	---	1011.0	0.00	0.0	---	---	---	---	---	---	0.073	0.000	21.8	42	8.3	20.8	8.02	1.1817	---	0.00	703	1	100.0	30
25/04/20	8:30	14.6	14.7	14.5	59	6.6	0.0	S	0.00	1.8	S	14.6	13.7	13.7	---	1011.4	0.00	0.0	---	---	---	---	---	---	0.079	0.000	21.8	42	8.3	20.8	8.02	1.1822	---	0.00	702	1	100.0	30
25/04/20	9:00	15.3	16.2	14.5	54	6.1	0.9	S	1.61	4.0	S	15.3	14.3	14.3	---	1011.8	0.00	0.0	---	---	---	---	---	---	0.063	0.000	21.8	43	8.6	20.7	8.20	1.1825	---	0.00	703	1	100.0	30
25/04/20	9:30	16.9	17.5	16.2	51	6.7	1.8	S	3.22	6.7	SSE	16.9	15.8	15.8	---	1012.4	0.00	0.0	---	---	---	---	---	---	0.030	0.000	21.8	43	8.6	20.7	8.20	1.1832	---	0.00	702	1	100.0	30
25/04/20	10:00	17.7	17.7	17.5	52	7.7	2.2	S	4.02	6.7	S	17.7	16.7	16.7	---	1012.7	0.00	0.0	---	---	---	---	---	---	0.014	0.000	21.9	43	8.7	20.9	8.19	1.1831	---	0.00	703	1	100.0	30
25/04/20	10:30	18.0	18.2	17.7	50	7.4	2.7	S	4.83	6.7	S	18.0	16.9	16.9	---	1012.7	0.00	0.0	---	---	---	---	---	---	0.007	0.000	21.9	43	8.7	20.9	8.19	1.1830	---	0.00	702	1	100.0	30
25/04/20	11:00	18.4	18.7	18.2	49	7.5	2.7	SSE	4.83	8.5	SSE	18.4	17.4	17.4	---	1012.6	0.00	0.0	---	---	---	---	---	---	0.000	0.002	21.9	43	8.7	20.9	8.19	1.1829	---	0.00	702	1	100.0	30
25/04/20	11:30	18.9	19.3	18.6	47	7.4	2.2	S	4.02	6.3	S	18.9	17.9	17.9	---	1012.5	0.00	0.0	---	---	---	---	---	---	0.000	0.013	21.8	43	8.7	20.8	8.20	1.1831	---	0.00	703	1	100.0	30
25/04/20	12:00	19.8	20.2	19.3	46	7.9	2.7	S	4.83	8.5	S	19.8	18.8	18.8	---	1012.5	0.00	0.0	---	---	---	---	---	---	0.000	0.031	21.9	43	8.7	20.9	8.19	1.1828	---	0.00	702	1	100.0	30
25/04/20	12:30	20.2	20.6	19.8	44	7.5	2.2	S	4.02	6.7	SSE	20.2	19.1	19.1	---	1012.5	0.00	0.0	---	---	---	---	---	---	0.000	0.038	22.0	43	8.8	21.1	8.19	1.1823	---	0.00	703	1	100.0	30
25/04/20	13:00	20.4	20.5	20.2	45	8.1	2.7	S	4.83	8.9	S	20.4	19.3	19.3	---	1012.3	0.00	0.0	---	---	---	---	---	---	0.000	0.043	22.0	37	6.6	20.8	7.32	1.1839	---	0.00	702	1	100.0	30
25/04/20	13:30	20.7	20.9	20.5	45	8.4	1.8	SSE	3.22	8.5	S	20.7	19.6	19.6	---	1012.1	0.00	0.0	---	---	---	---	---	---	0.000	0.050	21.9	43	8.7	20.9	8.19	1.1823	---	0.00	703	1	100.0	30
25/04/20	14:00	20.9	21.2	20.8	44	8.2	2.2	S	4.02	8.0	S	20.9	19.7	19.7	---	1012.1	0.00	0.0	---	---	---	---	---	---	0.000	0.054	22.0	43	8.8	21.1	8.19	1.1818	---	0.00	702	1	100.0	30
25/04/20	14:30	21.1	21.5	20.8	45	8.7	2.2	SSE	4.02	8.5	S	21.1	19.9	19.9	---	1011.8	0.00	0.0	---	---	---	---	---	---	0.000	0.058	22.1	43	8.9	21.1	8.18	1.1811	---	0.00	703	1	100.0	30
25/04/20	15:00	21.4	21.6	21.2	45	9.0	1.8	S	3.22	6.7	S	21.4	20.3	20.3	---	1011.6	0.00	0.0	---	---	---	---	---	---	0.000	0.064	22.2	43	9.0	21.3	8.17	1.1801	---	0.00	702	1	100.0	30
25/04/20	15:30	21.4	21.6	21.1	47	9.7	1.3	SSE	2.41	6.3	S	21.4	20.5	20.5	---	1011.4	0.00	0.0	---	---	---	---	---	---	0.000	0.065	22.4	44	9.5	21.7	8.30	1.1788	---	0.00	702	1	100.0	30
25/04/20	16:00	21.1	21.4	20.8	49	9.9	2.2	S	4.02	6.3	S	21.1	20.1	20.1	---	1011.4	0.00	0.0	---	---	---	---	---	---	0.000	0.057	22.4	44	9.5	21.7	8.30	1.1788	---	0.00	703	1	100.0	30
25/04/20	16:30	20.9	21.3	20.6	49	9.8	1.8	S	3.22	8.0	SSE	20.9	20.0	20.0	---	1011.7	0.00	0.0	---	---	---	---	---	---	0.000	0.054	22.2	45	9.7	21.4	8.45	1.1796	---	0.00	702	1	100.0	30
25/04/20	17:00	20.7	20.9	20.3	50	9.9	2.2	S	4.02	7.2	S	20.7	19.8	19.8	---	1012.0	0.00	0.0	---	---	---	---	---	---	0.000	0.049	22.1	45	9.6	21.2	8.45	1.1808	---	0.00	703	1	100.0	30
25/04/20	17:30	20.3	20.5	20.1	53	10.4	1.3	S	2.41	5.8	SSE	20.3	19.7	19.7	---	1012.4	0.00	0.0	---	---	---	---	---	---	0.000	0.041	22.1	51	11.4	21.6	9.42	1.1794	---	0.00	702	1	100.0	30
25/04/20	18:00	19.8	20.1	19.6	54	10.2	1.3	S	2.41	5.8	SSE	19.8	19.2	19.2	---	1012.5	0.00	0.0	---	---	---	---	---	---	0.000	0.030	23.4	48	11.8	23.2	8.93	1.1739	---	0.00	703	1	100.0	30
25/04/20	18:30	19.6	19.7	19.5	54	10.0	1.3	S	2.41	5.8	S	19.6	19.0	19.0	---	1012.9	0.00	0.0	---	---	---	---	---	---	0.000	0.027	24.7	45	12.0	24.4	8.42	1.1688	---	0.00	702	1	100.0	30
25/04/20	19:00	19.3	19.5	19.2	55	10.1	1.8	S	3.22	5.8	S	19.3	18.8	18.8	---	1013.4	0.00	0.0	---	---	---	---	---	---	0.000	0.021	27.2	50	15.9	27.4	9.13	1.1550	---	0.00	702	1	100.0	30
25/04/20	19:30	18.9	19.2	18.7	57	10.2	0.9	S	1.61	4.0	S	18.9	18.3	18.3	---	1014.1	0.00	0.0	---	---	---	---	---	---	0.000	0.013	27.7	45	14.7	27.6	8.31	1.1554	---	0.00	703	1	100.0	30
25/04/20	20:00	18.4	18.7	18.2	59	10.3	0.9	S	1.61	4.0	SSE	18.4	17.9	17.9	---	1014.6	0.00	0.0	---	---	---	---	---	---	0.000	0.002	27.8	45	14.8	27.7	8.31	1.1554	---	0.00	702	1	100.0	30
25/04/20	20:30	17.8	18.2	17.5	62	10.4	0.4	S	0.80	3.1	S	17.8	17.3	17.3	---	1014.9	0.00	0.0	---	---	---	---	---	---	0.012	0.000	27.9	52	17.2	28.5	9.40	1.1522	---	0.00	703	1	100.0	30
25/04/20	21:00	17.4	17.5	17.4	62	10.0	0.0	S	0.00	1.8	S	17.4	16.8	16.8	---	1015.3	0.00	0.0	---	---	---	---	---	---	0.020	0.000	27.9	61	19.7	29.4	10.95	1.1488	---	0.00	702	1	100.0	30
25/04/20	21:30	17.4	17.5	17.4	62	10.0	0.0	SSW	0.00	2.7	SSW	17.4	16.8	16.8	---	1015.6	0.00	0.0	---	---	---	---	---	---	0.020	0.000	27.8	52	17.1	28.3	9.41	1.1536	---	0.00	703	1	100.0	30
25/04/20	22:00	17.6	17.8	17.4	61	9.9	0.0	S	0.00	2.7	SSW	17.6	16.9	16.9	---	1015.9	0.00	0.0	---	---	---	---	---	---	0.016	0.000	26.2	49	14.7	26.2	8.97	1.1634	---	0.00	702	1	100.0	30
25/04/20	22:30	17.9	17.9	17.8	61	10.3	0.4	S	0.80	3.6	S	17.9	17.3	17.3	---	1016.1	0.00	0.0	---	---	---	---	---	---	0.009	0.000	23.8	67	17.3	24.3	12.25	1.1697	---	0.00	703	1	100.0	30
25/04/20	23:00	17.7	17.8	17.6	62	10.3	0.0	S	0.00	2.2	S	17.7	17.2	17.2	---	1016.4	0.00	0.0	---	---	---	---	---	---	0.013	0.000	22.8	56	13.5	22.8	10.29	1.1788	---	0.00	702	1	100.0	30
25/04/20	23:30	17.3	17.6	16.9	64	10.4	0.0	S	0.00	0.4	S	17.3	16.8	16.8	---	1016.5	0.00	0.0	---	---	---	---	---	---	0.022	0.000	22.3	68	16.1	22.6	12.55	1.1777	---	0.00	702	1	100.0	30
26/04/20	00:00	16.7	16.9	16.6	65	10.1	0.0	S	0.00	1.8	S	16.7	16.2	16.2	---	1016.3	0.00	0.0	---	---	---	---	---	---	0.034	0.000	22.1	68	15.9	22.3	12.55	1.1787	---	0.00	703	1	100.0	30
26/04/20	0:30	16.7	16.8	16.6	64	9.8	0.0	S	0.00	0.4	S	16.7	16.1	16.1	---	1016.2	0.00	0.0	---	---	---	---	---	---	0.035	0.000	22.0	55	12.5	21.6	10.12	1.1829	---	0.00	702	1	100.0	30
26/04/20	1:00	16.8	16.9	16.8	64	10.0	0.0	S	0.00	0.4	S	16.8	16.3	16.3	---	1016.4	0.00	0.0	---	---	---	---	---	---	0.031	0.000	21.9	62	14.3	21.8	11.32	1.1815	---	0.00	703	1	100.0	30
26/04/20	1:30	17.1	17.2	16.9	63	10.0	0.0	S	0.00	2.7	S	17.1	16.5	16.5	---	1015.9	0.00	0.0	---	---	---	---	---	---	0.027	0.000	21.8	63	14.5	21.8	11.52	1.1810	---	0.00	702	1	100.0	30
26/04/20	2:00	17.4	17.5	17.2	61	9.8	0.9	S	1.61	3.6	S	17.4	16.8	16.8	---	1016.1	0.00	0.0	---	---	---	---	---	---	0.020	0.000	21.9	53	11.9	21.4	9.79	1.1840	---	0.00	702	1	100.0	30
26/04/20	2:30	17.4	17.5	17.2	61	9.8	0.9	S	1.61	4.5	SSE	17.4	16.8	16.8	---	1015.8	0.00	0.0	---	---	---	---	---	---	0.020	0.000	21.8	58	13.1	21.5	10.70	1.1826	---	0.00	703	1	100.0	30
26/04/20	3:00	17.1	17.3	17.0	62	9.8	0.4	S	0.80	3.6	S	17.1	16.5	16.5	---	1015.7	0.00	0.0	---	---	---	---	---	---	0.025	0.000	21.8	59	13.4	21.6	10.90	1.1822	---	0.00	702	1	100.0	30
26/04/20	3:30	16.9	17.0	16.8	63	9.8	0.4	S	0.80	2.7	SSW	16.9	16.3	16.3	---	1015.6	0.00	0.0	---	---	---	---	---	---	0.030	0.000	21.8	50	10.9	21.1	9.25	1.1848	---	0.00	703	1	100.0	30
26/04/20	4:00	16.7	16.8	16.6	64	9.8	0.0	S	0.00	1.3	S	16.7	16.1	16.1	---	1015.4	0.00	0.0	---	---	---	---	---	---	0.035	0.000	21.7	56	12.6	21.3	10.33	1.1830	---	0.00	702	1	100.0	30
26/04/20	4:30	16.5	16.6	16.4	65	9.9	0.0	---	0.00	0.0	---	16.5	16.0	16.0	---	1015.2	0.00	0.0	---	---	---	---	---	---	0.038	0.000	21.8	56	12.6	21.4	10.33	1.1826	---	0.00	703	1	100.0	30
26/04/20	5:00	16.3	16.4	16.3	65	9.7	0.0	S	0.00	1.3	S	16.3	15.7	15.7	---	1015.1	0.00	0.0	---	---	---	---	---	---	0.043	0.000	21.7	55	12.2	21.2	10.13	1.1833	---	0.00	702	1	100.0	30
26/04/20	5:30	16.3	16.4	16.3	65	9.7	0.0	S	0.00	0.9	S	16.3	15.8	15.8	---	1015.0	0.00	0.0	---	---	---	---	---	---	0.042	0.000	21.7	55	12.3	21.2	10.13	1.1829	---	0.00	703	1	100.0	30
26/04/20	6:00	16.3	16.4	16.3	66	10.0	0.0	S	0.00	1.8	S	16.3	15.8	15.8	---	1015.2	0.00	0.0	---	---	---	---	---	---	0.042	0.000	21.8	52	11.5	21.2	9.63	1.1838	---	0.00	702	1	100.0	30
26/04/20	6:30	16.2	16.3	16.2	66	9.9	0.0	---	0.00	0.0	---	16.2	15.7	15.7	---	1015.2	0.00	0.0	---	---	---	---	---	---	0.044	0.000	21.7	54	12.0	21.1	9.93	1.1837	---	0.00	702	1	100.0	30
26/04/20	7:00	16.2	16.2	16.1	66	9.8	0.0	---	0.00	0.0	---	16.2	15.7	15.7	---	1015.3	0.00	0.0	---	---	---	---	---	---	0.045	0.000	21.8	51	11.2	21.2	9.43	1.1842	---	0.00	703	1	100.0	30
26/04/20	7:30	16.1	16.1	16.0	67	9.9	0.0	---	0.00	0.0	---	16.1	15.6	15.6	---	1015.4	0.00	0.0	---	---	---	---	---	---	0.047	0.000	21.7	53	11.7	21.2	9.81	1.1840	---	0.00	702	1	100.0	30
26/04/20	8:00	15.9	16.1	15.8	67	9.8	0.0	---	0.00	0.0	---	15.9	15.4	15.4	---	1015.4	0.00	0.0	---	---	---	---	---	---	0.050	0.000	21.8	53	11.8	21.2	9.80	1.1838	---	0.00	703	1	100.0	30
26/04/20	8:30	15.7	15.8	15.7	69	10.0	0.0	---	0.00	0.0	---	15.7	15.3	15.3	---	1015.5	0.00	0.0	---	---	---	---	---	---	0.054	0.000	21.8	53	11.8	21.2	9.80	1.1839	---	0.00	702	1	100.0	30
26/04/20	9:00	15.9	16.1	15.8	67	9.8	0.0	S	0.00	1.3	S	15.9	15.4	15.4	---	1015.5	0.00	0.0	---	---	---	---	---	---	0.050	0.000	21.7	53	11.7	21.1	9.81	1.1844	---	0.00	703	1	100.0	30
26/04/20	9:30	16.2	16.4	16.1	66	9.9	0.0	S	0.00	0.9	S	16.2	15.7	15.7	---	1015.7	0.00	0.0	---	---	---	---	---	---	0.044	0.000	21.8	51	11.2	21.2	9.42	1.1844	---	0.00	702	1	100.0	30
26/04/20	10:00	16.4	16.5	16.3	65	9.8	0.0	S	0.00	0.4	S	16.4	15.8	15.8	---	1015.8	0.00	0.0	---	---	---	---	---	---	0.041	0.000	21.7	52	11.4	21.1	9.63	1.1847	---	0.00	703	1	100.0	30
26/04/20	10:30	16.7	16.9	16.5	65	10.1	0.0	---	0.00	0.0	---	16.7	16.2	16.2	---	1015.6	0.00	0.0	---	---	---	---	---	---	0.035	0.000	21.8	52	11.5	21.2	9.63	1.1842	---	0.00	702	1	100.0	30
26/04/20	11:00	17.1	17.2	16.9	63	10.0	0.0	S	0.00	2.2	S	17.1	16.6	16.6	---	1015.3	0.00	0.0	---	---	---	---	---	---	0.025	0.000	21.7	49	10.5	20.9	9.05	1.1851	---	0.00	702	1	100.0	30
26/04/20	11:30	17.5	17.8	17.2	62	10.1	0.0	WSW	0.00	2.7	WSW	17.5	16.9	16.9	---	1015.1	0.00	0.0	---	---	---	---	---	---	0.017	0.000	21.8	49	10.6	21.1	9.05	1.1846	---	0.00	703	1	100.0	30
26/04/20	12:00	17.9	18.1	17.8	61	10.3	0.0	WSW	0.00	2.2	WSW	17.9	17.3	17.3	---	1014.8	0.00	0.0	---	---	---	---	---	---	0.009	0.000	21.8	51	11.2	21.2	9.43	1.1837	---	0.00	702	1	100.0	30
26/04/20	12:30	18.1	18.3	17.9	62	10.7	0.0	SW	0.00	1.8	SW	18.1	17.6	17.6	---	1014.4	0.00	0.0	---	---	---	---	---	---	0.006	0.000	21.8	49	10.6	21.1	9.05	1.1835	---	0.00	703	1	100.0	30
26/04/20	13:00	18.6	18.8	18.3	61	10.9	0.0	N	0.00	2.7	N	18.6	18.1	18.1	---	1014.0	0.00	0.0	---	---	---	---	---	---	0.000	0.006	21.8	50	10.9	21.2	9.25	1.1827	---	0.00	702	1	100.0	30
26/04/20	13:30	18.8	19.1	18.7	61	11.1	0.0	NE	0.00	2.2	NNW	18.8	18.4	18.4	---	1013.7	0.00	0.0	---	---	---	---	---	---	0.000	0.010	21.8	48	10.3	21.0	8.87	1.1832	---	0.00	703	1	100.0	30
26/04/20	14:00	19.1	19.2	19.0	61	11.4	0.4	ENE	0.80	3.1	NE	19.1	18.7	18.7	---	1013.1	0.00	0.0	---	---	---	---	---	---	0.000	0.016	21.8	53	11.8	21.2	9.80	1.1810	---	0.00	702	1	100.0	30
26/04/20	14:30	19.1	19.2	19.0	62	11.6	0.4	ENE	0.80	3.1	NE	19.1	18.7	18.7	---	1012.5	0.00	0.0	---	---	---	---	---	---	0.000	0.015	21.8	51	11.2	21.2	9.43	1.1809	---	0.00	702	1	100.0	30
26/04/20	15:00	19.0	19.0	18.9	61	11.3	0.4	ENE	0.80	3.6	NNE	19.0	18.6	18.6	---	1012.2	0.00	0.0	---	---	---	---	---	---	0.000	0.014	21.7	50	10.8	21.0	9.25	1.1811	---	0.00	703	1	100.0	30
26/04/20	15:30	19.1	19.2	19.0	61	11.4	0.0	ENE	0.00	2.2	ESE	19.1	18.7	18.7	---	1012.0	0.00	0.0	---	---	---	---	---	---	0.000	0.015	21.7	53	11.7	21.2	9.81	1.1799	---	0.00	702	1	100.0	30
26/04/20	16:00	19.2	19.2	19.1	61	11.5	0.0	ESE	0.00	1.8	ESE	19.2	18.8	18.8	---	1011.9	0.00	0.0	---	---	---	---	---	---	0.000	0.017	21.7	53	11.7	21.2	9.81	1.1798	---	0.00	703	1	100.0	30
26/04/20	16:30	19.1	19.2	18.9	62	11.7	0.0	SE	0.00	1.8	ESE	19.1	18.8	18.8	---	1011.8	0.00	0.0	---	---	---	---	---	---	0.000	0.016	21.8	54	12.1	21.3	9.93	1.1791	---	0.00	702	1	100.0	30
26/04/20	17:00	18.4	18.9	18.2	63	11.3	0.9	S	1.61	4.5	S	18.4	18.1	18.1	---	1011.7	0.00	0.0	---	---	---	---	---	---	0.000	0.002	21.8	53	11.8	21.2	9.80	1.1793	---	0.00	703	1	100.0	30
26/04/20	17:30	18.1	18.2	18.1	64	11.2	0.4	S	0.80	3.1	S	18.1	17.7	17.7	---	1011.8	0.00	0.0	---	---	---	---	---	---	0.005	0.000	21.6	50	10.7	20.9	9.25	1.1812	---	0.00	702	1	100.0	30
26/04/20	18:00	18.1	18.1	18.1	64	11.2	0.4	S	0.80	3.1	S	18.1	17.7	17.7	---	1012.0	0.00	0.0	---	---	---	---	---	---	0.005	0.000	21.7	50	10.8	20.9	9.25	1.1811	---	0.00	703	1	100.0	30
26/04/20	18:30	18.1	18.1	18.1	64	11.2	0.0	S	0.00	2.7	S	18.1	17.7	17.7	---	1012.0	0.00	0.0	---	---	---	---	---	---	0.005	0.000	21.7	50	10.8	21.0	9.25	1.1809	---	0.00	702	1	100.0	30
26/04/20	19:00	18.0	18.1	18.0	65	11.3	0.0	S	0.00	1.8	S	18.0	17.6	17.6	---	1012.3	0.00	0.0	---	---	---	---	---	---	0.007	0.000	21.7	51	11.1	21.1	9.43	1.1809	---	0.00	702	1	100.0	30
26/04/20	19:30	18.0	18.0	18.0	65	11.3	0.0	S	0.00	1.8	S	18.0	17.6	17.6	---	1012.6	0.00	0.0	---	---	---	---	---	---	0.007	0.000	21.7	54	12.0	21.2	9.93	1.1804	---	0.00	703	1	100.0	30
26/04/20	20:00	17.8	18.0	17.6	69	12.1	0.4	SW	0.80	3.6	SW	17.8	17.6	17.6	---	1012.9	0.00	0.0	---	---	---	---	---	---	0.010	0.000	21.8	54	12.1	21.3	9.93	1.1804	---	0.00	702	1	100.0	30
26/04/20	20:30	17.4	17.6	17.2	72	12.3	0.4	S	0.80	2.7	SSW	17.4	17.3	17.3	---	1013.1	0.00	0.0	---	---	---	---	---	---	0.019	0.000	21.8	55	12.3	21.3	10.13	1.1804	---	0.00	703	1	100.0	30
26/04/20	21:00	17.1	17.2	16.8	74	12.4	0.9	S	1.61	3.1	S	17.1	16.9	16.9	---	1013.7	0.00	0.0	---	---	---	---	---	---	0.027	0.000	21.7	55	12.3	21.2	10.13	1.1813	---	0.00	702	1	100.0	30
26/04/20	21:30	16.4	16.8	16.2	79	12.8	0.4	SSE	0.80	3.1	SSE	16.4	16.4	16.4	---	1013.9	0.00	0.0	---	---	---	---	---	---	0.039	0.000	21.7	50	10.8	21.0	9.25	1.1832	---	0.00	703	1	100.0	30
26/04/20	22:00	15.9	16.2	15.7	85	13.4	0.0	SSE	0.00	2.2	SSE	15.9	16.0	16.0	---	1014.0	0.00	0.0	---	---	---	---	---	---	0.050	0.000	21.7	56	12.5	21.2	10.33	1.1817	---	0.00	702	1	100.0	30
26/04/20	22:30	15.3	15.7	15.1	89	13.5	0.0	SSE	0.00	2.2	SSE	15.3	15.4	15.4	---	1013.9	0.00	0.0	---	---	---	---	---	---	0.063	0.000	21.7	57	12.8	21.3	10.51	1.1812	---	0.00	703	1	100.0	30
26/04/20	23:00	15.2	15.2	15.2	90	13.5	0.0	---	0.00	0.0	---	15.2	15.3	15.3	---	1013.8	0.00	0.0	---	---	---	---	---	---	0.066	0.000	21.6	57	12.7	21.2	10.51	1.1814	---	0.00	702	1	100.0	30
26/04/20	23:30	15.3	15.3	15.2	89	13.5	0.0	---	0.00	0.0	---	15.3	15.4	15.4	---	1013.5	0.00	0.0	---	---	---	---	---	---	0.064	0.000	21.8	50	10.9	21.1	9.25	1.1824	---	0.00	702	1	100.0	30
27/04/20	00:00	15.4	15.4	15.3	88	13.4	0.0	SSE	0.00	0.4	SSE	15.4	15.5	15.5	---	1013.2	0.00	0.0	---	---	---	---	---	---	0.061	0.000	21.7	58	13.0	21.3	10.71	1.1801	---	0.00	703	1	100.0	30
27/04/20	0:30	15.6	15.7	15.4	88	13.6	0.0	SSE	0.00	0.4	SSE	15.6	15.7	15.7	---	1012.8	0.00	0.0	---	---	---	---	---	---	0.058	0.000	21.7	50	10.8	21.0	9.25	1.1819	---	0.00	702	1	100.0	30
27/04/20	1:00	15.7	15.8	15.7	87	13.6	0.0	---	0.00	0.0	---	15.7	15.8	15.8	---	1012.6	0.00	0.0	---	---	---	---	---	---	0.054	0.000	21.7	59	13.3	21.4	10.91	1.1792	---	0.00	703	1	100.0	30
27/04/20	1:30	15.8	15.8	15.8	87	13.6	0.0	---	0.00	0.0	---	15.8	15.9	15.9	---	1012.4	0.00	0.0	---	---	---	---	---	---	0.053	0.000	21.8	51	11.2	21.2	9.43	1.1808	---	0.00	702	1	100.0	30
27/04/20	2:00	15.8	15.8	15.8	87	13.7	0.0	---	0.00	0.0	---	15.8	15.9	15.9	---	1012.2	0.00	0.0	---	---	---	---	---	---	0.052	0.000	21.7	59	13.3	21.4	10.91	1.1786	---	0.00	702	1	100.0	30
27/04/20	2:30	15.8	15.8	15.8	87	13.7	0.0	SSE	0.00	0.4	SSE	15.8	15.9	15.9	---	1012.0	0.00	0.0	---	---	---	---	---	---	0.052	0.000	21.7	51	11.1	21.1	9.43	1.1805	---	0.00	703	1	100.0	30
27/04/20	3:00	15.8	15.8	15.8	87	13.6	0.0	SSE	0.00	1.8	SSE	15.8	15.9	15.9	---	1011.7	0.00	0.0	---	---	---	---	---	---	0.053	0.000	21.7	60	13.6	21.4	11.03	1.1777	---	0.00	702	1	100.0	30
27/04/20	3:30	15.7	15.8	15.7	87	13.6	0.0	SSE	0.00	1.8	SSE	15.7	15.8	15.8	---	1011.1	0.00	0.0	---	---	---	---	---	---	0.054	0.000	21.7	57	12.8	21.3	10.51	1.1777	---	0.00	703	1	100.0	30
27/04/20	4:00	15.7	15.7	15.7	87	13.6	0.0	SSE	0.00	2.2	SSE	15.7	15.8	15.8	---	1010.8	0.00	0.0	---	---	---	---	---	---	0.054	0.000	21.7	57	12.8	21.3	10.51	1.1773	---	0.00	702	1	100.0	30
27/04/20	4:30	15.6	15.7	15.6	88	13.6	0.0	SSE	0.00	2.2	SSE	15.6	15.7	15.7	---	1010.4	0.00	0.0	---	---	---	---	---	---	0.057	0.000	21.7	59	13.3	21.4	10.91	1.1765	---	0.00	703	1	100.0	30
27/04/20	5:00	15.6	15.6	15.6	88	13.6	0.0	SSE	0.00	0.4	SSE	15.6	15.7	15.7	---	1010.2	0.00	0.0	---	---	---	---	---	---	0.058	0.000	21.8	56	12.6	21.4	10.33	1.1766	---	0.00	702	1	100.0	30
27/04/20	5:30	15.6	15.6	15.6	88	13.6	0.0	SSE	0.00	0.4	SSE	15.6	15.7	15.7	---	1009.9	0.00	0.0	---	---	---	---	---	---	0.058	0.000	21.7	60	13.6	21.4	11.03	1.1756	---	0.00	703	1	100.0	30
27/04/20	6:00	15.6	15.6	15.5	88	13.6	0.0	SSE	0.00	1.8	SSE	15.6	15.7	15.7	---	1009.7	0.00	0.0	---	---	---	---	---	---	0.058	0.000	21.7	51	11.1	21.1	9.43	1.1779	---	0.00	702	1	100.0	30
27/04/20	6:30	15.6	15.6	15.5	88	13.6	0.0	SSE	0.00	1.8	SSE	15.6	15.7	15.7	---	1009.7	0.00	0.0	---	---	---	---	---	---	0.057	0.000	21.6	60	13.5	21.4	11.03	1.1757	---	0.00	702	1	100.0	30
27/04/20	7:00	15.5	15.6	15.5	88	13.5	0.0	---	0.00	0.0	---	15.5	15.6	15.6	---	1009.8	0.00	0.0	---	---	---	---	---	---	0.059	0.000	21.7	52	11.4	21.1	9.63	1.1776	---	0.00	703	1	100.0	30
27/04/20	7:30	15.5	15.6	15.5	88	13.5	0.0	---	0.00	0.0	---	15.5	15.6	15.6	---	1009.8	0.00	0.0	---	---	---	---	---	---	0.059	0.000	21.5	61	13.7	21.3	11.22	1.1760	---	0.00	702	1	100.0	30
27/04/20	8:00	15.6	15.6	15.6	88	13.6	0.0	---	0.00	0.0	---	15.6	15.7	15.7	---	1009.9	0.00	0.0	---	---	---	---	---	---	0.057	0.000	21.7	56	12.5	21.2	10.33	1.1768	---	0.00	703	1	100.0	30
27/04/20	8:30	15.6	15.7	15.6	88	13.6	0.0	SSE	0.00	0.9	SSE	15.6	15.7	15.7	---	1010.0	0.00	0.0	---	---	---	---	---	---	0.057	0.000	21.7	60	13.6	21.4	11.03	1.1757	---	0.00	702	1	100.0	30
27/04/20	9:00	15.7	15.8	15.7	87	13.6	0.0	---	0.00	0.0	---	15.7	15.8	15.8	---	1010.0	0.00	0.0	---	---	---	---	---	---	0.054	0.000	21.7	60	13.6	21.4	11.03	1.1757	---	0.00	703	1	100.0	30
27/04/20	9:30	15.8	15.9	15.8	87	13.7	0.0	---	0.00	0.0	---	15.8	15.9	15.9	---	1010.0	0.00	0.0	---	---	---	---	---	---	0.052	0.000	21.7	59	13.3	21.4	10.91	1.1760	---	0.00	702	1	100.0	30
27/04/20	10:00	16.0	16.1	15.9	86	13.7	0.0	SSE	0.00	1.3	SSE	16.0	16.1	16.1	---	1009.8	0.00	0.0	---	---	---	---	---	---	0.049	0.000	21.6	60	13.5	21.3	11.03	1.1761	---	0.00	702	1	100.0	30
27/04/20	10:30	16.2	16.4	16.1	85	13.6	0.0	SSE	0.00	1.8	SSE	16.2	16.2	16.2	---	1009.6	0.00	0.0	---	---	---	---	---	---	0.045	0.000	21.7	60	13.6	21.4	11.03	1.1753	---	0.00	703	1	100.0	30
27/04/20	11:00	16.4	16.4	16.4	85	13.9	0.0	SSE	0.00	2.2	SSE	16.4	16.6	16.6	---	1009.6	0.00	0.0	---	---	---	---	---	---	0.039	0.000	21.6	57	12.7	21.2	10.51	1.1764	---	0.00	702	1	100.0	30
27/04/20	11:30	16.4	16.6	16.2	82	13.4	0.9	SSE	1.61	3.6	S	16.4	16.5	16.5	---	1009.5	0.00	0.0	---	---	---	---	---	---	0.039	0.000	21.6	61	13.8	21.4	11.21	1.1751	---	0.00	703	1	100.0	30
27/04/20	12:00	16.3	16.4	16.2	82	13.2	0.4	S	0.80	2.7	S	16.3	16.3	16.3	---	1009.2	0.00	0.0	---	---	---	---	---	---	0.043	0.000	21.7	52	11.4	21.1	9.63	1.1773	---	0.00	702	1	100.0	30
27/04/20	12:30	16.6	16.8	16.4	82	13.5	1.3	S	2.41	4.0	S	16.6	16.6	16.6	---	1008.7	0.00	0.0	---	---	---	---	---	---	0.037	0.000	21.6	57	12.7	21.2	10.51	1.1754	---	0.00	703	1	100.0	30
27/04/20	13:00	17.1	17.3	16.8	80	13.6	0.9	S	1.61	3.6	SSE	17.1	17.2	17.2	---	1008.3	0.00	0.0	---	---	---	---	---	---	0.025	0.000	21.7	59	13.4	21.4	10.91	1.1738	---	0.00	702	1	100.0	30
27/04/20	13:30	17.6	17.9	17.3	79	13.9	1.3	S	2.41	4.0	S	17.6	17.7	17.7	---	1007.7	0.00	0.0	---	---	---	---	---	---	0.015	0.000	21.7	61	13.9	21.6	11.21	1.1725	---	0.00	703	1	100.0	30
27/04/20	14:00	18.3	18.8	17.9	74	13.6	0.9	S	1.61	4.0	SSE	18.3	18.3	18.3	---	1007.2	0.00	0.0	---	---	---	---	---	---	0.000	0.000	21.7	61	13.9	21.6	11.21	1.1718	---	0.00	702	1	100.0	30
27/04/20	14:30	18.6	19.1	18.4	73	13.7	0.9	SSE	1.61	4.0	SSE	18.6	18.6	18.6	---	1006.8	0.00	0.0	---	---	---	---	---	---	0.000	0.006	21.7	57	12.8	21.3	10.51	1.1728	---	0.00	702	1	100.0	30
27/04/20	15:00	19.3	19.7	19.1	70	13.7	0.4	SSE	0.80	3.1	SSE	19.3	19.4	19.4	---	1006.4	0.00	0.0	---	---	---	---	---	---	0.000	0.021	21.6	55	12.2	21.1	10.13	1.1733	---	0.00	703	1	100.0	30
27/04/20	15:30	19.6	19.7	19.4	69	13.7	0.4	S	0.80	3.1	SE	19.6	19.6	19.6	---	1006.2	0.00	0.0	---	---	---	---	---	---	0.000	0.025	21.7	58	13.1	21.4	10.71	1.1716	---	0.00	702	1	100.0	30
27/04/20	16:00	19.6	19.7	19.4	68	13.5	0.4	S	0.80	3.1	SSE	19.6	19.6	19.6	---	1006.1	0.00	0.0	---	---	---	---	---	---	0.000	0.025	21.7	60	13.6	21.5	11.03	1.1708	---	0.00	703	1	100.0	30
27/04/20	16:30	19.8	20.0	19.6	69	13.9	0.0	SSE	0.00	2.7	SSE	19.8	19.8	19.8	---	1005.9	0.00	0.0	---	---	---	---	---	---	0.000	0.030	21.7	62	14.1	21.6	11.33	1.1700	---	0.00	702	1	100.0	30
27/04/20	17:00	20.0	20.1	19.9	70	14.4	0.0	ESE	0.00	2.2	SE	20.0	20.2	20.2	---	1006.1	0.00	0.0	---	---	---	---	---	---	0.000	0.035	21.8	62	14.2	21.7	11.33	1.1699	---	0.00	703	1	100.0	30
27/04/20	17:30	19.6	20.0	19.4	73	14.6	0.0	ENE	0.00	3.1	NE	19.6	19.8	19.8	---	1006.2	0.00	0.0	---	---	---	---	---	---	0.000	0.027	22.0	63	14.6	22.0	11.52	1.1686	---	0.00	702	1	100.0	30
