FH 62 C14  V1.06    Thermo ESM Andersen 
20-05-09  19:30 000000     1    92
20-05-09  19:00 000000     1    65
20-05-09  18:30 000000     1    40
20-05-09  18:00 000000     1    35
20-05-09  17:30 000000     1    25
20-05-09  17:00 000000     1    40
20-05-09  16:30 000000     1    29
20-05-09  16:00 000000     1    36
20-05-09  15:30 000000     1    32
20-05-09  15:00 000000     1    40
20-05-09  14:30 000000     1    49
20-05-09  14:00 000000     1    48
20-05-09  13:30 000000     1    50
20-05-09  13:00 000000     1    40
20-05-09  12:30 000000     1    34
20-05-09  12:00 000000     1    45
20-05-09  11:30 000000     1    41
20-05-09  11:00 000000     1    25
20-05-09  10:30 000000     1    19
20-05-09  10:00 000000     1    41
20-05-09  09:30 000000    24    62
20-05-09  09:00 000000     1    43
20-05-09  08:30 000000     1    59
20-05-09  08:00 000000     1    47
20-05-09  07:30 000000     1    36
20-05-09  07:00 000000     1    28
20-05-09  06:30 000000     1    16
20-05-09  06:00 000000     1    20
20-05-09  05:30 000000     1    25
20-05-09  05:00 000000     1    24
20-05-09  04:30 000000     1    27
20-05-09  04:00 000000     1    24
20-05-09  03:30 000000     1    30
20-05-09  03:00 000000     1    25
20-05-09  02:30 000000     1    28
20-05-09  02:00 000000     1    25
20-05-09  01:30 000000     1    32
20-05-09  01:00 000000     1    47
20-05-09  00:30 00004F     1    58
20-05-09  00:00 000000     1    55
20-05-08  23:30 000000     1    56
20-05-08  23:00 000000     1    58
20-05-08  22:30 000000     1    47
20-05-08  22:00 000000     1    50
20-05-08  21:30 000000     1    61
20-05-08  21:00 000000     1    55
20-05-08  20:30 000000     1    60
20-05-08  20:00 000000     1    62
20-05-08  19:30 000000     1    40
20-05-08  19:00 000000     1    31
20-05-08  18:30 000000     1    42
20-05-08  18:00 000000     1    33
20-05-08  17:30 000000     1    24
20-05-08  17:00 000000     1    43
20-05-08  16:30 000000     1    33
20-05-08  16:00 000000     1    30
20-05-08  15:30 000000     1    34
20-05-08  15:00 000000     1    38
20-05-08  14:30 000000     1    27
20-05-08  14:00 000000     1    48
20-05-08  13:30 000000     1    56
20-05-08  13:00 000000     1    48
20-05-08  12:30 000000     1    37
20-05-08  12:00 000000     1    38
20-05-08  11:30 000000     1    35
20-05-08  11:00 000000     1    27
20-05-08  10:30 000000     1    19
20-05-08  10:00 000000     1    30
20-05-08  09:30 000000     1    48
20-05-08  09:00 000000     1    58
20-05-08  08:30 000000     1    47
20-05-08  08:00 000000     1    37
20-05-08  07:30 000000     1    33
20-05-08  07:00 000000     1    34
20-05-08  06:30 000000     1    19
20-05-08  06:00 000000     1     7
20-05-08  05:30 000000     1    15
20-05-08  05:00 000000     1    12
20-05-08  04:30 000000     1    15
20-05-08  04:00 000000     1    13
20-05-08  03:30 000000     1    20
20-05-08  03:00 000000     1    30
20-05-08  02:30 000000     1    46
20-05-08  02:00 000000     1    57
20-05-08  01:30 000000     1    63
20-05-08  01:00 000000     1    53
20-05-08  00:30 00004F     1    67
20-05-08  00:00 000000     1    69
20-05-07  23:30 000000     1    40
20-05-07  23:00 000000     1    41
20-05-07  22:30 000000     1    40
20-05-07  22:00 000000     1    44
20-05-07  21:30 000000     1    63
20-05-07  21:00 000000     1    51
20-05-07  20:30 000000     1    53
20-05-07  20:00 000000     1    72
20-05-07  19:30 000000     1    57
20-05-07  19:00 000000     1    39
20-05-07  18:30 000000     1    28
20-05-07  18:00 000000     1    29
20-05-07  17:30 000000     1    31
20-05-07  17:00 000000     1    44
20-05-07  16:30 000000     1    35
20-05-07  16:00 000000     1    28
20-05-07  15:30 000000     1    21
20-05-07  15:00 000000     1    30
20-05-07  14:30 000000     1    46
20-05-07  14:00 000000     1    60
20-05-07  13:30 000000     1    60
20-05-07  13:00 000000     1    45
20-05-07  12:30 000000     1    21
20-05-07  12:00 000000     1    26
20-05-07  11:30 000000     1    29
20-05-07  11:00 000000     1    19
20-05-07  10:30 000000     1    15
20-05-07  10:00 000000     1    39
20-05-07  09:30 000000     1    62
20-05-07  09:00 000000     1    81
20-05-07  08:30 000000     1    68
20-05-07  08:00 000000     1    40
20-05-07  07:30 000000     1    28
20-05-07  07:00 000000     1    11
20-05-07  06:30 000000     1    17
20-05-07  06:00 000000     1    11
20-05-07  05:30 000000     1     2
20-05-07  05:00 000000     1     7
20-05-07  04:30 000000     1    12
20-05-07  04:00 000000     1    15
20-05-07  03:30 000000     1    22
20-05-07  03:00 000000     1    19
20-05-07  02:30 000000     1    13
20-05-07  02:00 000000     1    19
20-05-07  01:30 000000     1    27
20-05-07  01:00 000000     1    41
20-05-07  00:30 00004F     1    39
20-05-07  00:00 000000     1    37
20-05-06  23:30 000000     1    47
20-05-06  23:00 000000     1    50
20-05-06  22:30 000000     1    49
20-05-06  22:00 000000     1    62
20-05-06  21:30 000000     1    63
20-05-06  21:00 000000     1    45
20-05-06  20:30 000000     1    49
20-05-06  20:00 000000     1    48
20-05-06  19:30 000000     1    31
20-05-06  19:00 000000     1    20
20-05-06  18:30 000000     1    24
20-05-06  18:00 000000     1    27
20-05-06  17:30 000000     1    20
20-05-06  17:00 000000     1    22
