FH 62 C14  V1.06    Thermo ESM Andersen 
20-04-10  19:00 000000     1    29
20-04-10  18:30 000000     1    26
20-04-10  18:00 000000     1    22
20-04-10  17:30 000000     1    26
20-04-10  17:00 000000     1    20
20-04-10  16:30 000000     1    27
20-04-10  16:00 000000     1    28
20-04-10  15:30 000000     1    30
20-04-10  15:00 000000     1    27
20-04-10  14:30 000000     1    27
20-04-10  14:00 000000     1    39
20-04-10  13:30 000000     1    24
20-04-10  13:00 000000     1    28
20-04-10  12:30 000000     1    27
20-04-10  12:00 000000     1    25
20-04-10  11:30 000000     1    33
20-04-10  11:00 000000     1    27
20-04-10  10:30 000000     1    19
20-04-10  10:00 000000     1     4
20-04-10  09:30 000000     1     4
20-04-10  09:00 000000     1    25
20-04-10  08:30 000000     1    25
20-04-10  08:00 000000     1    25
20-04-10  07:30 000000     1    24
20-04-10  07:00 000000     1    22
20-04-10  06:30 000000     1    25
20-04-10  06:00 000000     1    22
20-04-10  05:30 000000     1    28
20-04-10  05:00 000000     1    24
20-04-10  04:30 000000     1    27
20-04-10  04:00 000000     1    32
20-04-10  03:30 000000     1    38
20-04-10  03:00 000000     1    46
20-04-10  02:30 000000     1    41
20-04-10  02:00 000000     1    46
20-04-10  01:30 000000     1    58
20-04-10  01:00 000000     1    53
20-04-10  00:30 00004F     1    51
20-04-10  00:00 000000     1    57
20-04-09  23:30 000000     1    52
20-04-09  23:00 000000     1    47
20-04-09  22:30 000000     1    44
20-04-09  22:00 000000     1    39
20-04-09  21:30 000000     1    39
20-04-09  21:00 000000     1    51
20-04-09  20:30 000000     1    59
20-04-09  20:00 000000     1    56
20-04-09  19:30 000000     1    48
20-04-10  19:00 000000     1    29
20-04-10  18:30 000000     1    26
20-04-10  18:00 000000     1    22
20-04-10  17:30 000000     1    26
20-04-10  17:00 000000     1    20
20-04-10  16:30 000000     1    27
20-04-10  16:00 000000     1    28
20-04-10  15:30 000000     1    30
20-04-10  15:00 000000     1    27
20-04-10  14:30 000000     1    27
20-04-10  14:00 000000     1    39
20-04-10  13:30 000000     1    24
20-04-10  13:00 000000     1    28
20-04-10  12:30 000000     1    27
20-04-10  12:00 000000     1    25
20-04-10  11:30 000000     1    33
20-04-10  11:00 000000     1    27
20-04-10  10:30 000000     1    19
20-04-10  10:00 000000     1     4
20-04-10  09:30 000000     1     4
20-04-10  09:00 000000     1    25
20-04-10  08:30 000000     1    25
20-04-10  08:00 000000     1    25
20-04-10  07:30 000000     1    24
20-04-10  07:00 000000     1    22
20-04-10  06:30 000000     1    25
20-04-10  06:00 000000     1    22
20-04-10  05:30 000000     1    28
20-04-10  05:00 000000     1    24
20-04-10  04:30 000000     1    27
20-04-10  04:00 000000     1    32
20-04-10  03:30 000000     1    38
20-04-10  03:00 000000     1    46
20-04-10  02:30 000000     1    41
20-04-10  02:00 000000     1    46
20-04-10  01:30 000000     1    58
20-04-10  01:00 000000     1    53
20-04-10  00:30 00004F     1    51
20-04-10  00:00 000000     1    57
20-04-09  23:30 000000     1    52
20-04-09  23:00 000000     1    47
20-04-09  22:30 000000     1    44
20-04-09  22:00 000000     1    39
20-04-09  21:30 000000     1    39
20-04-09  21:00 000000     1    51
20-04-09  20:30 000000     1    59
20-04-09  20:00 000000     1    56
20-04-09  19:30 000000     1    48
20-04-09  19:00 000000     1    43
20-04-09  18:30 000000     1    46
20-04-09  18:00 000000     1    41
20-04-09  17:30 000000     1    40
20-04-09  17:00 000000     1    42
20-04-09  16:30 000000     1    50
20-04-09  16:00 000000     1    38
20-04-09  15:30 000000     1    36
20-04-09  15:00 000000     1    43
20-04-09  14:30 000000     1    43
20-04-09  14:00 000000     1    44
20-04-09  13:30 000000     1    41
20-04-09  13:00 000000     1    30
20-04-09  12:30 000000     1    45
20-04-09  12:00 000000     1    51
20-04-09  11:30 000000     1    39
20-04-09  11:00 000000     1    37
20-04-09  10:30 000000     1    18
20-04-09  10:00 000000     1    21
20-04-10  19:00 000000     1    29
20-04-10  18:30 000000     1    26
20-04-10  18:00 000000     1    22
20-04-10  17:30 000000     1    26
20-04-10  17:00 000000     1    20
20-04-10  16:30 000000     1    27
20-04-10  16:00 000000     1    28
20-04-10  15:30 000000     1    30
20-04-10  15:00 000000     1    27
20-04-10  14:30 000000     1    27
20-04-10  14:00 000000     1    39
20-04-10  13:30 000000     1    24
20-04-10  13:00 000000     1    28
20-04-10  12:30 000000     1    27
20-04-10  12:00 000000     1    25
20-04-10  11:30 000000     1    33
20-04-10  11:00 000000     1    27
20-04-10  10:30 000000     1    19
20-04-10  10:00 000000     1     4
20-04-10  09:30 000000     1     4
20-04-10  09:00 000000     1    25
20-04-10  08:30 000000     1    25
20-04-10  08:00 000000     1    25
20-04-10  07:30 000000     1    24
20-04-10  07:00 000000     1    22
20-04-10  06:30 000000     1    25
20-04-10  06:00 000000     1    22
20-04-10  05:30 000000     1    28
20-04-10  05:00 000000     1    24
20-04-10  04:30 000000     1    27
20-04-10  04:00 000000     1    32
20-04-10  03:30 000000     1    38
20-04-10  03:00 000000     1    46
20-04-10  02:30 000000     1    41
20-04-10  02:00 000000     1    46
20-04-10  01:30 000000     1    58
20-04-10  01:00 000000     1    53
20-04-10  00:30 00004F     1    51
20-04-10  00:00 000000     1    57
20-04-09  23:30 000000     1    52
20-04-09  23:00 000000     1    47
20-04-09  22:30 000000     1    44
20-04-09  22:00 000000     1    39
20-04-09  21:30 000000     1    39
20-04-09  21:00 000000     1    51
20-04-09  20:30 000000     1    59
20-04-09  20:00 000000     1    56
20-04-09  19:30 000000     1    48
20-04-09  19:00 000000     1    43
20-04-09  18:30 000000     1    46
20-04-09  18:00 000000     1    41
20-04-09  17:30 000000     1    40
20-04-09  17:00 000000     1    42
20-04-09  16:30 000000     1    50
20-04-09  16:00 000000     1    38
20-04-09  15:30 000000     1    36
20-04-09  15:00 000000     1    43
20-04-09  14:30 000000     1    43
20-04-09  14:00 000000     1    44
20-04-09  13:30 000000     1    41
20-04-09  13:00 000000     1    30
20-04-09  12:30 000000     1    45
20-04-09  12:00 000000     1    51
20-04-09  11:30 000000     1    39
20-04-09  11:00 000000     1    37
20-04-09  10:30 000000     1    18
20-04-09  10:00 000000     1    21
20-04-09  09:30 000000     1    30
20-04-09  09:00 000000     1    45
20-04-09  08:30 000000     1    44
20-04-09  08:00 000000     1    28
20-04-09  07:30 000000     1    35
20-04-09  07:00 000000     1    26
20-04-09  06:30 000000     1    27
20-04-09  06:00 000000     1    22
20-04-09  05:30 000000     1    20
20-04-09  05:00 000000     1    22
20-04-09  04:30 000000     1    23
20-04-09  04:00 000000     1    29
20-04-09  03:30 000000     1    33
20-04-09  03:00 000000     1    41
20-04-09  02:30 000000     1    44
20-04-09  02:00 000000     1    33
20-04-09  01:30 000000     1    31
20-04-09  01:00 000000     1    37
20-04-09  00:30 00004F     1    29
20-04-09  00:00 000000     1    35
20-04-08  23:30 000000     1    46
20-04-08  23:00 000000     1    53
20-04-08  22:30 000000     1    51
20-04-08  22:00 000000     1    45
20-04-08  21:30 000000     1    46
20-04-08  21:00 000000     1    58
20-04-08  20:30 000000     1    63
20-04-08  20:00 000000     1    45
20-04-08  19:30 000000     1    41
20-04-08  19:00 000000     1    35
20-04-08  18:30 000000     1    46
20-04-08  18:00 000000     1    47
20-04-08  17:30 000000     1    43
20-04-08  17:00 000000     1    35
20-04-08  16:30 000000     1    45
20-04-08  16:00 000000     1    42
20-04-08  15:30 000000     1    39
20-04-08  15:00 000000     1    39
20-04-08  14:30 000000     1    38
20-04-08  14:00 000000     1    45
20-04-08  13:30 000000     1    49
20-04-08  13:00 000000     1    46
20-04-08  12:30 000000     1    42
20-04-08  12:00 000000     1    53
20-04-08  11:30 000000     1    44
20-04-08  11:00 000000     1    46
20-04-08  10:30 000000     1    30
20-04-08  10:00 000000     1    22
20-04-08  09:30 000000     1    38
20-04-08  09:00 000000     1    38
20-04-08  08:30 000000     1    86
20-04-08  08:00 000000     1   207
20-04-08  07:30 000000     1    74
20-04-08  07:00 000000     1    28
20-04-08  06:30 000000     1    29
20-04-08  06:00 000000     1    21
20-04-08  05:30 000000     1    20
20-04-08  05:00 000000     1    25
20-04-08  04:30 000000     1    28
20-04-08  04:00 000000     1    21
20-04-08  03:30 000000     1    26
20-04-08  03:00 000000     1    26
20-04-08  02:30 000000     1    26
20-04-08  02:00 000000     1    29
20-04-08  01:30 000000     1    36
20-04-08  01:00 000000     1    42
20-04-08  00:30 00004F     1    44
20-04-08  00:00 000000     1    49
20-04-07  23:30 000000     1    56
20-04-07  23:00 000000     1    64
20-04-07  22:30 000000     1    51
20-04-07  22:00 000000     1    43
20-04-07  21:30 000000     1    27
20-04-07  21:00 000000     1    28
20-04-07  20:30 000000     1    40
20-04-07  20:00 000000     1    31
20-04-07  19:30 000000     1    27
20-04-07  19:00 000000     1    26
20-04-07  18:30 000000     1    19
20-04-07  18:00 000000     1    20
20-04-07  17:30 000000     1    16
20-04-07  17:00 000000     1    19
20-04-07  16:30 000000     1    29
20-04-07  16:00 000000     1    34
20-04-07  15:30 000000     1    27
20-04-07  15:00 000000     1    19
20-04-07  14:30 000000     1    18
20-04-07  14:00 000000     1    20
20-04-07  13:30 000000     1    21
20-04-07  13:00 000000     1    21
20-04-07  12:30 000000     1    16
20-04-07  12:00 000000     1    27
20-04-07  11:30 000000     1    37
20-04-07  11:00 000000     1    35
20-04-07  10:30 000000     1    21
20-04-07  10:00 000000     1    14
20-04-07  09:30 000000     1    23
20-04-07  09:00 000000     1    34
20-04-07  08:30 000000     1    34
20-04-07  08:00 000000     1    19
20-04-07  07:30 000000     1    32
20-04-07  07:00 000000     1    16
20-04-07  06:30 000000     1    16
20-04-07  06:00 000000     1    23
20-04-07  05:30 000000     1    21
20-04-07  05:00 000000     1    15
20-04-07  04:30 000000     1    21
20-04-07  04:00 000000     1    24
20-04-07  03:30 000000     1    23
20-04-07  03:00 000000     1    19
20-04-07  02:30 000000     1    21
20-04-07  02:00 000000     1    22
20-04-07  01:30 000000     1    35
20-04-07  01:00 000000     1    37
20-04-07  00:30 00004F     1    42
20-04-07  00:00 000000     1    49
20-04-06  23:30 000000     1    48
20-04-06  23:00 000000     1    48
20-04-06  22:30 000000     1    41
20-04-06  22:00 000000     1    39
20-04-06  21:30 000000     1    27
20-04-06  21:00 000000     1     8
20-04-06  20:30 000000     1   -13
20-04-06  20:00 000000     1   -19
20-04-06  19:30 000000     1   634
20-04-06  19:00 000006     1   401
20-04-06  18:30 2000CB    24    40
20-02-28  15:30 000000     1    32
20-02-28  15:00 000000     1    34
20-02-28  14:30 000000     1    49
20-02-28  14:00 000000     1    41
20-02-28  13:30 000000     1    58
20-02-28  13:00 000000     1    65
20-02-28  12:30 000000     1    51
20-02-28  12:00 000000     1    50
20-02-28  11:30 000000     1    52
20-02-28  11:00 000000     1    33
20-02-28  10:30 000000     1    36
20-02-28  10:00 000000     1    43
20-02-28  09:30 000000     1    45
20-02-28  09:00 000000     1    59
20-02-28  08:30 000000     1    79
20-02-28  08:00 000000     1    51
20-02-28  07:30 000000     1    42
20-02-28  07:00 000000     1    23
20-02-28  06:30 000000     1    18
20-02-28  06:00 000000     1    13
20-02-28  05:30 000000     1    13
20-02-28  05:00 000000     1    26
20-02-28  04:30 000000     1     9
20-02-28  04:00 000000     1    20
20-02-28  03:30 000000     1     9
20-02-28  03:00 000000     1    12
20-02-28  02:30 000000     1    16
20-02-28  02:00 000000     1    16
20-02-28  01:30 000000     1    14
20-02-28  01:00 000000     1    16
20-02-28  00:30 00004F     1    11
20-02-28  00:00 000000     1    21
20-02-27  23:30 000000     1    14
20-02-27  23:00 000000     1    28
20-02-27  22:30 000000     1    24
20-02-27  22:00 000000     1    15
20-02-27  21:30 000000     1    13
