		Temp	Hi	Low	Out	Dew	Wind	Wind	Wind	Hi	Hi	Wind	Heat	THW	THSW			Rain	Solar	Solar	Hi Solar	UV 	UV 	Hi 	Heat	Cool	In 	In	In 	In 	In 	In Air	Temp		Wind	Wind	ISS 	Arc.
Date	Time	Out	Temp	Temp	Hum	Pt.	Speed	Dir	Run	Speed	Dir	Chill	Index	Index	Index	Bar  	Rain	Rate	Rad.	Energy	Rad. 	Index	Dose	UV 	D-D 	D-D 	Temp	Hum	Dew	Heat	EMC	Density	2nd	ET 	Samp	Tx 	Recept	Int.
29/04/20	0:30	12.4	12.6	12.3	70	7.1	0.0	---	0.00	0.0	---	12.4	12.0	12.0	---	1018.3	0.00	0.0	---	---	---	---	---	---	0.123	0.000	22.3	43	9.1	21.5	8.16	1.1875	---	0.00	702	1	100.0	30
29/04/20	1:00	12.2	12.3	12.1	71	7.1	0.0	---	0.00	0.0	---	12.2	11.8	11.8	---	1018.3	0.00	0.0	---	---	---	---	---	---	0.128	0.000	22.3	43	9.1	21.5	8.16	1.1875	---	0.00	702	1	100.0	30
29/04/20	1:30	11.9	12.1	11.8	71	6.8	0.0	ENE	0.00	0.4	ENE	11.9	11.5	11.5	---	1018.3	0.00	0.0	---	---	---	---	---	---	0.134	0.000	22.3	43	9.1	21.5	8.16	1.1875	---	0.00	703	1	100.0	30
29/04/20	2:00	11.7	11.8	11.6	72	6.8	0.0	ENE	0.00	0.4	ENE	11.7	11.4	11.4	---	1018.4	0.00	0.0	---	---	---	---	---	---	0.138	0.000	22.7	41	8.7	21.9	7.84	1.1866	---	0.00	702	1	100.0	30
29/04/20	2:30	11.6	11.7	11.5	71	6.5	0.0	ENE	0.00	0.9	ENE	11.6	11.2	11.2	---	1018.3	0.00	0.0	---	---	---	---	---	---	0.141	0.000	23.5	40	9.1	22.8	7.66	1.1829	---	0.00	703	1	100.0	30
29/04/20	3:00	11.4	11.6	11.3	70	6.1	0.0	ENE	0.00	0.4	ENE	11.4	11.0	11.0	---	1018.1	0.00	0.0	---	---	---	---	---	---	0.145	0.000	24.2	39	9.3	23.5	7.54	1.1798	---	0.00	702	1	100.0	30
29/04/20	3:30	11.4	11.4	11.3	69	5.9	0.0	E	0.00	0.9	E	11.4	11.0	11.0	---	1017.9	0.00	0.0	---	---	---	---	---	---	0.145	0.000	24.3	38	9.1	23.7	7.33	1.1791	---	0.00	703	1	100.0	30
29/04/20	4:00	11.3	11.4	11.1	70	6.0	0.0	---	0.00	0.0	---	11.3	10.9	10.9	---	1017.8	0.00	0.0	---	---	---	---	---	---	0.147	0.000	22.8	41	8.9	22.2	7.83	1.1852	---	0.00	702	1	100.0	30
29/04/20	4:30	11.1	11.1	11.0	71	6.0	0.0	E	0.00	0.4	E	11.1	10.7	10.7	---	1017.6	0.00	0.0	---	---	---	---	---	---	0.152	0.000	22.9	40	8.6	22.2	7.68	1.1847	---	0.00	703	1	100.0	30
29/04/20	5:00	10.8	11.0	10.7	73	6.2	0.0	E	0.00	0.4	E	10.8	10.6	10.6	---	1017.5	0.00	0.0	---	---	---	---	---	---	0.156	0.000	23.7	38	8.6	23.0	7.36	1.1815	---	0.00	702	1	100.0	30
29/04/20	5:30	10.6	10.7	10.5	73	5.9	0.0	E	0.00	0.4	E	10.6	10.3	10.3	---	1017.2	0.00	0.0	---	---	---	---	---	---	0.162	0.000	24.3	37	8.7	23.6	7.23	1.1786	---	0.00	702	1	100.0	30
29/04/20	6:00	10.6	10.6	10.6	74	6.2	0.0	E	0.00	1.8	E	10.6	10.4	10.4	---	1017.1	0.00	0.0	---	---	---	---	---	---	0.161	0.000	24.2	38	9.0	23.6	7.34	1.1787	---	0.00	703	1	100.0	30
29/04/20	6:30	10.5	10.7	10.3	75	6.3	0.0	---	0.00	0.0	---	10.5	10.3	10.3	---	1017.0	0.00	0.0	---	---	---	---	---	---	0.163	0.000	24.3	37	8.7	23.6	7.24	1.1787	---	0.00	702	1	100.0	30
29/04/20	7:00	10.4	10.4	10.3	76	6.3	0.0	---	0.00	0.0	---	10.4	10.2	10.2	---	1016.8	0.00	0.0	---	---	---	---	---	---	0.166	0.000	24.2	38	8.9	23.5	7.34	1.1786	---	0.00	703	1	100.0	30
29/04/20	7:30	10.2	10.3	10.2	76	6.2	0.0	E	0.00	2.2	E	10.2	10.1	10.1	---	1016.9	0.00	0.0	---	---	---	---	---	---	0.169	0.000	24.3	37	8.7	23.6	7.24	1.1786	---	0.00	702	1	100.0	30
29/04/20	8:00	10.2	10.3	10.1	75	5.9	0.0	SE	0.00	2.7	ESE	10.2	10.0	10.0	---	1016.9	0.00	0.0	---	---	---	---	---	---	0.170	0.000	24.3	38	9.1	23.7	7.33	1.1780	---	0.00	703	1	100.0	30
29/04/20	8:30	10.3	10.3	10.2	74	5.8	0.0	SE	0.00	0.4	SE	10.3	10.1	10.1	---	1017.2	0.00	0.0	---	---	---	---	---	---	0.168	0.000	24.3	37	8.7	23.6	7.23	1.1786	---	0.00	702	1	100.0	30
29/04/20	9:00	10.3	10.4	10.2	75	6.0	0.0	---	0.00	0.0	---	10.3	10.1	10.1	---	1017.2	0.00	0.0	---	---	---	---	---	---	0.168	0.000	24.1	38	8.9	23.4	7.34	1.1796	---	0.00	702	1	100.0	30
29/04/20	9:30	11.4	12.6	10.4	66	5.3	0.0	SE	0.00	1.3	SE	11.4	11.0	11.0	---	1017.1	0.00	0.0	---	---	---	---	---	---	0.144	0.000	24.3	37	8.7	23.6	7.23	1.1785	---	0.00	703	1	100.0	30
29/04/20	10:00	13.4	14.4	12.6	60	5.8	0.0	---	0.00	0.0	---	13.4	12.6	12.6	---	1017.0	0.00	0.0	---	---	---	---	---	---	0.103	0.000	23.9	38	8.7	23.2	7.35	1.1801	---	0.00	702	1	100.0	30
29/04/20	10:30	15.2	15.6	14.5	55	6.2	0.0	E	0.00	2.2	E	15.2	14.2	14.2	---	1016.9	0.00	0.0	---	---	---	---	---	---	0.066	0.000	22.7	40	8.4	22.0	7.69	1.1850	---	0.00	703	1	100.0	30
29/04/20	11:00	16.0	16.3	15.6	52	6.1	0.0	E	0.00	2.7	N	16.0	14.9	14.9	---	1016.9	0.00	0.0	---	---	---	---	---	---	0.049	0.000	22.5	40	8.2	21.6	7.70	1.1860	---	0.00	702	1	100.0	30
29/04/20	11:30	16.4	16.8	16.2	50	6.0	0.4	ENE	0.80	3.6	ENE	16.4	15.3	15.3	---	1016.9	0.00	0.0	---	---	---	---	---	---	0.039	0.000	22.5	39	7.8	21.6	7.60	1.1863	---	0.00	703	1	100.0	30
29/04/20	12:00	16.9	17.1	16.8	48	5.9	0.4	ENE	0.80	2.7	ENE	16.9	15.8	15.8	---	1016.8	0.00	0.0	---	---	---	---	---	---	0.029	0.000	22.4	40	8.2	21.6	7.70	1.1862	---	0.00	702	1	100.0	30
29/04/20	12:30	17.2	17.4	17.1	48	6.1	0.4	ENE	0.80	3.1	ENE	17.2	16.1	16.1	---	1016.3	0.00	0.0	---	---	---	---	---	---	0.023	0.000	22.4	39	7.7	21.4	7.60	1.1862	---	0.00	703	1	100.0	30
29/04/20	13:00	18.0	18.2	17.4	44	5.6	0.4	E	0.80	3.1	ENE	18.0	16.8	16.8	---	1015.9	0.00	0.0	---	---	---	---	---	---	0.007	0.000	22.4	39	7.8	21.5	7.60	1.1854	---	0.00	702	1	100.0	30
29/04/20	13:30	18.6	19.2	18.2	40	4.7	0.4	NNW	0.80	3.1	NNE	18.6	17.2	17.2	---	1015.4	0.00	0.0	---	---	---	---	---	---	0.000	0.006	22.5	40	8.2	21.6	7.70	1.1842	---	0.00	702	1	100.0	30
29/04/20	14:00	19.4	19.7	19.2	40	5.5	0.4	ENE	0.80	3.1	N	19.4	18.1	18.1	---	1014.9	0.00	0.0	---	---	---	---	---	---	0.000	0.023	22.4	39	7.8	21.5	7.60	1.1842	---	0.00	703	1	100.0	30
29/04/20	14:30	20.1	20.2	19.7	40	6.0	0.4	ENE	0.80	4.5	NNE	20.1	18.8	18.8	---	1014.4	0.00	0.0	---	---	---	---	---	---	0.000	0.036	22.6	39	7.9	21.8	7.60	1.1828	---	0.00	702	1	100.0	30
29/04/20	15:00	20.4	20.9	19.8	39	6.0	0.4	NW	0.80	3.6	N	20.4	19.0	19.0	---	1014.0	0.00	0.0	---	---	---	---	---	---	0.000	0.043	22.8	39	8.1	22.0	7.59	1.1816	---	0.00	703	1	100.0	30
29/04/20	15:30	21.0	21.3	20.8	38	6.1	0.4	N	0.80	3.1	ESE	21.0	19.5	19.5	---	1013.5	0.00	0.0	---	---	---	---	---	---	0.000	0.056	23.0	38	7.9	22.2	7.41	1.1803	---	0.00	702	1	100.0	30
29/04/20	16:00	21.1	21.3	20.9	38	6.2	0.4	E	0.80	3.6	ENE	21.1	19.6	19.6	---	1013.2	0.00	0.0	---	---	---	---	---	---	0.000	0.058	22.9	38	7.9	22.2	7.42	1.1802	---	0.00	703	1	100.0	30
29/04/20	16:30	21.4	21.7	20.9	38	6.5	0.4	NE	0.80	3.6	N	21.4	20.0	20.0	---	1012.9	0.00	0.0	---	---	---	---	---	---	0.000	0.064	22.8	39	8.1	22.0	7.59	1.1803	---	0.00	702	1	100.0	30
29/04/20	17:00	21.5	21.8	21.2	36	5.8	0.0	ESE	0.00	2.2	ENE	21.5	20.1	20.1	---	1012.5	0.00	0.0	---	---	---	---	---	---	0.000	0.066	22.7	39	8.0	21.8	7.59	1.1804	---	0.00	703	1	100.0	30
29/04/20	17:30	21.8	22.1	21.6	36	6.0	0.0	NNE	0.00	2.2	SSE	21.8	20.4	20.4	---	1012.6	0.00	0.0	---	---	---	---	---	---	0.000	0.072	22.6	39	7.9	21.8	7.60	1.1807	---	0.00	702	1	100.0	30
29/04/20	18:00	22.0	22.2	21.4	37	6.6	0.0	SW	0.00	0.9	SSE	22.0	20.8	20.8	---	1012.8	0.00	0.0	---	---	---	---	---	---	0.000	0.076	22.8	44	9.9	22.2	8.29	1.1786	---	0.00	702	1	100.0	30
29/04/20	18:30	20.9	21.4	20.5	40	6.8	0.0	---	0.00	0.0	---	20.9	19.6	19.6	---	1013.1	0.00	0.0	---	---	---	---	---	---	0.000	0.054	23.1	50	12.1	22.9	9.25	1.1755	---	0.00	703	1	100.0	30
29/04/20	19:00	19.9	20.5	19.3	44	7.3	0.0	---	0.00	0.0	---	19.9	18.9	18.9	---	1013.3	0.00	0.0	---	---	---	---	---	---	0.000	0.034	24.7	48	12.9	24.5	8.92	1.1686	---	0.00	702	1	100.0	30
29/04/20	19:30	18.4	19.3	17.6	51	8.1	0.0	SSW	0.00	0.4	SSW	18.4	17.5	17.5	---	1013.5	0.00	0.0	---	---	---	---	---	---	0.000	0.002	24.9	54	15.0	25.0	9.81	1.1652	---	0.00	703	1	100.0	30
29/04/20	20:00	17.2	17.6	16.8	56	8.4	0.0	SSW	0.00	1.3	SSW	17.2	16.4	16.4	---	1013.9	0.00	0.0	---	---	---	---	---	---	0.023	0.000	24.9	51	14.1	24.9	9.35	1.1667	---	0.00	702	1	100.0	30
29/04/20	20:30	16.4	16.8	16.2	58	8.2	0.0	SSW	0.00	0.9	SW	16.4	15.6	15.6	---	1014.1	0.00	0.0	---	---	---	---	---	---	0.039	0.000	24.9	47	12.9	24.7	8.71	1.1684	---	0.00	703	1	100.0	30
29/04/20	21:00	15.9	16.2	15.8	58	7.7	0.0	SW	0.00	2.2	SW	15.9	15.1	15.1	---	1014.0	0.00	0.0	---	---	---	---	---	---	0.050	0.000	25.1	44	11.9	24.7	8.21	1.1689	---	0.00	702	1	100.0	30
29/04/20	21:30	15.7	15.8	15.7	57	7.2	0.0	SW	0.00	1.8	SW	15.7	14.8	14.8	---	1014.1	0.00	0.0	---	---	---	---	---	---	0.054	0.000	24.8	44	11.7	24.4	8.22	1.1703	---	0.00	702	1	100.0	30
29/04/20	22:00	15.6	15.7	15.4	58	7.3	0.0	SW	0.00	0.4	SW	15.6	14.7	14.7	---	1014.4	0.00	0.0	---	---	---	---	---	---	0.058	0.000	23.3	44	10.3	22.8	8.27	1.1780	---	0.00	703	1	100.0	30
29/04/20	22:30	15.2	15.4	14.9	61	7.7	0.0	---	0.00	0.0	---	15.2	14.5	14.5	---	1014.4	0.00	0.0	---	---	---	---	---	---	0.065	0.000	22.6	47	10.7	22.1	8.75	1.1802	---	0.00	702	1	100.0	30
29/04/20	23:00	14.7	14.9	14.6	62	7.5	0.0	---	0.00	0.0	---	14.7	14.0	14.0	---	1014.2	0.00	0.0	---	---	---	---	---	---	0.075	0.000	22.5	42	8.9	21.7	8.00	1.1822	---	0.00	703	1	100.0	30
29/04/20	23:30	14.5	14.6	14.4	63	7.5	0.0	SW	0.00	0.4	SW	14.5	13.8	13.8	---	1014.0	0.00	0.0	---	---	---	---	---	---	0.080	0.000	22.3	46	10.1	21.7	8.61	1.1815	---	0.00	702	1	100.0	30
30/04/20	00:00	14.3	14.4	14.3	62	7.1	0.0	SW	0.00	0.9	SW	14.3	13.6	13.6	---	1013.8	0.00	0.0	---	---	---	---	---	---	0.083	0.000	22.3	45	9.8	21.6	8.45	1.1815	---	0.00	703	1	100.0	30
30/04/20	0:30	14.3	14.4	14.3	62	7.1	0.0	SW	0.00	0.9	SW	14.3	13.6	13.6	---	1013.6	0.00	0.0	---	---	---	---	---	---	0.083	0.000	22.4	44	9.5	21.7	8.30	1.1814	---	0.00	702	1	100.0	30
30/04/20	1:00	14.1	14.3	13.9	64	7.3	0.0	---	0.00	0.0	---	14.1	13.4	13.4	---	1013.7	0.00	0.0	---	---	---	---	---	---	0.089	0.000	22.4	42	8.8	21.6	8.00	1.1821	---	0.00	702	1	100.0	30
30/04/20	1:30	13.7	13.9	13.4	67	7.7	0.0	SW	0.00	1.8	SW	13.7	13.2	13.2	---	1013.7	0.00	0.0	---	---	---	---	---	---	0.096	0.000	22.3	44	9.4	21.5	8.31	1.1820	---	0.00	703	1	100.0	30
30/04/20	2:00	13.1	13.4	12.8	70	7.7	0.0	SW	0.00	0.4	SW	13.1	12.6	12.6	---	1013.3	0.00	0.0	---	---	---	---	---	---	0.110	0.000	22.3	44	9.4	21.5	8.31	1.1815	---	0.00	702	1	100.0	30
30/04/20	2:30	12.8	12.9	12.8	70	7.4	0.0	SW	0.00	0.4	SW	12.8	12.3	12.3	---	1013.3	0.00	0.0	---	---	---	---	---	---	0.116	0.000	22.2	44	9.4	21.4	8.31	1.1818	---	0.00	703	1	100.0	30
30/04/20	3:00	12.7	12.8	12.7	69	7.2	0.0	---	0.00	0.0	---	12.7	12.2	12.2	---	1012.9	0.00	0.0	---	---	---	---	---	---	0.117	0.000	22.2	44	9.4	21.4	8.31	1.1814	---	0.00	702	1	100.0	30
30/04/20	3:30	12.8	12.8	12.7	69	7.2	0.0	SW	0.00	1.8	SW	12.8	12.3	12.3	---	1012.7	0.00	0.0	---	---	---	---	---	---	0.116	0.000	22.2	39	7.6	21.2	7.61	1.1827	---	0.00	703	1	100.0	30
30/04/20	4:00	12.7	12.8	12.6	69	7.1	0.0	---	0.00	0.0	---	12.7	12.2	12.2	---	1012.2	0.00	0.0	---	---	---	---	---	---	0.118	0.000	22.2	39	7.6	21.2	7.61	1.1821	---	0.00	702	1	100.0	30
30/04/20	4:30	12.5	12.6	12.3	69	7.0	0.0	SW	0.00	0.4	SW	12.5	12.1	12.1	---	1012.2	0.00	0.0	---	---	---	---	---	---	0.122	0.000	22.3	42	8.7	21.4	8.01	1.1809	---	0.00	702	1	100.0	30
30/04/20	5:00	12.2	12.4	12.1	70	6.9	0.0	SW	0.00	0.9	SW	12.2	11.8	11.8	---	1012.2	0.00	0.0	---	---	---	---	---	---	0.127	0.000	23.1	40	8.8	22.4	7.68	1.1776	---	0.00	703	1	100.0	30
30/04/20	5:30	12.0	12.1	11.9	71	6.9	0.0	---	0.00	0.0	---	12.0	11.6	11.6	---	1012.2	0.00	0.0	---	---	---	---	---	---	0.132	0.000	23.9	39	9.1	23.2	7.55	1.1742	---	0.00	702	1	100.0	30
30/04/20	6:00	11.9	12.0	11.9	71	6.8	0.0	SW	0.00	0.9	SW	11.9	11.6	11.6	---	1012.3	0.00	0.0	---	---	---	---	---	---	0.133	0.000	24.3	40	9.9	23.7	7.63	1.1718	---	0.00	703	1	100.0	30
30/04/20	6:30	11.9	12.0	11.9	71	6.8	0.0	SW	0.00	0.4	SW	11.9	11.6	11.6	---	1012.3	0.00	0.0	---	---	---	---	---	---	0.133	0.000	23.0	42	9.4	22.4	7.98	1.1776	---	0.00	702	1	100.0	30
30/04/20	7:00	11.9	11.9	11.8	71	6.8	0.0	---	0.00	0.0	---	11.9	11.5	11.5	---	1012.7	0.00	0.0	---	---	---	---	---	---	0.134	0.000	22.4	42	8.9	21.7	8.00	1.1807	---	0.00	703	1	100.0	30
30/04/20	7:30	11.9	11.9	11.7	72	7.0	0.0	SW	0.00	0.4	SW	11.9	11.5	11.5	---	1012.9	0.00	0.0	---	---	---	---	---	---	0.134	0.000	22.2	42	8.7	21.3	8.01	1.1820	---	0.00	702	1	100.0	30
30/04/20	8:00	11.6	11.7	11.4	74	7.1	0.0	---	0.00	0.0	---	11.6	11.3	11.3	---	1013.1	0.00	0.0	---	---	---	---	---	---	0.141	0.000	22.6	41	8.6	21.8	7.85	1.1809	---	0.00	702	1	100.0	30
30/04/20	8:30	11.5	11.6	11.4	74	7.0	0.0	---	0.00	0.0	---	11.5	11.2	11.2	---	1013.3	0.00	0.0	---	---	---	---	---	---	0.142	0.000	23.4	39	8.6	22.7	7.57	1.1779	---	0.00	703	1	100.0	30
30/04/20	9:00	11.9	12.8	11.6	71	6.8	0.0	SW	0.00	0.4	SW	11.9	11.6	11.6	---	1013.6	0.00	0.0	---	---	---	---	---	---	0.133	0.000	24.1	39	9.3	23.4	7.54	1.1747	---	0.00	702	1	100.0	30
30/04/20	9:30	14.0	15.4	12.8	63	7.1	0.0	---	0.00	0.0	---	14.0	13.3	13.3	---	1013.9	0.00	0.0	---	---	---	---	---	---	0.090	0.000	24.1	39	9.3	23.4	7.54	1.1751	---	0.00	703	1	100.0	30
30/04/20	10:00	17.2	18.1	15.4	52	7.2	0.0	SW	0.00	0.9	SW	17.2	16.2	16.2	---	1014.2	0.00	0.0	---	---	---	---	---	---	0.024	0.000	22.7	41	8.8	22.0	7.83	1.1815	---	0.00	702	1	100.0	30
30/04/20	10:30	18.6	18.8	18.1	49	7.6	0.0	SW	0.00	2.2	SW	18.6	17.6	17.6	---	1014.4	0.00	0.0	---	---	---	---	---	---	0.000	0.005	22.5	42	8.9	21.7	8.00	1.1824	---	0.00	703	1	100.0	30
30/04/20	11:00	18.7	18.8	18.5	50	8.0	0.0	NNE	0.00	3.1	NNE	18.7	17.7	17.7	---	1014.6	0.00	0.0	---	---	---	---	---	---	0.000	0.007	22.4	42	8.9	21.7	8.00	1.1829	---	0.00	702	1	100.0	30
30/04/20	11:30	18.4	18.6	18.1	49	7.5	0.4	NNW	0.80	2.7	NNW	18.4	17.4	17.4	---	1014.7	0.00	0.0	---	---	---	---	---	---	0.000	0.001	22.4	42	8.9	21.7	8.00	1.1830	---	0.00	703	1	100.0	30
30/04/20	12:00	18.9	19.3	18.6	48	7.7	0.0	N	0.00	2.2	NW	18.9	17.9	17.9	---	1014.7	0.00	0.0	---	---	---	---	---	---	0.000	0.013	22.4	42	8.8	21.6	8.00	1.1833	---	0.00	702	1	100.0	30
30/04/20	12:30	19.4	19.7	19.2	49	8.4	0.4	NNE	0.80	3.1	E	19.4	18.6	18.6	---	1014.8	0.00	0.0	---	---	---	---	---	---	0.000	0.023	22.4	42	8.9	21.7	8.00	1.1831	---	0.00	702	1	100.0	30
30/04/20	13:00	19.9	20.1	19.7	48	8.6	0.0	ENE	0.00	3.1	NE	19.9	19.1	19.1	---	1014.5	0.00	0.0	---	---	---	---	---	---	0.000	0.034	22.5	42	8.9	21.7	8.00	1.1826	---	0.00	703	1	100.0	30
30/04/20	13:30	20.1	20.5	19.8	46	8.1	0.4	ENE	0.80	2.7	S	20.1	19.1	19.1	---	1014.3	0.00	0.0	---	---	---	---	---	---	0.000	0.037	22.6	42	9.0	21.9	8.00	1.1818	---	0.00	702	1	100.0	30
30/04/20	14:00	21.1	21.6	20.4	44	8.3	0.0	ESE	0.00	3.1	NE	21.1	19.8	19.8	---	1014.1	0.00	0.0	---	---	---	---	---	---	0.000	0.057	22.6	42	9.0	21.9	8.00	1.1815	---	0.00	703	1	100.0	30
30/04/20	14:30	21.8	22.5	21.4	44	9.0	0.0	SSE	0.00	3.6	S	21.8	20.8	20.8	---	1014.0	0.00	0.0	---	---	---	---	---	---	0.000	0.073	22.7	42	9.1	22.1	7.99	1.1808	---	0.00	702	1	100.0	30
30/04/20	15:00	22.4	22.8	22.1	44	9.6	0.4	ENE	0.80	3.1	NNE	22.4	21.7	21.7	---	1014.0	0.00	0.0	---	---	---	---	---	---	0.000	0.086	22.9	42	9.3	22.3	7.98	1.1798	---	0.00	703	1	100.0	30
30/04/20	15:30	22.5	22.9	22.1	44	9.6	0.0	SE	0.00	3.6	NE	22.5	21.8	21.8	---	1014.0	0.00	0.0	---	---	---	---	---	---	0.000	0.087	23.1	42	9.5	22.5	7.98	1.1790	---	0.00	702	1	100.0	30
30/04/20	16:00	23.0	23.2	22.9	42	9.4	0.4	S	0.80	3.6	S	23.0	22.4	22.4	---	1014.0	0.00	0.0	---	---	---	---	---	---	0.000	0.097	23.1	43	9.8	22.6	8.11	1.1787	---	0.00	703	1	100.0	30
30/04/20	16:30	23.3	23.6	23.0	42	9.7	0.0	S	0.00	2.2	S	23.3	22.8	22.8	---	1014.1	0.00	0.0	---	---	---	---	---	---	0.000	0.104	23.1	46	10.8	22.7	8.58	1.1781	---	0.00	702	1	100.0	30
30/04/20	17:00	23.5	23.6	23.4	42	9.8	0.0	ENE	0.00	2.7	NE	23.5	22.9	22.9	---	1014.1	0.00	0.0	---	---	---	---	---	---	0.000	0.108	22.9	46	10.7	22.4	8.59	1.1788	---	0.00	702	1	100.0	30
30/04/20	17:30	23.4	23.5	23.3	42	9.8	0.0	NE	0.00	2.2	NE	23.4	22.9	22.9	---	1014.5	0.00	0.0	---	---	---	---	---	---	0.000	0.106	22.7	45	10.1	22.1	8.45	1.1808	---	0.00	703	1	100.0	30
30/04/20	18:00	23.4	23.7	23.0	43	10.1	0.0	ENE	0.00	2.2	ENE	23.4	22.9	22.9	---	1014.9	0.00	0.0	---	---	---	---	---	---	0.000	0.106	22.6	46	10.3	22.0	8.60	1.1815	---	0.00	702	1	100.0	30
30/04/20	18:30	22.4	22.9	22.1	45	9.9	0.0	ENE	0.00	2.2	ENE	22.4	21.8	21.8	---	1015.4	0.00	0.0	---	---	---	---	---	---	0.000	0.086	22.4	45	9.9	21.8	8.45	1.1829	---	0.00	703	1	100.0	30
30/04/20	19:00	21.6	22.1	20.9	49	10.4	0.0	ENE	0.00	0.4	ENE	21.6	20.8	20.8	---	1015.8	0.00	0.0	---	---	---	---	---	---	0.000	0.068	22.4	45	9.9	21.8	8.45	1.1834	---	0.00	702	1	100.0	30
30/04/20	19:30	20.0	20.9	19.2	55	10.7	0.0	---	0.00	0.0	---	20.0	19.5	19.5	---	1016.2	0.00	0.0	---	---	---	---	---	---	0.000	0.035	22.4	45	9.9	21.7	8.45	1.1842	---	0.00	703	1	100.0	30
30/04/20	20:00	19.0	19.2	18.6	59	10.8	0.0	---	0.00	0.0	---	19.0	18.5	18.5	---	1016.7	0.00	0.0	---	---	---	---	---	---	0.000	0.014	22.3	45	9.8	21.6	8.45	1.1850	---	0.00	702	1	100.0	30
30/04/20	20:30	18.3	18.6	18.0	60	10.4	0.0	---	0.00	0.0	---	18.3	17.7	17.7	---	1017.1	0.00	0.0	---	---	---	---	---	---	0.001	0.000	22.3	46	10.1	21.6	8.61	1.1854	---	0.00	703	1	100.0	30
30/04/20	21:00	17.9	18.0	17.8	60	10.0	0.0	ENE	0.00	0.4	ENE	17.9	17.3	17.3	---	1017.7	0.00	0.0	---	---	---	---	---	---	0.009	0.000	22.3	47	10.4	21.6	8.75	1.1858	---	0.00	702	1	100.0	30
30/04/20	21:30	17.6	17.8	17.5	61	10.0	0.0	ENE	0.00	0.9	ENE	17.6	17.1	17.1	---	1018.2	0.00	0.0	---	---	---	---	---	---	0.015	0.000	22.4	45	9.9	21.7	8.45	1.1865	---	0.00	702	1	100.0	30
30/04/20	22:00	17.7	18.0	17.6	60	9.9	0.0	ESE	0.00	2.2	ESE	17.7	17.1	17.1	---	1018.8	0.00	0.0	---	---	---	---	---	---	0.013	0.000	22.3	46	10.1	21.6	8.61	1.1875	---	0.00	703	1	100.0	30
30/04/20	22:30	18.0	18.1	17.8	60	10.1	0.0	ESE	0.00	2.2	ESE	18.0	17.4	17.4	---	1019.3	0.00	0.0	---	---	---	---	---	---	0.007	0.000	22.3	47	10.5	21.7	8.75	1.1874	---	0.00	702	1	100.0	30
30/04/20	23:00	17.6	17.8	17.4	61	10.0	0.0	---	0.00	0.0	---	17.6	17.1	17.1	---	1019.7	0.00	0.0	---	---	---	---	---	---	0.015	0.000	22.3	44	9.4	21.5	8.31	1.1891	---	0.00	703	1	100.0	30
30/04/20	23:30	17.2	17.4	17.0	63	10.1	0.0	SE	0.00	0.9	SE	17.2	16.7	16.7	---	1019.9	0.00	0.0	---	---	---	---	---	---	0.023	0.000	22.3	47	10.4	21.6	8.75	1.1884	---	0.00	702	1	100.0	30
01/05/20	00:00	16.9	17.0	16.7	64	10.0	0.0	SE	0.00	0.4	SE	16.9	16.4	16.4	---	1020.2	0.00	0.0	---	---	---	---	---	---	0.030	0.000	22.3	44	9.4	21.5	8.31	1.1897	---	0.00	703	1	100.0	30
01/05/20	0:30	16.6	16.7	16.4	66	10.2	0.0	---	0.00	0.0	---	16.6	16.1	16.1	---	1020.2	0.00	0.0	---	---	---	---	---	---	0.037	0.000	22.3	47	10.4	21.6	8.75	1.1888	---	0.00	702	1	100.0	30
01/05/20	1:00	16.4	16.4	16.3	67	10.2	0.0	---	0.00	0.0	---	16.4	15.9	15.9	---	1020.3	0.00	0.0	---	---	---	---	---	---	0.041	0.000	22.3	45	9.8	21.6	8.45	1.1895	---	0.00	702	1	100.0	30
01/05/20	1:30	16.2	16.4	16.0	67	10.1	0.0	SE	0.00	0.4	SE	16.2	15.7	15.7	---	1020.4	0.00	0.0	---	---	---	---	---	---	0.044	0.000	22.2	47	10.3	21.5	8.75	1.1896	---	0.00	703	1	100.0	30
01/05/20	2:00	15.7	16.0	15.4	68	9.8	0.0	---	0.00	0.0	---	15.7	15.2	15.2	---	1020.7	0.00	0.0	---	---	---	---	---	---	0.056	0.000	22.2	47	10.3	21.5	8.75	1.1899	---	0.00	702	1	100.0	30
01/05/20	2:30	15.6	16.0	15.4	57	7.1	0.0	SE	0.00	1.8	SE	15.6	14.7	14.7	---	1021.0	0.00	0.0	---	---	---	---	---	---	0.057	0.000	22.2	44	9.4	21.4	8.31	1.1909	---	0.00	703	1	100.0	30
01/05/20	3:00	16.2	16.3	16.0	48	5.2	0.0	SE	0.00	0.4	SE	16.2	15.1	15.1	---	1021.1	0.00	0.0	---	---	---	---	---	---	0.044	0.000	21.9	45	9.5	21.1	8.45	1.1921	---	0.00	702	1	100.0	30
01/05/20	3:30	16.0	16.3	15.6	52	6.1	0.0	SE	0.00	0.4	SE	16.0	14.9	14.9	---	1021.2	0.00	0.0	---	---	---	---	---	---	0.049	0.000	22.2	42	8.7	21.3	8.01	1.1918	---	0.00	702	1	100.0	30
01/05/20	4:00	15.6	15.7	15.5	51	5.5	0.0	SE	0.00	1.8	SE	15.6	14.6	14.6	---	1021.3	0.00	0.0	---	---	---	---	---	---	0.057	0.000	22.2	44	9.3	21.3	8.31	1.1915	---	0.00	703	1	100.0	30
01/05/20	4:30	15.1	15.5	14.8	53	5.5	0.0	SE	0.00	1.8	SE	15.1	14.1	14.1	---	1021.2	0.00	0.0	---	---	---	---	---	---	0.068	0.000	22.2	43	9.0	21.3	8.17	1.1917	---	0.00	702	1	100.0	30
01/05/20	5:00	14.4	14.8	14.1	56	5.8	0.0	SE	0.00	0.9	SE	14.4	13.6	13.6	---	1021.2	0.00	0.0	---	---	---	---	---	---	0.081	0.000	22.2	42	8.7	21.3	8.01	1.1918	---	0.00	703	1	100.0	30
01/05/20	5:30	13.9	14.1	13.7	57	5.5	0.0	SSE	0.00	1.8	SSE	13.9	13.0	13.0	---	1021.0	0.00	0.0	---	---	---	---	---	---	0.093	0.000	22.1	40	7.9	21.1	7.71	1.1928	---	0.00	702	1	100.0	30
01/05/20	6:00	13.6	13.7	13.4	58	5.5	0.0	---	0.00	0.0	---	13.6	12.8	12.8	---	1020.9	0.00	0.0	---	---	---	---	---	---	0.098	0.000	22.2	39	7.6	21.1	7.61	1.1927	---	0.00	703	1	100.0	30
01/05/20	6:30	13.0	13.4	12.7	58	4.9	0.0	---	0.00	0.0	---	13.0	12.2	12.2	---	1020.9	0.00	0.0	---	---	---	---	---	---	0.111	0.000	22.2	39	7.6	21.1	7.61	1.1927	---	0.00	702	1	100.0	30
01/05/20	7:00	12.6	12.7	12.4	57	4.3	0.0	SSE	0.00	0.9	SSE	12.6	11.7	11.7	---	1021.1	0.00	0.0	---	---	---	---	---	---	0.120	0.000	22.2	38	7.2	21.1	7.47	1.1932	---	0.00	703	1	100.0	30
01/05/20	7:30	12.3	12.4	12.2	59	4.5	0.0	SSE	0.00	0.9	SSE	12.3	11.6	11.6	---	1021.3	0.00	0.0	---	---	---	---	---	---	0.126	0.000	22.1	38	7.1	21.0	7.48	1.1937	---	0.00	702	1	100.0	30
01/05/20	8:00	12.1	12.2	11.9	58	4.0	0.0	SSE	0.00	0.9	SSE	12.1	11.3	11.3	---	1021.7	0.00	0.0	---	---	---	---	---	---	0.131	0.000	22.1	39	7.5	20.9	7.62	1.1942	---	0.00	702	1	100.0	30
01/05/20	8:30	11.8	11.9	11.8	59	4.1	0.0	SSE	0.00	1.3	SSE	11.8	11.1	11.1	---	1022.1	0.00	0.0	---	---	---	---	---	---	0.135	0.000	22.9	37	7.4	22.1	7.29	1.1912	---	0.00	703	1	100.0	30
01/05/20	9:00	12.0	12.5	11.8	58	4.0	0.0	SSE	0.00	0.4	SSE	12.0	11.3	11.3	---	1022.2	0.00	0.0	---	---	---	---	---	---	0.132	0.000	23.7	36	7.7	22.9	7.07	1.1880	---	0.00	702	1	100.0	30
01/05/20	9:30	13.4	14.5	12.5	52	3.8	0.0	---	0.00	0.0	---	13.4	12.4	12.4	---	1022.3	0.00	0.0	---	---	---	---	---	---	0.102	0.000	24.3	36	8.2	23.6	7.04	1.1852	---	0.00	703	1	100.0	30
01/05/20	10:00	15.6	16.8	14.5	46	4.0	0.0	SSE	0.00	0.4	SSE	15.6	14.4	14.4	---	1022.4	0.00	0.0	---	---	---	---	---	---	0.057	0.000	23.1	38	8.0	22.3	7.41	1.1902	---	0.00	702	1	100.0	30
01/05/20	10:30	16.9	17.1	16.8	43	4.3	0.4	SSE	0.80	3.1	S	16.9	15.6	15.6	---	1022.4	0.00	0.0	---	---	---	---	---	---	0.029	0.000	22.5	37	7.1	21.5	7.30	1.1934	---	0.00	703	1	100.0	30
01/05/20	11:00	17.4	17.7	17.0	41	4.0	0.4	SSE	0.80	2.7	SE	17.4	15.9	15.9	---	1022.2	0.00	0.0	---	---	---	---	---	---	0.020	0.000	22.4	37	7.0	21.3	7.30	1.1937	---	0.00	702	1	100.0	30
01/05/20	11:30	17.6	17.7	17.4	42	4.5	0.4	SSE	0.80	4.0	NNE	17.6	16.2	16.2	---	1021.9	0.00	0.0	---	---	---	---	---	---	0.016	0.000	22.4	37	7.0	21.3	7.30	1.1934	---	0.00	703	1	100.0	30
01/05/20	12:00	17.8	18.2	17.4	41	4.4	0.4	NE	0.80	3.6	S	17.8	16.4	16.4	---	1021.7	0.00	0.0	---	---	---	---	---	---	0.010	0.000	22.4	37	7.0	21.3	7.30	1.1932	---	0.00	702	1	100.0	30
01/05/20	12:30	18.4	18.7	18.2	40	4.5	0.4	ENE	0.80	3.6	ENE	18.4	17.0	17.0	---	1021.4	0.00	0.0	---	---	---	---	---	---	0.000	0.001	22.4	37	7.0	21.3	7.30	1.1929	---	0.00	702	1	100.0	30
01/05/20	13:00	18.7	18.9	18.5	39	4.4	0.4	SSE	0.80	3.1	NE	18.7	17.2	17.2	---	1020.9	0.00	0.0	---	---	---	---	---	---	0.000	0.007	22.4	37	7.0	21.4	7.30	1.1920	---	0.00	703	1	100.0	30
01/05/20	13:30	19.1	19.4	18.9	39	4.8	0.4	ENE	0.80	3.1	NE	19.1	17.7	17.7	---	1020.4	0.00	0.0	---	---	---	---	---	---	0.000	0.016	22.5	37	7.1	21.5	7.30	1.1911	---	0.00	702	1	100.0	30
01/05/20	14:00	19.7	20.0	19.4	39	5.4	0.0	E	0.00	2.7	WSW	19.7	18.4	18.4	---	1019.7	0.00	0.0	---	---	---	---	---	---	0.000	0.029	22.5	37	7.1	21.5	7.30	1.1903	---	0.00	703	1	100.0	30
01/05/20	14:30	19.9	20.2	19.8	39	5.6	0.0	NE	0.00	2.7	NE	19.9	18.6	18.6	---	1019.2	0.00	0.0	---	---	---	---	---	---	0.000	0.034	22.6	37	7.1	21.6	7.30	1.1894	---	0.00	702	1	100.0	30
01/05/20	15:00	20.4	20.7	20.2	39	6.0	0.4	S	0.80	2.7	NE	20.4	19.0	19.0	---	1018.7	0.00	0.0	---	---	---	---	---	---	0.000	0.043	22.7	37	7.3	21.8	7.29	1.1880	---	0.00	703	1	100.0	30
01/05/20	15:30	20.2	20.4	20.0	40	6.1	0.4	ENE	0.80	4.5	NE	20.2	18.8	18.8	---	1018.2	0.00	0.0	---	---	---	---	---	---	0.000	0.038	22.8	37	7.4	22.0	7.29	1.1870	---	0.00	702	1	100.0	30
01/05/20	16:00	20.5	20.7	20.3	40	6.4	0.4	NE	0.80	2.7	NE	20.5	19.1	19.1	---	1017.9	0.00	0.0	---	---	---	---	---	---	0.000	0.045	22.9	37	7.4	22.1	7.29	1.1863	---	0.00	703	1	100.0	30
01/05/20	16:30	20.7	20.8	20.5	39	6.3	0.4	ENE	0.80	2.7	NNW	20.7	19.3	19.3	---	1017.6	0.00	0.0	---	---	---	---	---	---	0.000	0.050	22.8	38	7.7	21.9	7.43	1.1862	---	0.00	702	1	100.0	30
01/05/20	17:00	20.8	21.2	20.4	39	6.4	0.4	ENE	0.80	3.6	ENE	20.8	19.4	19.4	---	1017.3	0.00	0.0	---	---	---	---	---	---	0.000	0.052	22.6	38	7.5	21.6	7.45	1.1869	---	0.00	702	1	100.0	30
