		Temp	Hi	Low	Out	Dew	Wind	Wind	Wind	Hi	Hi	Wind	Heat	THW	THSW			Rain	Solar	Solar	Hi Solar	UV 	UV 	Hi 	Heat	Cool	In 	In	In 	In 	In 	In Air	Temp		Wind	Wind	ISS 	Arc.
Date	Time	Out	Temp	Temp	Hum	Pt.	Speed	Dir	Run	Speed	Dir	Chill	Index	Index	Index	Bar  	Rain	Rate	Rad.	Energy	Rad. 	Index	Dose	UV 	D-D 	D-D 	Temp	Hum	Dew	Heat	EMC	Density	2nd	ET 	Samp	Tx 	Recept	Int.
17/04/20	18:00	26.9	26.9	26.7	35	10.1	0.4	N	0.80	3.6	N	26.9	25.9	25.9	---	1012.7	0.00	0.0	---	---	---	---	---	---	0.000	0.178	25.2	39	10.3	24.6	7.50	1.1684	---	0.00	433	1	63.3	30
17/04/20	18:30	26.2	26.7	25.8	37	10.3	0.4	NNW	0.80	4.0	N	26.2	25.4	25.4	---	1012.6	0.00	0.0	---	---	---	---	---	---	0.000	0.163	25.2	41	11.0	24.6	7.75	1.1678	---	0.00	702	1	100.0	30
17/04/20	19:00	25.5	25.8	25.1	39	10.5	0.0	NNW	0.00	3.1	NNW	25.5	24.8	24.8	---	1012.4	0.00	0.0	---	---	---	---	---	---	0.000	0.149	25.1	42	11.3	24.6	7.91	1.1675	---	0.00	702	1	100.0	30
17/04/20	19:30	24.6	25.1	24.0	44	11.5	0.0	NNW	0.00	1.3	NNW	24.6	24.2	24.2	---	1012.5	0.00	0.0	---	---	---	---	---	---	0.000	0.130	25.4	42	11.5	24.8	7.90	1.1662	---	0.00	703	1	100.0	30
17/04/20	20:00	23.2	24.0	22.3	50	12.2	0.0	---	0.00	0.0	---	23.2	23.1	23.1	---	1012.6	0.00	0.0	---	---	---	---	---	---	0.000	0.102	25.8	43	12.3	25.3	8.05	1.1638	---	0.00	702	1	100.0	30
17/04/20	20:30	21.5	22.2	21.2	54	11.8	0.0	---	0.00	0.0	---	21.5	20.9	20.9	---	1012.7	0.00	0.0	---	---	---	---	---	---	0.000	0.066	26.2	52	15.6	26.3	9.47	1.1584	---	0.00	703	1	100.0	30
17/04/20	21:00	20.9	21.2	20.7	56	11.8	0.0	---	0.00	0.0	---	20.9	20.3	20.3	---	1012.9	0.00	0.0	---	---	---	---	---	---	0.000	0.053	27.6	37	11.6	26.7	7.12	1.1583	---	0.00	702	1	100.0	30
17/04/20	21:30	20.4	20.7	20.3	57	11.6	0.0	---	0.00	0.0	---	20.4	19.9	19.9	---	1013.3	0.00	0.0	---	---	---	---	---	---	0.000	0.043	25.8	45	12.9	25.4	8.38	1.1642	---	0.00	703	1	100.0	30
17/04/20	22:00	20.1	20.3	19.8	60	12.0	0.0	NNW	0.00	0.4	NNW	20.1	19.8	19.8	---	1013.5	0.00	0.0	---	---	---	---	---	---	0.000	0.036	25.5	45	12.7	25.1	8.39	1.1657	---	0.00	702	1	100.0	30
17/04/20	22:30	19.4	19.8	18.9	64	12.4	0.0	---	0.00	0.0	---	19.4	19.2	19.2	---	1013.8	0.00	0.0	---	---	---	---	---	---	0.000	0.022	27.4	43	13.7	27.0	8.02	1.1576	---	0.00	728	1	100.0	30
17/04/20	23:00	18.8	18.9	18.8	64	11.9	0.0	NNW	0.00	0.4	NNW	18.8	18.6	18.6	---	1013.9	0.00	0.0	---	---	---	---	---	---	0.000	0.010	28.7	43	14.9	28.5	7.98	1.1511	---	0.00	702	1	100.0	30
17/04/20	23:30	18.5	18.8	18.3	66	12.0	0.0	---	0.00	0.0	---	18.5	18.2	18.2	---	1013.9	0.00	0.0	---	---	---	---	---	---	0.000	0.003	27.9	43	14.2	27.6	8.00	1.1550	---	0.00	703	1	100.0	30
18/04/20	00:00	18.2	18.3	18.1	67	12.0	0.0	NNW	0.00	0.9	NNW	18.2	17.9	17.9	---	1014.0	0.00	0.0	---	---	---	---	---	---	0.002	0.000	24.8	46	12.4	24.6	8.52	1.1692	---	0.00	702	1	100.0	30
18/04/20	0:30	17.7	18.1	17.4	68	11.7	0.0	---	0.00	0.0	---	17.7	17.4	17.4	---	1013.9	0.00	0.0	---	---	---	---	---	---	0.013	0.000	22.9	51	12.3	22.8	9.38	1.1767	---	0.00	702	1	100.0	30
18/04/20	1:00	17.3	17.4	17.1	70	11.8	0.0	NNW	0.00	0.9	NNW	17.3	17.0	17.0	---	1013.8	0.00	0.0	---	---	---	---	---	---	0.022	0.000	22.3	66	15.7	22.6	12.11	1.1749	---	0.00	703	1	100.0	30
18/04/20	1:30	17.0	17.1	16.8	70	11.5	0.0	NNW	0.00	0.4	NNW	17.0	16.7	16.7	---	1013.6	0.00	0.0	---	---	---	---	---	---	0.028	0.000	22.1	65	15.2	22.2	11.85	1.1762	---	0.00	702	1	100.0	30
18/04/20	2:00	16.7	16.8	16.5	70	11.2	0.0	---	0.00	0.0	---	16.7	16.3	16.3	---	1013.3	0.00	0.0	---	---	---	---	---	---	0.035	0.000	22.0	52	11.7	21.5	9.62	1.1804	---	0.00	703	1	100.0	30
18/04/20	2:30	16.4	16.5	16.2	70	10.9	0.0	---	0.00	0.0	---	16.4	16.0	16.0	---	1013.0	0.00	0.0	---	---	---	---	---	---	0.041	0.000	21.8	46	9.7	20.9	8.62	1.1828	---	0.00	702	1	100.0	30
18/04/20	3:00	16.2	16.3	16.1	70	10.7	0.0	NNW	0.00	0.4	NNW	16.2	15.8	15.8	---	1012.7	0.00	0.0	---	---	---	---	---	---	0.045	0.000	21.6	62	14.0	21.4	11.33	1.1786	---	0.00	702	1	100.0	30
18/04/20	3:30	15.9	16.1	15.8	70	10.5	0.0	NNW	0.00	0.9	NNW	15.9	15.6	15.6	---	1012.5	0.00	0.0	---	---	---	---	---	---	0.050	0.000	21.8	59	13.4	21.6	10.90	1.1785	---	0.00	703	1	100.0	30
18/04/20	4:00	15.7	15.9	15.6	71	10.5	0.0	---	0.00	0.0	---	15.7	15.3	15.3	---	1012.5	0.00	0.0	---	---	---	---	---	---	0.054	0.000	21.9	48	10.4	21.2	8.88	1.1812	---	0.00	702	1	100.0	30
18/04/20	4:30	15.4	15.6	15.3	73	10.6	0.0	---	0.00	0.0	---	15.4	15.1	15.1	---	1012.2	0.00	0.0	---	---	---	---	---	---	0.060	0.000	21.8	58	13.1	21.5	10.70	1.1784	---	0.00	703	1	100.0	30
18/04/20	5:00	15.3	15.3	15.2	72	10.3	0.0	---	0.00	0.0	---	15.3	14.9	14.9	---	1012.1	0.00	0.0	---	---	---	---	---	---	0.064	0.000	21.8	56	12.6	21.4	10.33	1.1788	---	0.00	702	1	100.0	30
18/04/20	5:30	15.2	15.3	15.0	74	10.6	0.0	NNW	0.00	0.4	NNW	15.2	14.8	14.8	---	1011.9	0.00	0.0	---	---	---	---	---	---	0.066	0.000	21.9	50	11.0	21.3	9.25	1.1800	---	0.00	703	1	100.0	30
18/04/20	6:00	14.9	15.0	14.8	74	10.3	0.0	---	0.00	0.0	---	14.9	14.5	14.5	---	1012.0	0.00	0.0	---	---	---	---	---	---	0.072	0.000	21.8	47	10.0	21.0	8.75	1.1812	---	0.00	702	1	100.0	30
18/04/20	6:30	14.8	14.8	14.7	75	10.4	0.0	---	0.00	0.0	---	14.8	14.4	14.4	---	1011.9	0.00	0.0	---	---	---	---	---	---	0.074	0.000	21.7	55	12.2	21.2	10.13	1.1795	---	0.00	703	1	100.0	30
18/04/20	7:00	14.6	14.7	14.5	75	10.2	0.0	NNW	0.00	0.9	NNW	14.6	14.2	14.2	---	1012.3	0.00	0.0	---	---	---	---	---	---	0.079	0.000	21.7	53	11.7	21.2	9.81	1.1803	---	0.00	702	1	100.0	30
18/04/20	7:30	14.4	14.6	14.3	75	10.1	0.0	---	0.00	0.0	---	14.4	14.1	14.1	---	1012.3	0.00	0.0	---	---	---	---	---	---	0.081	0.000	21.8	52	11.5	21.2	9.63	1.1804	---	0.00	702	1	100.0	30
18/04/20	8:00	14.1	14.3	13.8	78	10.3	0.0	NNW	0.00	0.4	NNW	14.1	13.9	13.9	---	1012.4	0.00	0.0	---	---	---	---	---	---	0.088	0.000	21.9	51	11.3	21.3	9.42	1.1802	---	0.00	703	1	100.0	30
18/04/20	8:30	13.8	14.0	13.8	77	9.9	0.0	---	0.00	0.0	---	13.8	13.6	13.6	---	1012.6	0.00	0.0	---	---	---	---	---	---	0.094	0.000	21.8	46	9.6	20.9	8.63	1.1825	---	0.00	702	1	100.0	30
18/04/20	9:00	14.5	15.3	14.0	73	9.7	0.0	---	0.00	0.0	---	14.5	14.1	14.1	---	1012.6	0.00	0.0	---	---	---	---	---	---	0.080	0.000	21.7	45	9.3	20.7	8.45	1.1832	---	0.00	703	1	100.0	30
18/04/20	9:30	16.7	17.8	15.3	63	9.6	0.0	---	0.00	0.0	---	16.7	16.1	16.1	---	1012.6	0.00	0.0	---	---	---	---	---	---	0.035	0.000	21.6	52	11.3	20.9	9.63	1.1818	---	0.00	702	1	100.0	30
18/04/20	10:00	19.1	20.2	17.8	53	9.3	0.0	NNW	0.00	0.4	NNW	19.1	18.3	18.3	---	1012.4	0.00	0.0	---	---	---	---	---	---	0.000	0.015	21.8	50	10.9	21.1	9.25	1.1811	---	0.00	703	1	100.0	30
18/04/20	10:30	20.1	20.2	19.9	54	10.5	0.0	ENE	0.00	2.2	ENE	20.1	19.5	19.5	---	1012.3	0.00	0.0	---	---	---	---	---	---	0.000	0.036	21.8	51	11.2	21.2	9.42	1.1804	---	0.00	702	1	100.0	30
18/04/20	11:00	20.2	20.6	19.9	52	10.0	0.0	SE	0.00	2.2	S	20.2	19.6	19.6	---	1011.9	0.00	0.0	---	---	---	---	---	---	0.000	0.039	21.9	51	11.3	21.4	9.42	1.1794	---	0.00	703	1	100.0	30
18/04/20	11:30	20.8	21.0	20.6	52	10.6	0.4	ENE	0.80	3.1	NE	20.8	20.0	20.0	---	1011.8	0.00	0.0	---	---	---	---	---	---	0.000	0.051	21.9	50	11.0	21.3	9.25	1.1795	---	0.00	702	1	100.0	30
18/04/20	12:00	21.1	21.3	20.8	52	10.8	0.4	ENE	0.80	3.6	NE	21.1	20.3	20.3	---	1011.6	0.00	0.0	---	---	---	---	---	---	0.000	0.057	21.9	50	11.0	21.3	9.25	1.1793	---	0.00	702	1	100.0	30
18/04/20	12:30	21.5	21.9	21.2	51	10.9	0.4	ENE	0.80	3.1	ENE	21.5	20.8	20.8	---	1011.4	0.00	0.0	---	---	---	---	---	---	0.000	0.066	21.9	50	11.0	21.3	9.25	1.1791	---	0.00	703	1	100.0	30
18/04/20	13:00	22.2	22.6	21.9	48	10.6	0.4	ENE	0.80	3.1	ENE	22.2	21.6	21.6	---	1010.9	0.00	0.0	---	---	---	---	---	---	0.000	0.080	21.9	49	10.7	21.2	9.05	1.1791	---	0.00	702	1	100.0	30
18/04/20	13:30	22.7	22.9	22.6	49	11.5	0.4	ENE	0.80	4.0	NE	22.7	22.4	22.4	---	1010.5	0.00	0.0	---	---	---	---	---	---	0.000	0.091	21.8	52	11.5	21.3	9.62	1.1780	---	0.00	703	1	100.0	30
18/04/20	14:00	23.2	23.9	22.7	47	11.3	0.4	ENE	0.80	4.5	NW	23.2	22.9	22.9	---	1009.9	0.00	0.0	---	---	---	---	---	---	0.000	0.102	21.8	52	11.5	21.3	9.62	1.1772	---	0.00	702	1	100.0	30
18/04/20	14:30	24.1	24.6	23.8	46	11.7	0.4	NE	0.80	3.6	NE	24.1	23.8	23.8	---	1009.5	0.00	0.0	---	---	---	---	---	---	0.000	0.119	21.9	52	11.6	21.3	9.62	1.1764	---	0.00	703	1	100.0	30
18/04/20	15:00	24.7	25.1	24.5	42	10.9	0.4	ENE	0.80	3.6	NNE	24.7	24.2	24.2	---	1008.9	0.00	0.0	---	---	---	---	---	---	0.000	0.133	22.0	51	11.4	21.4	9.42	1.1756	---	0.00	702	1	100.0	30
18/04/20	15:30	25.7	26.1	25.1	40	11.1	0.4	ENE	0.80	4.0	ENE	25.7	25.0	25.0	---	1008.9	0.00	0.0	---	---	---	---	---	---	0.000	0.153	22.4	50	11.5	21.9	9.25	1.1739	---	0.00	702	1	100.0	30
18/04/20	16:00	26.6	26.8	26.2	39	11.5	0.4	ENE	0.80	3.6	NNE	26.6	25.8	25.8	---	1008.6	0.00	0.0	---	---	---	---	---	---	0.000	0.172	22.5	50	11.6	22.1	9.25	1.1730	---	0.00	703	1	100.0	30
18/04/20	16:30	27.1	27.3	26.7	37	11.2	0.4	NW	0.80	3.1	NE	27.1	26.3	26.3	---	1008.4	0.00	0.0	---	---	---	---	---	---	0.000	0.183	22.7	49	11.5	22.4	9.05	1.1720	---	0.00	702	1	100.0	30
18/04/20	17:00	27.8	28.2	27.3	34	10.5	0.0	WNW	0.00	2.7	NNW	27.8	26.8	26.8	---	1008.3	0.00	0.0	---	---	---	---	---	---	0.000	0.197	22.9	51	12.3	22.8	9.38	1.1701	---	0.00	703	1	100.0	30
18/04/20	17:30	28.1	28.1	27.9	35	11.2	0.0	NW	0.00	2.7	N	28.1	27.1	27.1	---	1008.1	0.00	0.0	---	---	---	---	---	---	0.000	0.203	23.2	53	13.1	23.1	9.70	1.1681	---	0.00	702	1	100.0	30
18/04/20	18:00	28.3	28.5	28.1	34	10.9	0.0	NW	0.00	2.2	N	28.3	27.3	27.3	---	1008.1	0.00	0.0	---	---	---	---	---	---	0.000	0.207	22.9	51	12.2	22.7	9.39	1.1701	---	0.00	703	1	100.0	30
18/04/20	18:30	27.3	28.1	26.7	37	11.4	0.0	NW	0.00	2.7	NW	27.3	26.5	26.5	---	1008.0	0.00	0.0	---	---	---	---	---	---	0.000	0.187	22.9	51	12.2	22.7	9.39	1.1701	---	0.00	702	1	100.0	30
18/04/20	19:00	26.2	26.7	25.7	42	12.3	0.0	---	0.00	0.0	---	26.2	25.7	25.7	---	1008.2	0.00	0.0	---	---	---	---	---	---	0.000	0.164	22.4	52	12.0	22.1	9.60	1.1724	---	0.00	703	1	100.0	30
18/04/20	19:30	24.4	25.7	23.4	49	13.0	0.0	---	0.00	0.0	---	24.4	24.3	24.3	---	1008.4	0.00	0.0	---	---	---	---	---	---	0.000	0.127	22.2	49	10.9	21.6	9.05	1.1748	---	0.00	702	1	100.0	30
18/04/20	20:00	22.9	23.4	22.8	49	11.7	0.0	---	0.00	0.0	---	22.9	22.7	22.7	---	1008.7	0.00	0.0	---	---	---	---	---	---	0.000	0.096	22.1	48	10.5	21.4	8.88	1.1759	---	0.00	702	1	100.0	30
18/04/20	20:30	22.4	22.8	21.9	52	12.0	0.0	---	0.00	0.0	---	22.4	22.1	22.1	---	1008.8	0.00	0.0	---	---	---	---	---	---	0.000	0.084	21.9	54	12.2	21.5	9.92	1.1748	---	0.00	703	1	100.0	30
18/04/20	21:00	21.6	21.9	21.2	54	11.9	0.0	NW	0.00	1.3	NW	21.6	21.1	21.1	---	1008.9	0.00	0.0	---	---	---	---	---	---	0.000	0.068	21.9	54	12.2	21.4	9.92	1.1752	---	0.00	702	1	100.0	30
18/04/20	21:30	21.0	21.3	20.7	56	11.9	0.0	NW	0.00	1.8	N	21.0	20.4	20.4	---	1009.4	0.00	0.0	---	---	---	---	---	---	0.000	0.056	21.9	54	12.2	21.5	9.92	1.1755	---	0.00	703	1	100.0	30
18/04/20	22:00	20.7	20.8	20.5	57	11.9	0.0	NNW	0.00	0.4	NNW	20.7	20.3	20.3	---	1009.4	0.00	0.0	---	---	---	---	---	---	0.000	0.050	22.0	54	12.3	21.6	9.92	1.1752	---	0.00	702	1	100.0	30
18/04/20	22:30	20.4	20.6	20.3	58	11.8	0.0	NNW	0.00	0.9	NNW	20.4	20.1	20.1	---	1009.6	0.00	0.0	---	---	---	---	---	---	0.000	0.043	22.0	54	12.3	21.6	9.92	1.1754	---	0.00	703	1	100.0	30
18/04/20	23:00	20.2	20.3	19.9	59	11.9	0.0	NNW	0.00	0.4	NNW	20.2	19.9	19.9	---	1009.7	0.00	0.0	---	---	---	---	---	---	0.000	0.039	21.9	49	10.7	21.3	9.05	1.1773	---	0.00	702	1	100.0	30
18/04/20	23:30	19.6	19.9	19.2	62	12.1	0.0	---	0.00	0.0	---	19.6	19.3	19.3	---	1009.9	0.00	0.0	---	---	---	---	---	---	0.000	0.027	21.9	49	10.7	21.3	9.05	1.1776	---	0.00	703	1	100.0	30
19/04/20	00:00	18.8	19.2	18.4	65	12.1	0.0	---	0.00	0.0	---	18.8	18.6	18.6	---	1009.7	0.00	0.0	---	---	---	---	---	---	0.000	0.010	21.9	54	12.2	21.5	9.92	1.1758	---	0.00	702	1	100.0	30
19/04/20	0:30	18.3	18.5	18.2	66	11.9	0.0	NNW	0.00	0.4	NNW	18.3	18.1	18.1	---	1009.5	0.00	0.0	---	---	---	---	---	---	0.000	0.000	22.0	47	10.2	21.2	8.75	1.1774	---	0.00	702	1	100.0	30
19/04/20	1:00	18.1	18.2	18.1	65	11.4	0.0	NNW	0.00	0.4	NNW	18.1	17.8	17.8	---	1009.2	0.00	0.0	---	---	---	---	---	---	0.005	0.000	21.9	54	12.2	21.4	9.92	1.1756	---	0.00	703	1	100.0	30
19/04/20	1:30	17.8	18.1	17.7	66	11.4	0.0	NNW	0.00	0.4	NNW	17.8	17.5	17.5	---	1009.5	0.00	0.0	---	---	---	---	---	---	0.010	0.000	22.0	53	12.0	21.6	9.79	1.1756	---	0.00	702	1	100.0	30
19/04/20	2:00	17.7	17.7	17.5	66	11.2	0.0	NNW	0.00	0.4	NNW	17.7	17.3	17.3	---	1009.3	0.00	0.0	---	---	---	---	---	---	0.014	0.000	21.9	53	11.9	21.4	9.79	1.1756	---	0.00	703	1	100.0	30
19/04/20	2:30	17.3	17.5	17.1	67	11.1	0.0	---	0.00	0.0	---	17.3	16.9	16.9	---	1009.0	0.00	0.0	---	---	---	---	---	---	0.021	0.000	21.9	53	11.9	21.4	9.79	1.1753	---	0.00	702	1	100.0	30
19/04/20	3:00	16.9	17.2	16.7	69	11.2	0.0	---	0.00	0.0	---	16.9	16.5	16.5	---	1008.7	0.00	0.0	---	---	---	---	---	---	0.030	0.000	21.8	53	11.8	21.3	9.80	1.1756	---	0.00	702	1	100.0	30
19/04/20	3:30	16.5	16.7	16.4	70	11.0	0.0	---	0.00	0.0	---	16.5	16.1	16.1	---	1008.7	0.00	0.0	---	---	---	---	---	---	0.038	0.000	21.9	46	9.7	21.1	8.62	1.1774	---	0.00	703	1	100.0	30
19/04/20	4:00	16.3	16.4	16.2	69	10.6	0.0	NNW	0.00	0.9	NNW	16.3	15.8	15.8	---	1008.3	0.00	0.0	---	---	---	---	---	---	0.043	0.000	21.9	53	11.9	21.4	9.79	1.1748	---	0.00	702	1	100.0	30
19/04/20	4:30	16.1	16.2	16.1	69	10.4	0.0	---	0.00	0.0	---	16.1	15.7	15.7	---	1008.3	0.00	0.0	---	---	---	---	---	---	0.046	0.000	21.9	52	11.6	21.4	9.62	1.1748	---	0.00	703	1	100.0	30
19/04/20	5:00	15.9	16.1	15.8	70	10.5	0.0	---	0.00	0.0	---	15.9	15.6	15.6	---	1008.6	0.00	0.0	---	---	---	---	---	---	0.050	0.000	22.0	46	9.8	21.2	8.62	1.1767	---	0.00	702	1	100.0	30
19/04/20	5:30	15.8	15.9	15.8	70	10.4	0.0	---	0.00	0.0	---	15.8	15.4	15.4	---	1008.7	0.00	0.0	---	---	---	---	---	---	0.052	0.000	21.8	52	11.5	21.3	9.62	1.1758	---	0.00	703	1	100.0	30
19/04/20	6:00	15.8	15.9	15.7	70	10.3	0.0	---	0.00	0.0	---	15.8	15.3	15.3	---	1009.0	0.00	0.0	---	---	---	---	---	---	0.053	0.000	21.9	52	11.6	21.3	9.62	1.1759	---	0.00	702	1	100.0	30
19/04/20	6:30	15.7	15.8	15.4	72	10.6	0.0	---	0.00	0.0	---	15.7	15.3	15.3	---	1009.4	0.00	0.0	---	---	---	---	---	---	0.056	0.000	21.9	51	11.3	21.3	9.42	1.1767	---	0.00	703	1	100.0	30
19/04/20	7:00	15.1	15.4	14.8	75	10.7	0.0	---	0.00	0.0	---	15.1	14.8	14.8	---	1009.8	0.00	0.0	---	---	---	---	---	---	0.067	0.000	21.8	47	10.0	21.0	8.75	1.1786	---	0.00	702	1	100.0	30
19/04/20	7:30	14.8	14.9	14.7	75	10.4	0.0	NNW	0.00	0.4	NNW	14.8	14.5	14.5	---	1010.3	0.00	0.0	---	---	---	---	---	---	0.073	0.000	21.8	52	11.5	21.2	9.63	1.1780	---	0.00	702	1	100.0	30
19/04/20	8:00	14.6	14.8	14.4	75	10.2	0.0	---	0.00	0.0	---	14.6	14.2	14.2	---	1010.5	0.00	0.0	---	---	---	---	---	---	0.079	0.000	21.8	52	11.5	21.3	9.62	1.1780	---	0.00	703	1	100.0	30
19/04/20	8:30	14.4	14.5	14.4	76	10.3	0.0	---	0.00	0.0	---	14.4	14.2	14.2	---	1010.8	0.00	0.0	---	---	---	---	---	---	0.081	0.000	21.9	51	11.3	21.3	9.42	1.1783	---	0.00	702	1	100.0	30
19/04/20	9:00	14.8	15.6	14.5	74	10.2	0.0	---	0.00	0.0	---	14.8	14.4	14.4	---	1011.1	0.00	0.0	---	---	---	---	---	---	0.073	0.000	21.9	51	11.3	21.3	9.42	1.1787	---	0.00	703	1	100.0	30
19/04/20	9:30	16.8	18.2	15.6	63	9.7	0.0	---	0.00	0.0	---	16.8	16.2	16.2	---	1011.1	0.00	0.0	---	---	---	---	---	---	0.032	0.000	21.9	47	10.1	21.1	8.75	1.1799	---	0.00	702	1	100.0	30
19/04/20	10:00	19.2	19.8	18.2	56	10.2	0.0	NNW	0.00	2.2	NNW	19.2	18.7	18.7	---	1011.4	0.00	0.0	---	---	---	---	---	---	0.000	0.019	21.8	51	11.2	21.2	9.42	1.1793	---	0.00	703	1	100.0	30
19/04/20	10:30	20.3	20.6	19.8	54	10.7	0.0	NNE	0.00	0.9	NNW	20.3	19.7	19.7	---	1011.6	0.00	0.0	---	---	---	---	---	---	0.000	0.041	21.9	51	11.3	21.3	9.42	1.1792	---	0.00	702	1	100.0	30
19/04/20	11:00	21.0	21.3	20.4	52	10.8	0.0	NNE	0.00	0.4	NNE	21.0	20.2	20.2	---	1011.5	0.00	0.0	---	---	---	---	---	---	0.000	0.056	21.9	51	11.3	21.3	9.42	1.1792	---	0.00	702	1	100.0	30
19/04/20	11:30	21.8	22.1	21.3	51	11.2	0.0	NNE	0.00	2.2	NE	21.8	21.2	21.2	---	1011.4	0.00	0.0	---	---	---	---	---	---	0.000	0.073	21.9	47	10.1	21.2	8.75	1.1800	---	0.00	703	1	100.0	30
19/04/20	12:00	22.4	22.7	22.2	49	11.2	0.4	ENE	0.80	2.2	NE	22.4	22.0	22.0	---	1011.5	0.00	0.0	---	---	---	---	---	---	0.000	0.086	21.8	48	10.3	21.1	8.88	1.1804	---	0.00	702	1	100.0	30
19/04/20	12:30	23.2	23.4	22.7	48	11.5	0.4	ENE	0.80	3.1	NE	23.2	22.9	22.9	---	1011.4	0.00	0.0	---	---	---	---	---	---	0.000	0.101	22.1	51	11.4	21.6	9.42	1.1782	---	0.00	703	1	100.0	30
19/04/20	13:00	24.0	24.6	23.4	46	11.7	0.4	NE	0.80	3.6	NE	24.0	23.7	23.7	---	1011.2	0.00	0.0	---	---	---	---	---	---	0.000	0.118	22.1	52	11.7	21.6	9.62	1.1776	---	0.00	702	1	100.0	30
19/04/20	13:30	24.9	25.3	24.6	43	11.4	0.4	ENE	0.80	3.6	ENE	24.9	24.4	24.4	---	1011.0	0.00	0.0	---	---	---	---	---	---	0.000	0.137	21.9	52	11.6	21.3	9.62	1.1782	---	0.00	703	1	100.0	30
19/04/20	14:00	25.4	25.9	25.2	42	11.6	0.4	ENE	0.80	3.6	NE	25.4	24.9	24.9	---	1010.8	0.00	0.0	---	---	---	---	---	---	0.000	0.148	21.9	52	11.6	21.3	9.62	1.1781	---	0.00	702	1	100.0	30
19/04/20	14:30	26.1	26.2	25.8	42	12.1	0.4	ESE	0.80	4.0	NNE	26.1	25.5	25.5	---	1010.2	0.00	0.0	---	---	---	---	---	---	0.000	0.161	22.1	51	11.4	21.6	9.42	1.1768	---	0.00	703	1	100.0	30
19/04/20	15:00	26.1	26.4	25.8	41	11.8	0.4	S	0.80	3.6	S	26.1	25.4	25.4	---	1009.7	0.00	0.0	---	---	---	---	---	---	0.000	0.161	22.3	51	11.7	21.8	9.41	1.1751	---	0.00	702	1	100.0	30
19/04/20	15:30	26.7	26.8	26.4	40	11.9	0.0	NE	0.00	2.7	E	26.7	25.9	25.9	---	1009.5	0.00	0.0	---	---	---	---	---	---	0.000	0.174	22.7	50	11.8	22.4	9.25	1.1730	---	0.00	702	1	100.0	30
19/04/20	16:00	26.8	26.9	26.6	40	12.0	0.4	NE	0.80	3.6	ENE	26.8	26.1	26.1	---	1009.3	0.00	0.0	---	---	---	---	---	---	0.000	0.176	23.2	49	11.9	23.0	9.05	1.1706	---	0.00	703	1	100.0	30
19/04/20	16:30	27.0	27.4	26.7	38	11.5	0.4	NE	0.80	3.6	NE	27.0	26.2	26.2	---	1009.3	0.00	0.0	---	---	---	---	---	---	0.000	0.181	23.4	49	12.1	23.2	9.05	1.1698	---	0.00	702	1	100.0	30
19/04/20	17:00	27.3	27.4	27.2	39	12.1	0.0	SE	0.00	3.1	NNE	27.3	26.6	26.6	---	1009.2	0.00	0.0	---	---	---	---	---	---	0.000	0.186	23.5	49	12.2	23.3	9.05	1.1691	---	0.00	703	1	100.0	30
19/04/20	17:30	27.3	27.4	27.2	38	11.7	0.0	NE	0.00	2.2	SSE	27.3	26.5	26.5	---	1009.1	0.00	0.0	---	---	---	---	---	---	0.000	0.186	24.0	44	11.0	23.6	8.25	1.1682	---	0.00	702	1	100.0	30
