;;
;; INV Cuarentena NOx 5 al 7 mayo.dat Thu May 07 17:24:38 2020
;;
;; Model 42i (prog iSeries 42i)
;;
Time   Date    Flags       no      nox     hino    hinox     pres     pmtt     intt     rctt    convt    smplf    ozonf     pmtv
13:15  05-05-20 -----H-- 0.908674  3.82291        0        0  172.944 -2.57361  35.2848  50.2699  323.681  1.67724     0.05 -704.851
13:30  05-05-20 -----H-- 0.985626  3.96815        0        0  172.649 -3.05702  35.0539  49.8266  324.994  1.73539     0.05 -704.851
13:45  05-05-20 -----H-- 0.570093  2.54526        0        0  173.534 -3.05702  35.2848  50.2374  325.256  1.78683     0.05 -704.851
14:00  05-05-20 -----H-- 0.495733   2.9333        0        0  172.649 -2.74235  35.4387  49.7962  324.994  1.82262     0.05 -704.851
14:15  05-05-20 -----H-- 0.665573  3.97174        0        0  173.239 -2.67701  35.2078  50.2374  325.781     1.87     0.05 -704.481
14:30  05-05-20 -----H-- 0.324163  2.90617        0        0  172.649 -2.64632  34.9785  49.7658  324.469     1.87     0.05 -704.851
14:45  05-05-20 -----H-- 0.171164  2.19639        0        0  173.534 -2.56978  35.5926  50.1073  325.519     1.87     0.05 -704.851
15:00  05-05-20 -----H-- 0.464635  3.13501        0        0  172.649 -3.05702  35.3874  49.7962  323.944  1.47157     0.05 -704.851
15:15  05-05-20 -----H-- 0.238767  2.73855        0        0  173.239 -2.78087  35.1565  50.1398  326.832  1.54674     0.05 -704.851
15:30  05-05-20 -----H-- 0.217767  2.40087        0        0  172.944  -2.5889  34.9785   49.857  324.731  1.59038     0.05 -704.851
15:45  05-05-20 -----H-- 0.323513  2.72622        0        0  172.944 -2.88133  35.3617  50.1723  323.681  1.67165     0.05 -704.851
16:00  05-05-20 -----H-- 0.377773  2.99283        0        0  173.239 -2.91233  35.3104  49.8874  326.044     1.87     0.05 -704.851
16:15  05-05-20 -----H-- 0.251201  2.91316        0        0  172.944 -3.03853  35.1052  49.9178  324.731  1.49581     0.05 -704.851
16:30  05-05-20 -----H-- 0.0636544  2.24829        0        0  172.649 -2.95113  34.8114  50.2374  323.419  1.53825     0.05 -704.851
16:45  05-05-20 -----H--  0.20232  2.62787        0        0  172.649 -2.97056  35.3874  49.8874  325.256  1.60119     0.05 -704.851
17:00  05-05-20 -----H-- 0.0872834  3.34005        0        0  172.944 -3.03853  34.9785  50.1398  325.519  1.83604     0.05 -704.851
17:15  05-05-20 -----H-- 0.368633  5.48594        0        0  172.649 -2.86584  34.9546  49.9786  323.944  1.50309     0.05 -704.851
17:30  05-05-20 -----H-- 0.159899  5.60917        0        0  172.944 -2.56978   34.883  50.0097  326.306  1.49581     0.05 -704.851
17:45  05-05-20 -----H-- 0.123672  4.90821        0        0  172.944 -2.59272  34.7636  50.1398  324.731    1.514     0.05 -704.851
18:00  05-05-20 -----H-- 0.071057  5.33089        0        0  172.353 -2.90457   34.692  49.9786  323.944  1.52491     0.05 -704.851
18:15  05-05-20 -----H-- -0.0250912  4.68098        0        0  172.353 -2.84651  34.4771  49.9178  323.681  1.54674     0.05 -704.851
18:30  05-05-20 -----H-- -0.0549786  3.99891        0        0  172.649 -2.57743  34.8114  49.9786  324.731  1.56856     0.05 -704.851
18:45  05-05-20 -----H-- 0.0896964  3.89284        0        0  173.239 -2.69237  35.0026  50.0097  326.832  1.60007     0.05 -704.851
19:00  05-05-20 -----H-- -0.139704  2.74203        0        0  172.944 -2.97056  34.7397  50.1073  325.781  1.67276     0.05 -704.851
19:15  05-05-20 -----H--  3.18346  7.68018        0        0  172.649 -2.55069  35.2591  49.7354  323.681     1.87     0.05 -704.851
19:30  05-05-20 -----H-- 0.165817  6.86261        0        0  172.649 -2.80015   34.883  50.1723  324.994     1.87     0.05 -704.851
19:45  05-05-20 -----H-- 0.189211  6.32076        0        0  172.944 -2.58507  34.8114  49.7962  326.569  1.50673     0.05 -704.851
20:00  05-05-20 -----H-- 0.0708133  5.61513        0        0  173.239  -2.5889  35.0282  49.9482  325.256  1.55401     0.05 -704.851
20:15  05-05-20 -----H-- 0.463789  5.97022        0        0  173.239 -2.60037  35.5926  50.0097  324.469  1.62915     0.05 -704.481
20:30  05-05-20 -----H-- 0.0392556  6.02938        0        0  173.829 -3.02374   36.157  49.9786  324.994  1.51036     0.05 -704.851
20:45  05-05-20 -----H-- 0.113094  6.73653        0        0  174.124  -2.5889  36.5418  49.9178  325.519     1.87     0.05 -704.851
21:00  05-05-20 -----H-- 0.0946468  6.37199        0        0  174.124 -2.63866  37.0036  50.0747  323.944  1.43034     0.05 -704.851
21:15  05-05-20 -----H-- 0.194509  6.16932        0        0  174.124 -2.91621  37.3114  49.7658  323.419  1.43156     0.05 -704.851
21:30  05-05-20 -----H-- 0.165379  5.93815        0        0  174.419 -2.72311  37.6193  50.1723  323.419  1.43156     0.05 -704.851
21:45  05-05-20 -----H-- 0.304825  7.39682        0        0   175.01 -2.99389  37.2858  49.7962  326.569  1.43156     0.05 -704.851
22:00  05-05-20 -----H-- 0.782139  8.23689        0        0  174.419  -2.8852   36.901  50.1398  326.306  1.44489     0.05 -704.851
22:15  05-05-20 -----H-- 0.950799  8.69268        0        0  174.714 -2.61185  37.1832  49.8266  324.731  1.44489     0.05 -704.851
22:30  05-05-20 -----H--  4.07193  12.4198        0        0  174.714  -2.7539   37.491  50.0422  323.419  1.44732     0.05 -704.851
22:45  05-05-20 -----H--    4.351  12.9258        0        0  174.714 -3.00159  37.6963  49.8874  324.469  1.44489     0.05 -704.851
23:00  05-05-20 -----H--  2.93908  10.9892        0        0  175.305  -2.7539  37.9528  50.0097  326.569  1.44611     0.05 -704.851
23:15  05-05-20 -----H--  2.01526   9.1706        0        0  174.714 -2.78087  36.9266  49.9178  325.781  1.47884     0.05 -704.851
23:30  05-05-20 -----H--  1.51187  8.33891        0        0  174.419 -2.68468  37.0806  49.9482  323.681  1.49097     0.05 -704.851
23:45  05-05-20 -----H--  2.03279  9.09672        0        0  174.419 -3.00528  37.3627  50.0422  323.944  1.49581     0.05 -704.851
00:00  05-06-20 -----H--   3.1805  10.3793        0        0  174.714 -2.78858  37.6193  49.7962  324.469  1.48612     0.05 -704.851
00:15  05-06-20 -----H--  1.31633  7.68707        0        0  174.714 -3.02374  37.7989  50.1723  324.994  1.47399     0.05 -704.851
00:30  05-06-20 -----H-- 0.978591  6.79631        0        0  175.305 -3.00159  37.9528  49.7658  326.044  1.48612     0.05 -704.851
00:45  05-06-20 -----H-- 0.722207  6.06077        0        0    175.6 -2.75775  38.1067  50.0422  326.569  1.48127     0.05 -704.851
01:00  05-06-20 -----H-- 0.573454  5.91493        0        0    175.6 -2.71927  37.7219  49.9482  326.306  1.47763     0.05 -704.851
01:15  05-06-20 -----H--  1.06267  7.00987        0        0  174.714  -2.9356  37.1062  49.7354  323.944  1.49218     0.05 -704.851
01:30  05-06-20 -----H-- 0.507095  5.82169        0        0  174.419    -2.99  37.3627  50.2049  323.944  1.49218     0.05 -704.851
01:45  05-06-20 -----H-- 0.352597  5.37354        0        0  174.419 -3.02744  37.5423  49.7962  325.781  1.48975     0.05 -704.481
02:00  05-06-20 -----H-- 0.226675  5.16839        0        0  175.305 -2.75775  37.6963  50.0747  326.569  1.48733     0.05 -704.851
02:15  05-06-20 -----H-- 0.283213  5.60001        0        0  175.305 -3.02005  37.8758  50.0097  324.731  1.48975     0.05 -704.851
02:30  05-06-20 -----H-- 0.178352  4.79401        0        0  175.305 -2.73465  37.9528  49.9786  324.469  1.47399     0.05 -704.851
02:45  05-06-20 -----H-- 0.144084  5.29824        0        0   175.01 -2.98222  38.0554  50.0422  323.681  1.48127     0.05 -704.851
03:00  05-06-20 -----H-- 0.122316  6.09507        0        0   175.01 -2.93172  38.1324  49.7658  324.994  1.47278     0.05 -704.851
03:15  05-06-20 -----H--  0.12688  6.29727        0        0  174.714 -3.04592  36.9779  50.2049  325.781  1.47035     0.05 -704.481
03:30  05-06-20 -----H-- 0.0729194  5.95977        0        0  174.124  -2.6195  37.1062   49.857  323.944  1.47035     0.05 -704.851
03:45  05-06-20 -----H-- 0.0618719  6.10181        0        0  174.419 -2.85811  37.2601  49.9178  326.044  1.47157     0.05 -704.481
04:00  05-06-20 -----H-- 0.0322123  5.87329        0        0  174.714 -3.02744  37.4397  49.9482  326.306  1.48733     0.05 -704.481
04:15  05-06-20 -----H-- 0.00308662  5.24857        0        0   175.01  -2.7308  37.5936  49.7658  325.519  1.48005     0.05 -704.851
04:30  05-06-20 -----H-- -0.0170778  5.22278        0        0   175.01    -2.99  37.6706  50.1723  324.994  1.47884     0.05 -704.851
04:45  05-06-20 -----H-- -0.00471866  5.58257        0        0  174.714 -2.71542  37.7732  49.9482  324.206  1.46308     0.05 -704.851
05:00  05-06-20 -----H-- -0.00715124  4.51464        0        0   175.01 -2.65782  37.9015  49.9178  326.569  1.48369     0.05 -704.851
05:15  05-06-20 -----H-- -0.0183383  3.86341        0        0  175.305 -2.82332  37.9015  50.0747  325.256  1.46793     0.05 -704.851
05:30  05-06-20 -----H-- -0.0145578  3.54408        0        0   175.01 -3.03483  38.0298  49.8266  323.944  1.46429     0.05 -704.481
05:45  05-06-20 -----H-- 0.172875  4.22136        0        0   175.01 -2.93172  38.0298  50.1073  324.206  1.47399     0.05 -704.851
06:00  05-06-20 -----H-- 0.395722  4.81245        0        0  174.714 -2.63482  38.0298  49.7658  325.781  1.46429     0.05 -704.851
06:15  05-06-20 -----H-- 0.632719  5.77648        0        0  175.305 -2.66166  38.0811  50.1723  325.256   1.4655     0.05 -704.851
06:30  05-06-20 -----H-- 0.890673   5.9823        0        0  175.305 -3.00528  38.1067  49.7962  324.731  1.48248     0.05 -704.481
06:45  05-06-20 -----H--  1.51294  7.17681        0        0   175.01 -2.87359   38.158  50.0747  324.469   1.4752     0.05 -704.851
07:00  05-06-20 -----H--  1.25036  6.72039        0        0  174.714 -2.61185   38.158  49.7962  324.731  1.47278     0.05 -704.851
07:15  05-06-20 -----H--  2.30045  8.61826        0        0   175.01  -2.9007  38.1837  50.1073  325.256  1.47884     0.05 -704.481
07:30  05-06-20 -----H--  5.97275  12.8639        0        0   175.01 -2.94725   38.235  49.9482  325.256  1.48248     0.05 -704.851
07:45  05-06-20 -----H--  8.08838  15.6015        0        0    175.6 -3.01636   38.235  50.0097  326.306  1.48854     0.05 -704.851
08:00  05-06-20 -----H--  7.77376  15.2212        0        0  175.305 -2.99778   38.235  49.9482  324.994  1.48612     0.05 -704.851
08:15  05-06-20 -----H--  8.76612  16.6805        0        0   175.01 -2.94725  38.2093   49.857  323.681  1.48854     0.05 -704.481
08:30  05-06-20 -----H--  7.96434  15.6076        0        0   175.01 -2.71158  38.1837  50.1398  326.044  1.48612     0.05 -704.851
08:45  05-06-20 -----H--  10.7245  18.4688        0        0  175.305 -2.81946  38.2093  49.7354  326.569  1.49703     0.05 -704.481
09:00  05-06-20 -----H--  12.5347  20.3235        0        0    175.6 -2.91621   38.235  50.0747  326.306  1.49945     0.05 -704.851
09:15  05-06-20 -----H--  9.97332  17.6112        0        0    175.6 -2.61185  38.1837  49.9482  325.256  1.49945     0.05 -704.851
09:30  05-06-20 -----H--  13.5521  21.6924        0        0   175.01 -3.00528  38.1837  49.9482  323.419  1.50673     0.05 -704.851
09:45  05-06-20 -----H--  12.9426  22.1305        0        0  174.419 -3.00159  36.9779  49.9178  323.681  1.52491     0.05 -705.221
10:00  05-06-20 -----H--  10.0094   19.586        0        0  174.419 -2.63482  37.1575  49.9482  323.419   1.5431     0.05 -704.851
10:15  05-06-20 -----H--   9.3369  18.4855        0        0  174.419 -2.60037  37.3627  49.9786  324.994  1.57341     0.05 -704.851
10:30  05-06-20 -----H--   4.1448  10.9429        0        0   175.01 -3.00528  37.6449  49.9482  326.569  1.60343     0.05 -704.851
10:45  05-06-20 -----H--  3.24397  9.49539        0        0  175.305 -2.59272  37.3371  50.0422  326.569  1.62915     0.05 -704.481
11:00  05-06-20 -----H--  4.88964  11.2169        0        0  174.419 -2.69621  37.0036  49.8266  326.044  1.69066     0.05 -704.851
11:15  05-06-20 -----H--  7.15298  15.1921        0        0   175.01 -3.02374   37.491  50.2374  326.306  1.83939     0.05 -704.851
11:30  05-06-20 -----H--  3.47177  9.22262        0        0  174.714 -2.91233   36.824   49.857  326.306     1.87     0.05 -704.851
11:45  05-06-20 -----H--  1.59303  6.40761        0        0  174.714 -2.91233  37.2601  50.0422  324.731  1.46187     0.05 -704.851
12:00  05-06-20 -----H--  1.57415  6.48615        0        0  174.714 -2.61568   36.901  49.8874  324.994     1.87     0.05 -704.851
12:15  05-06-20 -----H--  2.60466  6.95349        0        0  174.124 -2.83877   36.234  50.1073  324.206  1.48369     0.05 -704.851
12:30  05-06-20 -----H--  1.50197  5.53481        0        0  173.239  -2.6195  35.7978  49.9178  323.419  1.58796     0.05 -704.851
12:45  05-06-20 -----H-- 0.866967  4.33894        0        0  173.239 -2.60037  35.5413  50.2374  324.994  1.57947     0.05 -704.851
13:00  05-06-20 -----H-- 0.628204  4.07064        0        0  173.239 -2.60037  35.3617  49.8266  326.569  1.56977     0.05 -704.851
13:15  05-06-20 -----H-- 0.659271  4.53031        0        0  173.239 -3.04592  35.2335  50.2699  323.944  1.55765     0.05 -704.481
13:30  05-06-20 -----H-- 0.656299   3.9008        0        0  172.649 -2.71542  35.1052  49.7962  323.944  1.63362     0.05 -704.851
13:45  05-06-20 -----H-- 0.536825  3.62965        0        0  172.649 -2.79244  35.0539  50.2699  326.044  1.67053     0.05 -704.851
14:00  05-06-20 -----H-- 0.332083  2.90327        0        0  172.649 -2.81174  35.0539  49.7962  323.419  1.75104     0.05 -704.851
14:15  05-06-20 -----H-- 0.784571  3.70986        0        0  172.649 -2.94336  35.1052  50.2049  325.519     1.87     0.05 -704.481
14:30  05-06-20 -----H-- 0.355523  2.52413        0        0  172.944 -3.02374  35.2591  49.7354  326.569  1.61909     0.05 -704.851
14:45  05-06-20 -----H-- 0.333674  2.85285        0        0  172.649 -2.72311   35.413  50.2374  323.681     1.87     0.05 -704.851
15:00  05-06-20 -----H--  0.58738   3.3235        0        0  172.353 -2.85424  35.3617  49.7658  325.519  1.45581     0.05 -704.851
15:15  05-06-20 -----H-- 0.343735  2.75465        0        0  172.944 -3.05332  35.2591  50.2374  326.306  1.52127     0.05 -704.481
15:30  05-06-20 -----H-- 0.449209  2.96688        0        0  172.353 -3.00897  35.1565   49.857  324.206   1.6258     0.05 -704.851
15:45  05-06-20 -----H-- 0.308457  2.78226        0        0  172.649  -2.5889  35.0539  49.9786  325.519   1.6627     0.05 -704.851
16:00  05-06-20 -----H--  0.49554  3.04862        0        0  172.353 -2.61185  34.9546  50.2374  325.256  1.37821     0.05 -704.851
16:15  05-06-20 -----H-- 0.405314  2.72958        0        0  172.649 -2.73465  35.0282  49.8266  325.519  1.40731     0.05 -704.851
16:30  05-06-20 -----H-- 0.563058  3.37151        0        0  172.353 -2.92784  35.1052  50.2374  323.681  1.44126     0.05 -704.851
16:45  05-06-20 -----H-- 0.225639  2.48917        0        0  172.058 -2.57361  35.2078  49.8266  324.469  1.50673     0.05 -704.851
17:00  05-06-20 -----H-- 0.366918  3.36145        0        0  172.944 -2.57743  35.2848  50.2374  326.306  1.55643     0.05 -704.851
17:15  05-06-20 -----H-- 0.642684  2.90696        0        0  172.058  -2.7539  34.7159  49.7354  323.944  1.57947     0.05 -704.851
17:30  05-06-20 -----H-- 0.173574    2.595        0        0  172.353  -2.7308  35.3361  50.2699  325.781  1.67276     0.05 -704.851
17:45  05-06-20 -----H-- 0.791479  4.48555        0        0  172.649 -2.74235  35.2335  49.7658  326.044   1.4255     0.05 -704.851
18:00  05-06-20 -----H-- 0.338999  3.51097        0        0  172.353 -2.68468  35.1821  50.2049  324.206  1.54674     0.05 -704.851
18:15  05-06-20 -----H-- 0.307851  3.70603        0        0  172.944  -2.6042  35.5413  49.8266  326.569  1.35958     0.05 -704.851
18:30  05-06-20 -----H-- 0.100089  3.91497        0        0  172.649    -2.99  35.6696  50.1723  323.681  1.34617     0.05 -704.851
18:45  05-06-20 -----H-- 0.109775  4.40079        0        0  172.353 -3.06813  35.4643  49.9786  324.731  1.35511     0.05 -704.851
19:00  05-06-20 -----H-- 0.172532  6.34375        0        0  173.239 -3.01636  35.6439  50.1073  326.569  1.37821     0.05 -704.851
19:15  05-06-20 -----H--  1.57411  9.55954        0        0  172.353 -2.69621   35.567  49.7962  323.681  1.40367     0.05 -704.851
19:30  05-06-20 -----H--  4.93639  15.5092        0        0  172.353 -2.75005  35.2335  50.2374  325.781  1.41458     0.05 -704.851
19:45  05-06-20 -----H--  17.6209  28.7427        0        0  172.353 -2.75775  35.7209  49.8266  323.944  1.47278     0.05 -704.851
20:00  05-06-20 -----H--  20.3771  31.4065        0        0  172.944 -2.88133  35.2848  50.0747  325.781  1.51764     0.05 -704.851
20:15  05-06-20 -----H--   12.743  23.3791        0        0  172.944 -3.03853  35.7209  50.0422  323.681  1.53097     0.05 -704.481
20:30  05-06-20 -----H--  14.5976  25.7096        0        0  173.239 -3.02744  36.1827  49.7354  326.306  1.62915     0.05 -704.851
20:45  05-06-20 -----H--  14.6927  25.9133        0        0  173.534 -3.02374  36.6188  50.2049  323.681  1.33574     0.05 -704.851
21:00  05-06-20 -----H--  13.5521  24.0183        0        0  173.534 -3.02005  37.0036  49.9786  323.419     1.87     0.05 -704.851
21:15  05-06-20 -----H--  13.2637  23.6501        0        0  174.124 -3.01636  37.3884  49.7962  326.569  1.34617     0.05 -704.851
21:30  05-06-20 -----H--  12.1842  22.0575        0        0  174.124 -2.99389  37.6193  50.1723  323.681  1.28508     0.05 -704.851
21:45  05-06-20 -----H--  9.98629  19.4912        0        0  174.124    -2.99  37.8758  49.7658  324.994  1.32084     0.05 -704.481
22:00  05-06-20 -----H--  9.65229  19.2221        0        0  174.419  -2.7308  38.0811  50.1398  323.944  1.45096     0.05 -704.481
22:15  05-06-20 -----H--  6.85058  16.6266        0        0  173.829 -2.77316  37.3371  49.9178  326.306  1.28955     0.05 -704.851
22:30  05-06-20 -----H--  10.3149  20.2399        0        0  174.124 -2.63482  37.4654   49.857  325.781  1.35064     0.05 -704.851
22:45  05-06-20 -----H--  11.1882  21.0561        0        0  174.124 -2.69237  37.6963  50.0422  323.681   1.2061     0.05 -704.851
23:00  05-06-20 -----H--  10.7693  20.6586        0        0  174.124 -2.83104  37.9015  49.7658  324.206  1.20163     0.05 -704.851
23:15  05-06-20 -----H--  7.94779     17.6        0        0  174.419 -2.70389  38.1067  50.1723  326.306  1.22547     0.05 -704.851
23:30  05-06-20 -----H--  5.19526  14.4399        0        0  174.124 -2.61568  37.2858   49.857  324.731  1.29551     0.05 -704.851
23:45  05-06-20 -----H--  3.37923  11.8266        0        0  173.829 -3.00897  37.4397  50.0747  325.256     1.87     0.05 -704.851
00:00  05-07-20 -----H--  4.18738  12.8525        0        0  174.419  -2.9007  37.6193  49.9786  326.569  1.21653     0.05 -704.851
00:15  05-07-20 -----H--  4.21754  12.6243        0        0  174.419 -2.58125  37.8245  49.8874  324.994  1.41216     0.05 -704.851
00:30  05-07-20 -----H--  2.65254  10.5879        0        0  174.714 -2.80401  38.0041  50.0747  324.206  1.21057     0.05 -704.481
00:45  05-07-20 -----H--  1.71754   9.2713        0        0  174.714 -2.65782  38.0298  49.8266  324.469  1.22696     0.05 -704.851
01:00  05-07-20 -----H--  1.36479  8.81852        0        0  173.829 -2.80015  37.3627  50.1073  323.681  1.16438     0.05 -704.851
01:15  05-07-20 -----H--  1.29864  8.54915        0        0  173.534 -2.58125  37.2345  49.7658  325.519  1.13309     0.05 -704.851
01:30  05-07-20 -----H--  1.77254  9.05174        0        0  174.124 -2.89295  37.4141  50.2049  326.306  1.12713     0.05 -704.481
01:45  05-07-20 -----H--  1.15647  7.44986        0        0  174.124 -2.97056  37.5936   49.857  325.256  1.10776     0.05 -704.481
02:00  05-07-20 -----H-- 0.540387  5.56994        0        0  173.829 -3.03114  37.7732  50.1723  323.419  1.09882     0.05 -704.851
02:15  05-07-20 -----H-- 0.380572  5.11236        0        0  173.829 -2.58507  37.8502   49.857  324.731  1.11372     0.05 -704.481
02:30  05-07-20 -----H-- 0.340494  5.31072        0        0  174.124 -2.94725  37.9785  50.1398  326.044   1.1614     0.05 -704.851
02:45  05-07-20 -----H-- 0.334186  5.50465        0        0  174.124 -2.96667  38.0298  49.8266  324.206  1.21057     0.05 -704.851
03:00  05-07-20 -----H-- 0.316256  4.97567        0        0  174.714 -2.62716  38.1837  50.1073  326.569  1.27018     0.05 -704.851
03:15  05-07-20 -----H-- 0.124121  4.05256        0        0  174.714 -2.89682  38.2093  49.9482  325.256  1.49339     0.05 -704.851
03:30  05-07-20 -----H-- 0.120872  3.80754        0        0  174.124 -2.84264  38.3633  49.9178  324.731 0.987927     0.05 -704.851
03:45  05-07-20 -----H-- 0.0765143  3.46089        0        0  174.714 -2.60802  38.3889  50.0097  326.569 0.971493     0.05 -704.851
04:00  05-07-20 -----H-- 0.0472171  3.26253        0        0  173.829 -3.03853  37.4141   49.857  325.781  0.98957     0.05 -704.481
04:15  05-07-20 -----H-- 0.0480396  3.32907        0        0  173.534 -2.87359  37.4141  50.1398  323.681  1.03723     0.05 -704.851
04:30  05-07-20 -----H-- -0.00363618  2.82914        0        0  173.829  -2.9356  37.5423  49.7658  326.569 0.925477     0.05 -704.851
04:45  05-07-20 -----H-- 0.0217672  2.63038        0        0  174.124 -2.59654  37.6706  50.1398  323.944 0.867957     0.05 -704.851
05:00  05-07-20 -------- 0.0190314  3.04807        0        0  173.534 -2.69237  37.7732  49.7658  323.419 0.866314     0.05 -704.851
05:15  05-07-20 -------- -0.00388587  3.09848        0        0  173.829 -2.78473  37.9015  50.0747  323.944 0.846593     0.05 -704.481
05:30  05-07-20 -------- 0.00447132  3.33563        0        0  173.829 -2.66166  37.9785  49.8266  323.944 0.836732     0.05 -704.851
05:45  05-07-20 -------- 0.137495   3.9467        0        0  174.124 -2.68852  38.0298  50.1073  325.519 0.825228     0.05 -704.851
06:00  05-07-20 -------- 0.235143  4.65962        0        0  174.419 -3.00528  38.1324  49.7658  326.306 0.825228     0.05 -704.851
06:15  05-07-20 -------- 0.506979  5.07808        0        0  174.419 -3.00159  38.1324  50.1073  326.569 0.803864     0.05 -704.851
06:30  05-07-20 --------  1.72698  7.93446        0        0  174.419 -3.04592   38.235   49.857  326.044 0.782499     0.05 -704.481
06:45  05-07-20 --------  1.23671  7.09354        0        0  174.419 -2.70005   38.235  50.0422  326.306 0.769352     0.05 -704.851
07:00  05-07-20 --------  3.29206  9.96824        0        0  174.714 -2.95113  38.2606  50.0097  326.569 0.759491     0.05 -704.481
07:15  05-07-20 --------  5.13182  12.1307        0        0  174.714 -2.71927   38.312  49.9786  325.519 0.756204     0.05 -704.851
07:30  05-07-20 --------  6.95275  14.3017        0        0  174.124 -2.90457  37.2345  50.0097  324.994 0.774282     0.05 -704.481
07:45  05-07-20 --------  12.2079  19.7452        0        0  173.534 -2.60037  37.2345  49.9786  323.944 0.851523     0.05 -704.481
08:00  05-07-20 -----?--  24.0989   32.423        0        0  173.239 -2.93948  37.2601  49.9482  325.519 0.318002     0.05 -704.481
08:15  05-07-20 -----L--  35.9531  45.3663        0        0  173.829 -2.62333  37.3627  50.1073  326.306 0.212225     0.05 -704.481
08:30  05-07-20 -----L--  31.3397   40.113        0        0  173.829 -2.65782  37.4141  49.8266  326.044        0     0.05 -704.851
08:45  05-07-20 -----?--  33.9669  42.9665        0        0  173.534 -2.92784  37.5423  49.9786  323.156     1.87     0.05 -704.851
09:00  05-07-20 -----H--  30.6675  39.8111        0        0  173.534  -2.9007  37.5936   49.857  324.469   1.2821     0.05 -704.851
09:15  05-07-20 -----H--  30.4124  40.1685        0        0  174.124 -2.80401  37.6706  50.0747  326.306   1.2359     0.05 -704.851
09:30  05-07-20 -----H--  22.6153  33.0691        0        0  174.124 -2.86198  37.7732  49.8266  324.469  1.02408     0.05 -704.851
09:45  05-07-20 -----H--  23.3435  34.5029        0        0  173.829 -2.66166  37.8502  50.1723  323.681 0.879461     0.05 -704.851
10:00  05-07-20 -----?--  13.7118  24.0054        0        0  173.829 -2.62716  37.9271  49.7658  323.944  1.36852     0.05 -704.851
10:15  05-07-20 -----H--  9.33818   18.318        0        0  173.829 -3.00897  38.0811  50.1723  325.781  1.35213     0.05 -704.851
10:30  05-07-20 -----H--  6.38334  14.1769        0        0  173.829  -2.5889  37.3627   49.857  323.944  1.27763     0.05 -704.851
10:45  05-07-20 -----H--  7.07323   15.577        0        0  173.239 -2.57361  36.4905  49.8874  325.781 0.856453     0.05 -704.851
11:00  05-07-20 -----?--  6.58609  14.7094        0        0  172.944 -2.83491  35.9005  50.1723  324.469  1.44247     0.05 -704.851
11:15  05-07-20 -----H--  4.21052  11.2026        0        0  172.058 -2.68852   35.567  49.7354  323.419  1.49339     0.05 -704.851
11:30  05-07-20 -----H--  5.20835  13.2961        0        0  172.353 -2.59272  35.4643  50.1073  323.681  1.53097     0.05 -704.851
11:45  05-07-20 -----H--  5.03469  13.5621        0        0  172.353 -2.97444  35.8492  50.0422  323.944  1.62132     0.05 -704.481
12:00  05-07-20 -----H--  5.33872  14.3516        0        0  172.353 -2.62716  35.8235  49.9178  324.206  1.85169     0.05 -704.481
12:15  05-07-20 -----H--  5.97148  15.4389        0        0  172.353 -2.76931  35.7465  50.1398  324.731  1.45338     0.05 -704.851
12:30  05-07-20 -----H--  5.01993  14.7159        0        0  172.649 -3.02744  35.7209  49.7962  326.569  1.68059     0.05 -704.851
12:45  05-07-20 -----H--  2.94357  10.4855        0        0  172.649 -3.04592  35.7465  50.2049  326.569   1.3715     0.05 -704.851
13:00  05-07-20 -----H--   3.2827  11.4703        0        0  172.353 -3.04223  35.7978  49.7658  325.256  1.35958     0.05 -704.851
13:15  05-07-20 -----H--  2.17283  10.3057        0        0  172.649 -2.62716  35.7722  50.1723  324.731  1.39034     0.05 -704.851
13:30  05-07-20 -----H--  1.41373  8.51983        0        0  172.353 -2.61185  35.8235  49.7658  325.256  1.39519     0.05 -704.851
13:45  05-07-20 -----H--  1.31755   7.8584        0        0  172.058 -2.82718  35.8235  50.2049  323.681  1.39519     0.05 -704.481
14:00  05-07-20 -----H--   1.7148   7.2621        0        0  171.763  -2.9356  35.6696  49.7354  324.994   1.4255     0.05 -704.851
14:15  05-07-20 -----H--  1.52272  6.83289        0        0  172.353 -3.04592  35.6439  50.2699  326.306  1.45823     0.05 -704.481
14:30  05-07-20 -----H-- 0.432654  4.24304        0        0  171.468 -3.04592  35.6439   49.857  323.156  1.52855     0.05 -704.481
14:45  05-07-20 -----H--  0.35242  3.84994        0        0  172.058 -2.86198  35.5413  50.0422  323.419  1.77229     0.05 -704.851
15:00  05-07-20 -----H--  0.28588   3.1741        0        0  171.763 -2.83877  35.5926   49.857  323.944   1.4255     0.05 -704.851
15:15  05-07-20 -----H-- 0.533096  3.65164        0        0  171.763 -2.62716  35.4643  50.1398  324.206  1.41337     0.05 -704.851
15:30  05-07-20 -----H-- 0.583901  3.75336        0        0  171.468 -2.94725   35.413  49.7658  325.256  1.40004     0.05 -704.481
15:45  05-07-20 -----H-- 0.760071  4.86962        0        0  171.763 -2.67317   35.413  50.2049  326.306  1.40852     0.05 -704.851
16:00  05-07-20 -----H--  1.31985  5.89223        0        0  172.058 -2.80788  35.3874  49.7658  326.569  1.42307     0.05 -704.851
16:15  05-07-20 -----H-- 0.987261  5.22898        0        0  172.058 -3.03853   35.413  50.1398  323.944  1.41458     0.05 -704.481
16:30  05-07-20 -----H--  0.25099  3.17436        0        0  171.468 -2.77701  35.4387  49.7962  323.944  1.42792     0.05 -704.851
16:45  05-07-20 -----H-- 0.365239   3.4342        0        0  171.763 -2.57743   35.413  50.1723  324.206  1.42792     0.05 -704.851
17:00  05-07-20 -----H-- 0.170116  3.39629        0        0  172.058 -2.64632   35.413  49.9482  326.569  1.44611     0.05 -704.851
17:15  05-07-20 -----H--  1.00434  7.06812        0        0  171.763 -3.05332  35.3617  50.0097  324.731  1.47157     0.05 -704.481
