FH 62 C14  V1.06    Thermo ESM Andersen 
FH 62 C14  V1.06    Thermo ESM Andersen 
20-04-13  18:08:17 000000     0    -0   997    21    14    12    17
FH 62 C14  V1.06    Thermo ESM Andersen 
20-04-13  18:09:01 000000     1     8  1002    21    14    12    17
20-04-13  18:09:19 000000     1     4   999    21    14    12    17
20-04-13  18:09:24 000000     1     4  1001    21    14    12    17
20-04-13  18:10:00 000000     5     5   999    21    14    12    17
20-04-13  18:11:00 000000    19     1   997    21    14    12    17
20-04-13  18:00 000000     1    21
20-04-13  17:30 000000     1     6
20-04-13  17:00 000000     1    10
20-04-13  16:30 000000     1     9
20-04-13  16:00 000000     1    11
20-04-13  15:30 000000     1    13
20-04-13  15:00 000000     1    16
20-04-13  14:30 000000     1    12
20-04-13  14:00 000000     1     7
20-04-13  13:30 000000     1    12
20-04-13  13:00 000000     1    23
20-04-13  12:30 000000     1    27
20-04-13  12:00 000000     1    28
20-04-13  11:30 000000     1    31
20-04-13  11:00 000000     1    22
20-04-13  10:30 000000     1    30
20-04-13  10:00 000000     1    20
20-04-13  09:30 000000     1    11
20-04-13  09:00 000000     1     7
20-04-13  08:30 000000     1     3
20-04-13  08:00 000000     1     3
20-04-13  07:30 000000     1     5
20-04-13  07:00 000000     1    -4
20-04-13  06:30 000000     1    -6
20-04-13  06:00 000000     1    13
20-04-13  05:30 000000     1     7
20-04-13  05:00 000000     1     8
20-04-13  04:30 000000     1    12
20-04-13  04:00 000000     1    10
20-04-13  03:30 000000     1     3
20-04-13  03:00 000000     1     6
20-04-13  02:30 000000     1    20
20-04-13  02:00 000000     1    20
20-04-13  01:30 000000     1    33
20-04-13  01:00 000000     1    49
20-04-13  00:30 00004F     1    34
20-04-13  00:00 000000     1    18
20-04-12  23:30 000000     1    16
20-04-12  23:00 000000     1     6
20-04-12  22:30 000000     1    18
20-04-12  22:00 000000     1    21
20-04-12  21:30 000000     1    19
20-04-12  21:00 000000     1    26
20-04-12  20:30 000000     1    26
20-04-12  20:00 000000     1    26
20-04-12  19:30 000000     1    18
20-04-12  19:00 000000     1    24
20-04-12  18:30 000000     1    22
20-04-12  18:00 000000     1    19
20-04-12  17:30 000000     1    12
20-04-13  18:00 000000     1    21
20-04-13  17:30 000000     1     6
20-04-13  17:00 000000     1    10
20-04-13  16:30 000000     1     9
20-04-13  16:00 000000     1    11
20-04-13  15:30 000000     1    13
20-04-13  15:00 000000     1    16
20-04-13  14:30 000000     1    12
20-04-13  14:00 000000     1     7
20-04-13  13:30 000000     1    12
20-04-13  13:00 000000     1    23
20-04-13  12:30 000000     1    27
20-04-13  12:00 000000     1    28
20-04-13  11:30 000000     1    31
20-04-13  11:00 000000     1    22
20-04-13  10:30 000000     1    30
20-04-13  10:00 000000     1    20
20-04-13  09:30 000000     1    11
20-04-13  09:00 000000     1     7
20-04-13  08:30 000000     1     3
20-04-13  08:00 000000     1     3
20-04-13  07:30 000000     1     5
20-04-13  07:00 000000     1    -4
20-04-13  06:30 000000     1    -6
20-04-13  06:00 000000     1    13
20-04-13  05:30 000000     1     7
20-04-13  05:00 000000     1     8
20-04-13  04:30 000000     1    12
20-04-13  04:00 000000     1    10
20-04-13  03:30 000000     1     3
20-04-13  03:00 000000     1     6
20-04-13  02:30 000000     1    20
20-04-13  02:00 000000     1    20
20-04-13  01:30 000000     1    33
20-04-13  01:00 000000     1    49
20-04-13  00:30 00004F     1    34
20-04-13  00:00 000000     1    18
20-04-12  23:30 000000     1    16
20-04-12  23:00 000000     1     6
20-04-12  22:30 000000     1    18
20-04-12  22:00 000000     1    21
20-04-12  21:30 000000     1    19
20-04-12  21:00 000000     1    26
20-04-12  20:30 000000     1    26
20-04-12  20:00 000000     1    26
20-04-12  19:30 000000     1    18
20-04-12  19:00 000000     1    24
20-04-12  18:30 000000     1    22
20-04-12  18:00 000000     1    19
20-04-12  17:30 000000     1    12
20-04-12  17:00 000000     1    20
20-04-12  16:30 000000     1    17
20-04-12  16:00 000000     1    28
20-04-12  15:30 000000     1    27
20-04-12  15:00 000000     1    32
20-04-12  14:30 000000     1    37
20-04-12  14:00 000000     1    24
20-04-12  13:30 000000     1    21
20-04-12  13:00 000000     1    15
20-04-12  12:30 000000     1     7
20-04-12  12:00 000000     1     4
20-04-12  11:30 000000     1    16
20-04-12  11:00 000000     1     6
20-04-12  10:30 000000     1     8
20-04-12  10:00 000000     1     8
20-04-12  09:30 000000     1     8
20-04-12  09:00 000000     1     5
20-04-12  08:30 000000     1     9
20-04-12  08:00 000000     1    12
20-04-12  07:30 000000     1    23
20-04-12  07:00 000000     1     9
20-04-12  06:30 000000     1     7
20-04-12  06:00 000000     1    13
20-04-12  05:30 000000     1     9
20-04-12  05:00 000000     1    13
20-04-12  04:30 000000     1     9
20-04-12  04:00 000000     1     9
20-04-12  03:30 000000     1    14
20-04-12  03:00 000000     1    13
20-04-12  02:30 000000     1    18
20-04-12  02:00 000000     1    18
20-04-12  01:30 000000     1    22
20-04-12  01:00 000000     1    25
20-04-12  00:30 00004F     1    26
20-04-12  00:00 000000     1    29
20-04-11  23:30 000000     1    43
20-04-11  23:00 000000     1    48
20-04-11  22:30 000000     1    55
20-04-11  22:00 000000     1    75
20-04-11  21:30 000000     1    77
20-04-11  21:00 000000     1    60
20-04-11  20:30 000000     1    51
20-04-11  20:00 000000     1    43
20-04-11  19:30 000000     1    38
20-04-11  19:00 000000     1    33
20-04-11  18:30 000000     1    40
20-04-11  18:00 000000     1    34
20-04-11  17:30 000000     1    39
20-04-11  17:00 000000     1    35
20-04-11  16:30 000000     1    39
20-04-11  16:00 000000     1    33
20-04-11  15:30 000000     1    30
20-04-11  15:00 000000     1    29
20-04-11  14:30 000000     1    34
20-04-11  14:00 000000     1    33
20-04-11  13:30 000000     1    29
20-04-11  13:00 000000     1    29
20-04-11  12:30 000000     1    29
20-04-11  12:00 000000     1    29
20-04-11  11:30 000000     1    35
20-04-11  11:00 000000     1    28
20-04-11  10:30 000000     1    14
20-04-11  10:00 000000     1     5
20-04-11  09:30 000000     1    18
20-04-11  09:00 000000     1    25
20-04-11  08:30 000000     1    31
20-04-11  08:00 000000     1    25
20-04-11  07:30 000000     1    19
20-04-11  07:00 000000     1    26
20-04-11  06:30 000000     1    26
20-04-11  06:00 000000     1    12
20-04-11  05:30 000000     1    24
20-04-11  05:00 000000     1    15
20-04-11  04:30 000000     1    14
20-04-11  04:00 000000     1    19
20-04-11  03:30 000000     1    17
20-04-11  03:00 000000     1    27
20-04-11  02:30 000000     1    35
20-04-11  02:00 000000     1    31
20-04-11  01:30 000000     1    26
20-04-11  01:00 000000     1    29
20-04-11  00:30 00004F     1    26
20-04-11  00:00 000000     1    53
20-04-10  23:30 000000     1    54
20-04-10  23:00 000000     1    59
20-04-10  22:30 000000     1    56
20-04-10  22:00 000000     1    55
20-04-10  21:30 000000     1    37
20-04-10  21:00 000000     1    53
20-04-10  20:30 000000     1    61
20-04-10  20:00 000000     1    41
20-04-10  19:30 000000     1    35
20-04-10  19:00 000000     1    29
20-04-10  18:30 000000     1    26
20-04-10  18:00 000000     1    22
20-04-10  17:30 000000     1    26
20-04-10  17:00 000000     1    20
20-04-10  16:30 000000     1    27
20-04-10  16:00 000000     1    28
20-04-10  15:30 000000     1    30
20-04-10  15:00 000000     1    27
20-04-10  14:30 000000     1    27
20-04-10  14:00 000000     1    39
20-04-10  13:30 000000     1    24
20-04-10  13:00 000000     1    28
20-04-10  12:30 000000     1    27
20-04-10  12:00 000000     1    25
20-04-10  11:30 000000     1    33
20-04-10  11:00 000000     1    27
20-04-10  10:30 000000     1    19
20-04-10  10:00 000000     1     4
20-04-10  09:30 000000     1     4
20-04-10  09:00 000000     1    25
20-04-10  08:30 000000     1    25
20-04-10  08:00 000000     1    25
20-04-10  07:30 000000     1    24
20-04-10  07:00 000000     1    22
20-04-10  06:30 000000     1    25
20-04-10  06:00 000000     1    22
20-04-10  05:30 000000     1    28
20-04-10  05:00 000000     1    24
20-04-10  04:30 000000     1    27
20-04-10  04:00 000000     1    32
20-04-10  03:30 000000     1    38
20-04-10  03:00 000000     1    46
20-04-10  02:30 000000     1    41
20-04-10  02:00 000000     1    46
20-04-10  01:30 000000     1    58
20-04-10  01:00 000000     1    53
20-04-10  00:30 00004F     1    51
20-04-10  00:00 000000     1    57
20-04-09  23:30 000000     1    52
20-04-09  23:00 000000     1    47
20-04-09  22:30 000000     1    44
20-04-09  22:00 000000     1    39
20-04-09  21:30 000000     1    39
20-04-09  21:00 000000     1    51
20-04-09  20:30 000000     1    59
20-04-09  20:00 000000     1    56
20-04-09  19:30 000000     1    48
20-04-09  19:00 000000     1    43
20-04-09  18:30 000000     1    46
20-04-09  18:00 000000     1    41
20-04-09  17:30 000000     1    40
20-04-09  17:00 000000     1    42
20-04-09  16:30 000000     1    50
20-04-09  16:00 000000     1    38
20-04-09  15:30 000000     1    36
20-04-09  15:00 000000     1    43
20-04-09  14:30 000000     1    43
20-04-09  14:00 000000     1    44
20-04-09  13:30 000000     1    41
20-04-09  13:00 000000     1    30
20-04-09  12:30 000000     1    45
20-04-09  12:00 000000     1    51
20-04-09  11:30 000000     1    39
20-04-09  11:00 000000     1    37
20-04-09  10:30 000000     1    18
20-04-09  10:00 000000     1    21
20-04-09  09:30 000000     1    30
20-04-09  09:00 000000     1    45
20-04-09  08:30 000000     1    44
20-04-09  08:00 000000     1    28
20-04-09  07:30 000000     1    35
