		Temp	Hi	Low	Out	Dew	Wind	Wind	Wind	Hi	Hi	Wind	Heat	THW	THSW			Rain	Solar	Solar	Hi Solar	UV 	UV 	Hi 	Heat	Cool	In 	In	In 	In 	In 	In Air	Temp		Wind	Wind	ISS 	Arc.
Date	Time	Out	Temp	Temp	Hum	Pt.	Speed	Dir	Run	Speed	Dir	Chill	Index	Index	Index	Bar  	Rain	Rate	Rad.	Energy	Rad. 	Index	Dose	UV 	D-D 	D-D 	Temp	Hum	Dew	Heat	EMC	Density	2nd	ET 	Samp	Tx 	Recept	Int.
05/05/20	0:30	16.2	16.3	16.1	71	11.0	0.0	---	0.00	0.0	---	16.2	15.9	15.9	---	1008.5	0.00	0.0	---	---	---	---	---	---	0.044	0.000	22.3	47	10.5	21.7	8.75	1.1747	---	0.00	702	1	100.0	30
05/05/20	1:00	16.1	16.1	16.0	71	10.8	0.0	NNE	0.00	0.9	NNE	16.1	15.7	15.7	---	1009.5	0.00	0.0	---	---	---	---	---	---	0.047	0.000	22.3	52	11.9	21.9	9.61	1.1746	---	0.00	702	1	100.0	30
05/05/20	1:30	15.9	16.1	15.9	70	10.5	0.0	N	0.00	0.4	N	15.9	15.6	15.6	---	1009.9	0.00	0.0	---	---	---	---	---	---	0.050	0.000	22.2	51	11.6	21.8	9.41	1.1756	---	0.00	703	1	100.0	30
05/05/20	2:00	16.0	16.1	15.9	69	10.3	0.0	N	0.00	0.9	N	16.0	15.6	15.6	---	1010.0	0.00	0.0	---	---	---	---	---	---	0.049	0.000	22.3	46	10.1	21.7	8.61	1.1767	---	0.00	702	1	100.0	30
05/05/20	2:30	16.2	16.3	16.0	68	10.3	0.0	NNE	0.00	1.8	SW	16.2	15.7	15.7	---	1010.2	0.00	0.0	---	---	---	---	---	---	0.045	0.000	22.3	51	11.7	21.8	9.41	1.1757	---	0.00	702	1	100.0	30
05/05/20	3:00	16.2	16.3	16.1	68	10.3	0.0	SSW	0.00	1.3	SSW	16.2	15.8	15.8	---	1010.5	0.00	0.0	---	---	---	---	---	---	0.044	0.000	22.1	53	12.1	21.7	9.78	1.1763	---	0.00	703	1	100.0	30
05/05/20	3:30	16.1	16.2	15.9	68	10.1	0.0	SSW	0.00	1.8	SSW	16.1	15.6	15.6	---	1010.9	0.00	0.0	---	---	---	---	---	---	0.047	0.000	22.1	46	9.9	21.3	8.61	1.1789	---	0.00	702	1	100.0	30
05/05/20	4:00	15.8	16.0	15.7	62	8.6	1.8	SSE	3.22	9.8	E	15.8	15.1	15.1	---	1013.2	0.00	0.0	---	---	---	---	---	---	0.052	0.000	22.3	49	11.0	21.7	9.05	1.1798	---	0.00	703	1	100.0	30
05/05/20	4:30	14.9	15.8	14.4	62	7.7	2.7	S	4.83	8.9	SSE	14.6	14.2	13.8	---	1015.1	0.00	0.0	---	---	---	---	---	---	0.072	0.000	22.3	47	10.4	21.6	8.75	1.1828	---	0.00	702	1	100.0	30
05/05/20	5:00	14.2	14.4	14.0	60	6.6	1.3	S	2.41	6.3	S	14.2	13.4	13.4	---	1015.9	0.00	0.0	---	---	---	---	---	---	0.086	0.000	22.3	45	9.8	21.6	8.45	1.1843	---	0.00	703	1	100.0	30
05/05/20	5:30	13.7	14.0	13.4	57	5.3	2.2	S	4.02	7.2	SSE	13.3	12.8	12.4	---	1016.8	0.00	0.0	---	---	---	---	---	---	0.097	0.000	22.3	43	9.1	21.5	8.16	1.1857	---	0.00	702	1	100.0	30
05/05/20	6:00	13.2	13.4	13.1	57	4.9	1.3	S	2.41	7.2	SE	13.2	12.4	12.4	---	1017.2	0.00	0.0	---	---	---	---	---	---	0.106	0.000	22.3	40	8.0	21.3	7.71	1.1875	---	0.00	702	1	100.0	30
05/05/20	6:30	12.9	13.1	12.8	56	4.4	0.9	SSE	1.61	4.9	SSW	12.9	12.1	12.1	---	1017.9	0.00	0.0	---	---	---	---	---	---	0.112	0.000	22.3	39	7.7	21.3	7.61	1.1883	---	0.00	703	1	100.0	30
05/05/20	7:00	12.7	12.8	12.7	56	4.2	1.3	S	2.41	5.8	SSW	12.7	11.9	11.9	---	1019.0	0.00	0.0	---	---	---	---	---	---	0.117	0.000	23.2	37	7.7	22.4	7.27	1.1860	---	0.00	702	1	100.0	30
05/05/20	7:30	12.7	12.7	12.6	51	2.8	1.3	S	2.41	5.4	SSW	12.7	11.7	11.7	---	1019.8	0.00	0.0	---	---	---	---	---	---	0.118	0.000	24.1	36	8.1	23.3	7.04	1.1833	---	0.00	703	1	100.0	30
05/05/20	8:00	12.6	12.7	12.5	54	3.5	1.8	S	3.22	6.3	SSW	12.3	11.7	11.4	---	1020.7	0.00	0.0	---	---	---	---	---	---	0.120	0.000	23.6	36	7.7	22.8	7.07	1.1865	---	0.00	702	1	100.0	30
05/05/20	8:30	12.5	12.6	12.4	53	3.2	1.8	S	3.22	5.4	S	12.3	11.6	11.4	---	1021.4	0.00	0.0	---	---	---	---	---	---	0.122	0.000	22.6	37	7.1	21.6	7.30	1.1920	---	0.00	703	1	100.0	30
05/05/20	9:00	12.3	12.4	12.2	50	2.1	1.3	S	2.41	4.9	S	12.3	11.3	11.3	---	1022.0	0.00	0.0	---	---	---	---	---	---	0.126	0.000	22.3	37	6.9	21.3	7.31	1.1938	---	0.00	702	1	100.0	30
05/05/20	9:30	12.1	12.2	12.1	48	1.4	1.8	SSE	3.22	5.4	S	11.8	11.1	10.8	---	1022.6	0.00	0.0	---	---	---	---	---	---	0.130	0.000	22.7	35	6.4	21.7	6.99	1.1935	---	0.00	703	1	100.0	30
05/05/20	10:00	12.1	12.2	12.0	55	3.3	0.9	S	1.61	4.0	S	12.1	11.3	11.3	---	1023.1	0.00	0.0	---	---	---	---	---	---	0.130	0.000	23.7	34	6.9	22.8	6.76	1.1898	---	0.00	702	1	100.0	30
05/05/20	10:30	12.1	12.1	11.9	53	2.8	1.3	S	2.41	4.9	SSE	12.1	11.2	11.2	---	1023.2	0.00	0.0	---	---	---	---	---	---	0.131	0.000	24.0	35	7.6	23.2	6.95	1.1880	---	0.00	702	1	100.0	30
05/05/20	11:00	11.9	12.1	11.9	51	2.1	1.3	S	2.41	4.9	SSE	11.9	11.1	11.1	---	1023.3	0.00	0.0	---	---	---	---	---	---	0.133	0.000	22.7	35	6.4	21.7	6.99	1.1943	---	0.00	703	1	100.0	30
05/05/20	11:30	12.2	12.3	12.1	49	1.8	1.3	SSE	2.41	4.5	S	12.2	11.2	11.2	---	1023.3	0.00	0.0	---	---	---	---	---	---	0.128	0.000	22.3	35	6.1	21.1	7.01	1.1963	---	0.00	702	1	100.0	30
05/05/20	12:00	12.3	12.4	12.2	46	1.0	0.9	S	1.61	3.6	SSE	12.3	11.2	11.2	---	1023.3	0.00	0.0	---	---	---	---	---	---	0.126	0.000	22.2	35	6.0	21.0	7.01	1.1964	---	0.00	703	1	100.0	30
05/05/20	12:30	12.3	12.4	12.2	48	1.6	0.9	S	1.61	3.6	SSE	12.3	11.3	11.3	---	1023.3	0.00	0.0	---	---	---	---	---	---	0.125	0.000	22.2	35	6.0	21.0	7.01	1.1964	---	0.00	702	1	100.0	30
05/05/20	13:00	12.6	12.8	12.4	47	1.6	0.4	S	0.80	3.6	SSE	12.6	11.6	11.6	---	1023.1	0.00	0.0	---	---	---	---	---	---	0.119	0.000	22.3	34	5.7	21.1	6.81	1.1963	---	0.00	703	1	100.0	30
05/05/20	13:30	13.1	13.2	12.7	45	1.4	0.0	SSE	0.00	2.7	SSE	13.1	11.8	11.8	---	1022.9	0.00	0.0	---	---	---	---	---	---	0.110	0.000	22.2	34	5.6	20.9	6.81	1.1965	---	0.00	702	1	100.0	30
05/05/20	14:00	13.1	13.2	12.9	45	1.4	0.4	S	0.80	3.6	S	13.1	11.8	11.8	---	1022.4	0.00	0.0	---	---	---	---	---	---	0.110	0.000	22.2	34	5.6	20.9	6.81	1.1959	---	0.00	702	1	100.0	30
05/05/20	14:30	13.1	13.2	13.0	43	0.8	0.9	S	1.61	3.1	SSE	13.1	11.9	11.9	---	1022.0	0.00	0.0	---	---	---	---	---	---	0.109	0.000	22.2	34	5.6	20.9	6.81	1.1955	---	0.00	703	1	100.0	30
05/05/20	15:00	13.2	13.3	13.1	46	1.8	0.9	SSE	1.61	4.5	S	13.2	12.1	12.1	---	1022.0	0.00	0.0	---	---	---	---	---	---	0.106	0.000	22.2	33	5.1	20.8	6.61	1.1959	---	0.00	702	1	100.0	30
05/05/20	15:30	13.3	13.4	13.2	45	1.6	0.4	SSE	0.80	3.6	SSE	13.3	12.1	12.1	---	1022.1	0.00	0.0	---	---	---	---	---	---	0.105	0.000	22.2	33	5.1	20.8	6.61	1.1960	---	0.00	703	1	100.0	30
05/05/20	16:00	13.4	13.4	13.3	44	1.4	0.4	SSE	0.80	3.6	SSE	13.4	12.2	12.2	---	1022.3	0.00	0.0	---	---	---	---	---	---	0.103	0.000	22.1	33	5.1	20.7	6.61	1.1964	---	0.00	702	1	100.0	30
05/05/20	16:30	13.4	13.7	13.3	41	0.4	0.4	S	0.80	3.1	S	13.4	12.1	12.1	---	1022.3	0.00	0.0	---	---	---	---	---	---	0.102	0.000	22.1	33	5.1	20.7	6.61	1.1964	---	0.00	703	1	100.0	30
05/05/20	17:00	13.4	13.6	13.3	39	-0.3	0.4	S	0.80	4.0	S	13.4	12.1	12.1	---	1022.4	0.00	0.0	---	---	---	---	---	---	0.102	0.000	22.3	34	5.7	21.1	6.81	1.1952	---	0.00	702	1	100.0	30
05/05/20	17:30	13.3	13.4	13.2	41	0.3	0.4	SSE	0.80	3.1	S	13.3	11.9	11.9	---	1022.7	0.00	0.0	---	---	---	---	---	---	0.105	0.000	22.2	37	6.8	21.1	7.31	1.1952	---	0.00	703	1	100.0	30
05/05/20	18:00	13.2	13.3	13.2	42	0.6	0.0	SSE	0.00	0.9	SSE	13.2	11.9	11.9	---	1022.8	0.00	0.0	---	---	---	---	---	---	0.106	0.000	22.1	37	6.7	20.8	7.32	1.1961	---	0.00	702	1	100.0	30
05/05/20	18:30	13.2	13.3	13.1	43	0.8	0.0	S	0.00	2.2	S	13.2	11.9	11.9	---	1023.0	0.00	0.0	---	---	---	---	---	---	0.108	0.000	22.1	35	5.9	20.8	7.02	1.1969	---	0.00	702	1	100.0	30
05/05/20	19:00	13.1	13.2	13.0	44	1.1	0.0	---	0.00	0.0	---	13.1	11.8	11.8	---	1023.2	0.00	0.0	---	---	---	---	---	---	0.110	0.000	22.1	35	5.9	20.8	7.02	1.1972	---	0.00	703	1	100.0	30
05/05/20	19:30	12.8	13.0	12.5	44	0.8	0.0	SSE	0.00	2.7	SSE	12.8	11.6	11.6	---	1023.7	0.00	0.0	---	---	---	---	---	---	0.116	0.000	21.9	35	5.8	20.6	7.02	1.1982	---	0.00	702	1	100.0	30
05/05/20	20:00	12.3	12.5	12.1	47	1.3	0.0	E	0.00	2.2	E	12.3	11.2	11.2	---	1023.8	0.00	0.0	---	---	---	---	---	---	0.126	0.000	21.6	35	5.4	20.1	7.03	1.2003	---	0.00	703	1	100.0	30
05/05/20	20:30	11.8	12.1	11.6	47	0.9	0.0	ENE	0.00	0.9	ENE	11.8	10.8	10.8	---	1024.2	0.00	0.0	---	---	---	---	---	---	0.135	0.000	22.1	34	5.5	20.8	6.81	1.1984	---	0.00	702	1	100.0	30
05/05/20	21:00	11.3	11.6	11.0	48	0.7	0.0	ENE	0.00	0.4	ENE	11.3	10.4	10.4	---	1024.5	0.00	0.0	---	---	---	---	---	---	0.147	0.000	22.9	33	5.8	21.8	6.59	1.1954	---	0.00	703	1	100.0	30
05/05/20	21:30	10.8	11.0	10.6	50	0.8	0.0	---	0.00	0.0	---	10.8	10.0	10.0	---	1024.6	0.00	0.0	---	---	---	---	---	---	0.157	0.000	23.4	32	5.8	22.4	6.47	1.1933	---	0.00	702	1	100.0	30
05/05/20	22:00	10.3	10.6	10.1	53	1.2	0.0	---	0.00	0.0	---	10.3	9.7	9.7	---	1024.7	0.00	0.0	---	---	---	---	---	---	0.167	0.000	23.3	33	6.1	22.3	6.57	1.1938	---	0.00	703	1	100.0	30
05/05/20	22:30	9.8	10.1	9.6	57	1.7	0.0	ENE	0.00	0.4	ENE	9.8	9.3	9.3	---	1025.2	0.00	0.0	---	---	---	---	---	---	0.177	0.000	23.2	32	5.6	22.2	6.47	1.1950	---	0.00	702	1	100.0	30
05/05/20	23:00	9.4	9.6	9.1	59	1.8	0.0	ENE	0.00	0.4	ENE	9.4	8.9	8.9	---	1025.3	0.00	0.0	---	---	---	---	---	---	0.186	0.000	23.7	32	6.0	22.7	6.46	1.1930	---	0.00	702	1	100.0	30
05/05/20	23:30	8.9	9.1	8.8	59	1.4	0.0	---	0.00	0.0	---	8.9	8.5	8.5	---	1025.5	0.00	0.0	---	---	---	---	---	---	0.196	0.000	23.1	32	5.5	22.0	6.48	1.1961	---	0.00	703	1	100.0	30
06/05/20	00:00	8.7	8.8	8.5	60	1.4	0.0	E	0.00	0.4	E	8.7	8.3	8.3	---	1025.5	0.00	0.0	---	---	---	---	---	---	0.200	0.000	23.3	32	5.7	22.3	6.47	1.1951	---	0.00	702	1	100.0	30
06/05/20	0:30	8.3	8.6	8.2	61	1.2	0.0	E	0.00	0.9	E	8.3	7.9	7.9	---	1025.5	0.00	0.0	---	---	---	---	---	---	0.208	0.000	23.6	31	5.5	22.6	6.26	1.1939	---	0.00	702	1	100.0	30
06/05/20	1:00	8.2	8.2	8.1	61	1.1	0.0	---	0.00	0.0	---	8.2	7.7	7.7	---	1025.4	0.00	0.0	---	---	---	---	---	---	0.212	0.000	23.8	31	5.7	22.9	6.25	1.1927	---	0.00	703	1	100.0	30
06/05/20	1:30	8.0	8.1	8.0	60	0.7	0.0	---	0.00	0.0	---	8.0	7.6	7.6	---	1025.4	0.00	0.0	---	---	---	---	---	---	0.215	0.000	23.0	32	5.4	21.9	6.48	1.1963	---	0.00	702	1	100.0	30
06/05/20	2:00	8.0	8.0	7.9	61	0.9	0.0	---	0.00	0.0	---	8.0	7.6	7.6	---	1025.4	0.00	0.0	---	---	---	---	---	---	0.215	0.000	23.3	31	5.2	22.2	6.27	1.1953	---	0.00	703	1	100.0	30
06/05/20	2:30	7.9	7.9	7.9	61	0.8	0.0	---	0.00	0.0	---	7.9	7.4	7.4	---	1025.1	0.00	0.0	---	---	---	---	---	---	0.218	0.000	23.6	31	5.4	22.6	6.26	1.1936	---	0.00	702	1	100.0	30
06/05/20	3:00	7.8	7.9	7.7	62	0.9	0.0	---	0.00	0.0	---	7.8	7.3	7.3	---	1025.1	0.00	0.0	---	---	---	---	---	---	0.220	0.000	23.8	30	5.2	22.8	6.06	1.1929	---	0.00	703	1	100.0	30
06/05/20	3:30	7.6	7.7	7.5	62	0.8	0.0	E	0.00	0.9	E	7.6	7.2	7.2	---	1024.9	0.00	0.0	---	---	---	---	---	---	0.223	0.000	23.1	31	5.0	21.9	6.28	1.1958	---	0.00	702	1	100.0	30
06/05/20	4:00	7.4	7.5	7.3	62	0.6	0.0	ESE	0.00	0.4	ESE	7.4	6.9	6.9	---	1024.9	0.00	0.0	---	---	---	---	---	---	0.228	0.000	23.1	31	5.0	21.9	6.28	1.1957	---	0.00	703	1	100.0	30
06/05/20	4:30	7.1	7.3	6.9	64	0.8	0.0	ESE	0.00	0.4	ESE	7.1	6.7	6.7	---	1024.8	0.00	0.0	---	---	---	---	---	---	0.234	0.000	23.3	30	4.8	22.2	6.09	1.1946	---	0.00	702	1	100.0	30
06/05/20	5:00	6.9	6.9	6.9	65	0.8	0.0	---	0.00	0.0	---	6.9	6.5	6.5	---	1024.8	0.00	0.0	---	---	---	---	---	---	0.238	0.000	23.5	30	4.9	22.4	6.08	1.1939	---	0.00	702	1	100.0	30
06/05/20	5:30	6.8	6.9	6.7	65	0.7	0.0	---	0.00	0.0	---	6.8	6.4	6.4	---	1024.7	0.00	0.0	---	---	---	---	---	---	0.241	0.000	23.6	30	5.0	22.6	6.07	1.1932	---	0.00	703	1	100.0	30
06/05/20	6:00	6.6	6.7	6.5	66	0.7	0.0	ESE	0.00	0.4	ESE	6.6	6.2	6.2	---	1024.8	0.00	0.0	---	---	---	---	---	---	0.244	0.000	23.7	30	5.1	22.7	6.06	1.1929	---	0.00	702	1	100.0	30
06/05/20	6:30	6.5	6.5	6.4	67	0.8	0.0	ESE	0.00	1.8	ESE	6.5	6.2	6.2	---	1025.1	0.00	0.0	---	---	---	---	---	---	0.247	0.000	23.8	30	5.2	22.8	6.05	1.1927	---	0.00	703	1	100.0	30
06/05/20	7:00	6.3	6.4	6.2	68	0.8	0.0	---	0.00	0.0	---	6.3	5.9	5.9	---	1025.3	0.00	0.0	---	---	---	---	---	---	0.251	0.000	23.8	30	5.2	22.8	6.05	1.1930	---	0.00	702	1	100.0	30
06/05/20	7:30	6.1	6.2	6.1	69	0.8	0.0	---	0.00	0.0	---	6.1	5.8	5.8	---	1025.4	0.00	0.0	---	---	---	---	---	---	0.255	0.000	23.9	30	5.3	22.9	6.05	1.1928	---	0.00	703	1	100.0	30
06/05/20	8:00	6.0	6.1	5.9	68	0.5	0.0	ESE	0.00	0.9	ESE	6.0	5.7	5.7	---	1025.7	0.00	0.0	---	---	---	---	---	---	0.257	0.000	23.9	30	5.3	22.9	6.05	1.1932	---	0.00	702	1	100.0	30
06/05/20	8:30	6.0	6.0	5.9	68	0.5	0.0	ESE	0.00	0.4	ESE	6.0	5.7	5.7	---	1026.2	0.00	0.0	---	---	---	---	---	---	0.257	0.000	23.9	29	4.8	22.8	5.85	1.1941	---	0.00	702	1	100.0	30
06/05/20	9:00	6.1	6.5	5.9	67	0.4	0.0	ESE	0.00	0.9	ESE	6.1	5.7	5.7	---	1026.5	0.00	0.0	---	---	---	---	---	---	0.255	0.000	23.9	29	4.8	22.8	5.85	1.1944	---	0.00	703	1	100.0	30
06/05/20	9:30	7.7	9.1	6.5	57	-0.3	0.0	ESE	0.00	0.4	ESE	7.7	7.2	7.2	---	1026.9	0.00	0.0	---	---	---	---	---	---	0.221	0.000	23.9	29	4.8	22.8	5.85	1.1949	---	0.00	702	1	100.0	30
06/05/20	10:00	9.8	10.3	9.1	50	-0.2	0.0	ESE	0.00	1.8	ESE	9.8	9.1	9.1	---	1027.2	0.00	0.0	---	---	---	---	---	---	0.178	0.000	23.1	30	4.6	21.9	6.11	1.1985	---	0.00	703	1	100.0	30
06/05/20	10:30	10.6	10.7	10.3	48	0.0	0.4	NNW	0.80	2.7	NE	10.6	9.8	9.8	---	1027.2	0.00	0.0	---	---	---	---	---	---	0.161	0.000	23.3	29	4.3	22.2	5.89	1.1978	---	0.00	702	1	100.0	30
06/05/20	11:00	11.1	11.2	10.7	48	0.4	0.4	NE	0.80	2.7	NNE	11.1	10.2	10.2	---	1026.9	0.00	0.0	---	---	---	---	---	---	0.152	0.000	23.4	30	4.8	22.3	6.09	1.1969	---	0.00	703	1	100.0	30
06/05/20	11:30	11.4	11.5	11.2	47	0.5	0.4	E	0.80	4.0	N	11.4	10.4	10.4	---	1026.7	0.00	0.0	---	---	---	---	---	---	0.145	0.000	23.6	29	4.5	22.5	5.87	1.1959	---	0.00	702	1	100.0	30
06/05/20	12:00	11.9	12.2	11.5	46	0.6	0.4	NE	0.80	4.0	NE	11.9	10.9	10.9	---	1026.6	0.00	0.0	---	---	---	---	---	---	0.134	0.000	23.6	29	4.5	22.4	5.87	1.1961	---	0.00	702	1	100.0	30
06/05/20	12:30	12.5	12.7	12.2	45	0.9	0.9	NNW	1.61	4.5	N	12.5	11.4	11.4	---	1026.1	0.00	0.0	---	---	---	---	---	---	0.122	0.000	22.6	31	4.6	21.3	6.30	1.1993	---	0.00	703	1	100.0	30
06/05/20	13:00	13.3	13.8	12.7	43	0.9	0.4	N	0.80	4.5	NNE	13.3	12.0	12.0	---	1025.7	0.00	0.0	---	---	---	---	---	---	0.105	0.000	21.9	31	4.0	20.3	6.32	1.2021	---	0.00	702	1	100.0	30
06/05/20	13:30	14.3	14.6	13.9	39	0.5	0.9	NNW	1.61	5.4	NW	14.3	12.8	12.8	---	1025.1	0.00	0.0	---	---	---	---	---	---	0.084	0.000	21.7	31	3.8	20.1	6.33	1.2022	---	0.00	703	1	100.0	30
06/05/20	14:00	15.0	15.3	14.6	35	-0.4	1.3	NW	2.41	4.9	N	15.0	13.3	13.3	---	1024.4	0.00	0.0	---	---	---	---	---	---	0.069	0.000	21.7	31	3.8	20.1	6.33	1.2013	---	0.00	702	1	100.0	30
06/05/20	14:30	15.6	15.8	15.3	35	0.1	1.3	NNW	2.41	4.9	WNW	15.6	13.9	13.9	---	1023.8	0.00	0.0	---	---	---	---	---	---	0.058	0.000	21.7	31	3.8	20.1	6.33	1.2007	---	0.00	703	1	100.0	30
06/05/20	15:00	16.1	16.2	15.7	34	0.2	1.3	NW	2.41	4.9	N	16.1	14.3	14.3	---	1023.2	0.00	0.0	---	---	---	---	---	---	0.047	0.000	21.8	30	3.5	20.2	6.20	1.1997	---	0.00	702	1	100.0	30
06/05/20	15:30	16.4	16.6	16.2	33	0.1	1.3	NW	2.41	4.9	NE	16.4	14.6	14.6	---	1022.6	0.00	0.0	---	---	---	---	---	---	0.039	0.000	21.9	30	3.5	20.3	6.19	1.1988	---	0.00	703	1	100.0	30
06/05/20	16:00	16.6	16.9	16.4	32	-0.2	1.3	WNW	2.41	4.9	N	16.6	14.8	14.8	---	1022.3	0.00	0.0	---	---	---	---	---	---	0.036	0.000	21.9	30	3.6	20.3	6.19	1.1982	---	0.00	702	1	100.0	30
06/05/20	16:30	17.1	17.2	16.9	31	-0.2	0.9	NW	1.61	4.9	NW	17.1	15.2	15.2	---	1022.0	0.00	0.0	---	---	---	---	---	---	0.027	0.000	21.9	33	4.9	20.4	6.62	1.1971	---	0.00	702	1	100.0	30
06/05/20	17:00	17.2	17.3	17.1	32	0.4	0.9	NNW	1.61	3.6	N	17.2	15.4	15.4	---	1021.7	0.00	0.0	---	---	---	---	---	---	0.023	0.000	21.6	33	4.6	20.1	6.63	1.1981	---	0.00	703	1	100.0	30
06/05/20	17:30	17.2	17.3	17.1	32	0.4	0.4	N	0.80	3.6	NNE	17.2	15.4	15.4	---	1021.6	0.00	0.0	---	---	---	---	---	---	0.023	0.000	21.4	32	4.0	19.7	6.54	1.1993	---	0.00	702	1	100.0	30
06/05/20	18:00	16.9	17.2	16.4	34	1.0	0.4	NW	0.80	3.6	WNW	16.9	15.2	15.2	---	1021.4	0.00	0.0	---	---	---	---	---	---	0.029	0.000	21.4	33	4.5	19.8	6.64	1.1985	---	0.00	703	1	100.0	30
06/05/20	18:30	16.1	16.4	15.7	36	1.0	0.4	NNW	0.80	2.7	NNE	16.1	14.4	14.4	---	1021.3	0.00	0.0	---	---	---	---	---	---	0.047	0.000	21.4	32	4.1	19.7	6.54	1.1987	---	0.00	702	1	100.0	30
06/05/20	19:00	15.3	15.7	14.9	37	0.7	0.0	NNE	0.00	0.9	NNE	15.3	13.7	13.7	---	1021.0	0.00	0.0	---	---	---	---	---	---	0.063	0.000	21.5	32	4.1	19.8	6.54	1.1981	---	0.00	703	1	100.0	30
06/05/20	19:30	14.4	14.9	13.8	43	2.0	0.0	---	0.00	0.0	---	14.4	13.1	13.1	---	1020.9	0.00	0.0	---	---	---	---	---	---	0.081	0.000	21.4	33	4.5	19.8	6.64	1.1979	---	0.00	702	1	100.0	30
06/05/20	20:00	13.1	13.8	12.5	48	2.3	0.0	---	0.00	0.0	---	13.1	11.9	11.9	---	1021.0	0.00	0.0	---	---	---	---	---	---	0.110	0.000	21.4	33	4.4	19.7	6.64	1.1982	---	0.00	703	1	100.0	30
06/05/20	20:30	12.2	12.5	11.9	51	2.3	0.0	---	0.00	0.0	---	12.2	11.3	11.3	---	1021.2	0.00	0.0	---	---	---	---	---	---	0.128	0.000	21.5	33	4.5	19.9	6.64	1.1980	---	0.00	702	1	100.0	30
06/05/20	21:00	11.7	11.9	11.4	53	2.4	0.0	---	0.00	0.0	---	11.7	10.8	10.8	---	1021.2	0.00	0.0	---	---	---	---	---	---	0.139	0.000	22.4	32	4.9	21.1	6.50	1.1942	---	0.00	702	1	100.0	30
06/05/20	21:30	11.2	11.4	10.9	53	1.9	0.0	---	0.00	0.0	---	11.2	10.4	10.4	---	1021.4	0.00	0.0	---	---	---	---	---	---	0.149	0.000	23.1	31	5.0	21.9	6.28	1.1916	---	0.00	703	1	100.0	30
06/05/20	22:00	10.8	11.0	10.6	54	1.8	0.0	NNE	0.00	1.3	NNE	10.8	10.1	10.1	---	1021.4	0.00	0.0	---	---	---	---	---	---	0.157	0.000	23.6	31	5.4	22.6	6.26	1.1893	---	0.00	702	1	100.0	30
06/05/20	22:30	10.6	10.7	10.4	56	2.2	0.0	---	0.00	0.0	---	10.6	10.0	10.0	---	1021.4	0.00	0.0	---	---	---	---	---	---	0.161	0.000	23.2	31	5.1	22.1	6.28	1.1911	---	0.00	703	1	100.0	30
06/05/20	23:00	10.2	10.4	10.0	57	2.0	0.0	NNE	0.00	0.4	NNE	10.2	9.7	9.7	---	1021.5	0.00	0.0	---	---	---	---	---	---	0.170	0.000	23.3	31	5.2	22.3	6.27	1.1905	---	0.00	702	1	100.0	30
06/05/20	23:30	9.8	10.0	9.6	57	1.7	0.0	NNE	0.00	0.4	NNE	9.8	9.3	9.3	---	1021.6	0.00	0.0	---	---	---	---	---	---	0.178	0.000	23.4	32	5.8	22.4	6.47	1.1898	---	0.00	703	1	100.0	30
07/05/20	00:00	9.4	9.6	9.2	59	1.8	0.0	---	0.00	0.0	---	9.4	8.9	8.9	---	1021.6	0.00	0.0	---	---	---	---	---	---	0.186	0.000	23.1	31	5.0	21.9	6.28	1.1918	---	0.00	702	1	100.0	30
07/05/20	0:30	9.1	9.2	9.0	59	1.5	0.0	---	0.00	0.0	---	9.1	8.6	8.6	---	1021.4	0.00	0.0	---	---	---	---	---	---	0.193	0.000	23.4	30	4.9	22.3	6.08	1.1902	---	0.00	702	1	100.0	30
07/05/20	1:00	9.0	9.1	8.9	59	1.4	0.0	NNE	0.00	0.4	NNE	9.0	8.6	8.6	---	1021.3	0.00	0.0	---	---	---	---	---	---	0.194	0.000	23.7	31	5.5	22.7	6.26	1.1886	---	0.00	703	1	100.0	30
07/05/20	1:30	8.8	8.9	8.6	60	1.4	0.0	---	0.00	0.0	---	8.8	8.3	8.3	---	1021.1	0.00	0.0	---	---	---	---	---	---	0.199	0.000	22.9	31	4.9	21.7	6.29	1.1920	---	0.00	702	1	100.0	30
07/05/20	2:00	8.5	8.6	8.4	60	1.2	0.0	NNE	0.00	0.9	NNE	8.5	8.1	8.1	---	1021.0	0.00	0.0	---	---	---	---	---	---	0.205	0.000	23.2	30	4.7	22.1	6.10	1.1907	---	0.00	703	1	100.0	30
07/05/20	2:30	8.3	8.4	8.1	62	1.4	0.0	NNE	0.00	0.9	NNE	8.3	7.8	7.8	---	1020.6	0.00	0.0	---	---	---	---	---	---	0.209	0.000	23.6	30	5.0	22.5	6.07	1.1887	---	0.00	702	1	100.0	30
07/05/20	3:00	8.0	8.1	7.9	62	1.2	0.0	---	0.00	0.0	---	8.0	7.6	7.6	---	1020.5	0.00	0.0	---	---	---	---	---	---	0.215	0.000	23.8	30	5.2	22.8	6.06	1.1876	---	0.00	702	1	100.0	30
07/05/20	3:30	7.9	7.9	7.8	62	1.1	0.0	---	0.00	0.0	---	7.9	7.4	7.4	---	1020.1	0.00	0.0	---	---	---	---	---	---	0.218	0.000	23.9	29	4.8	22.8	5.85	1.1869	---	0.00	703	1	100.0	30
07/05/20	4:00	7.8	7.8	7.7	61	0.7	0.0	NNE	0.00	0.4	NNE	7.8	7.3	7.3	---	1019.7	0.00	0.0	---	---	---	---	---	---	0.220	0.000	23.8	30	5.2	22.8	6.06	1.1867	---	0.00	702	1	100.0	30
07/05/20	4:30	7.7	7.7	7.6	60	0.4	0.0	N	0.00	1.8	N	7.7	7.2	7.2	---	1019.5	0.00	0.0	---	---	---	---	---	---	0.222	0.000	23.0	30	4.5	21.8	6.11	1.1900	---	0.00	703	1	100.0	30
07/05/20	5:00	7.7	7.7	7.6	61	0.6	0.0	---	0.00	0.0	---	7.7	7.2	7.2	---	1019.6	0.00	0.0	---	---	---	---	---	---	0.222	0.000	23.3	29	4.2	22.1	5.89	1.1892	---	0.00	702	1	100.0	30
07/05/20	5:30	7.6	7.7	7.6	61	0.6	0.0	---	0.00	0.0	---	7.6	7.2	7.2	---	1019.6	0.00	0.0	---	---	---	---	---	---	0.223	0.000	23.5	29	4.4	22.4	5.88	1.1881	---	0.00	703	1	100.0	30
07/05/20	6:00	7.5	7.6	7.4	61	0.5	0.0	N	0.00	0.4	N	7.5	7.1	7.1	---	1019.4	0.00	0.0	---	---	---	---	---	---	0.226	0.000	23.7	29	4.6	22.6	5.87	1.1872	---	0.00	702	1	100.0	30
07/05/20	6:30	7.4	7.4	7.3	62	0.6	0.0	N	0.00	0.9	N	7.4	6.9	6.9	---	1019.4	0.00	0.0	---	---	---	---	---	---	0.228	0.000	23.8	29	4.7	22.7	5.86	1.1866	---	0.00	702	1	100.0	30
07/05/20	7:00	7.3	7.3	7.2	63	0.7	0.0	---	0.00	0.0	---	7.3	6.9	6.9	---	1019.5	0.00	0.0	---	---	---	---	---	---	0.230	0.000	23.8	29	4.7	22.8	5.85	1.1865	---	0.00	703	1	100.0	30
07/05/20	7:30	7.2	7.2	7.1	64	0.8	0.0	---	0.00	0.0	---	7.2	6.8	6.8	---	1019.6	0.00	0.0	---	---	---	---	---	---	0.233	0.000	23.7	29	4.6	22.7	5.86	1.1871	---	0.00	702	1	100.0	30
07/05/20	8:00	6.8	7.1	6.6	67	1.1	0.0	---	0.00	0.0	---	6.8	6.4	6.4	---	1019.8	0.00	0.0	---	---	---	---	---	---	0.241	0.000	22.8	29	3.9	21.6	5.93	1.1914	---	0.00	703	1	100.0	30
07/05/20	8:30	6.5	6.6	6.4	69	1.2	0.0	---	0.00	0.0	---	6.5	6.2	6.2	---	1020.1	0.00	0.0	---	---	---	---	---	---	0.247	0.000	23.1	29	4.0	21.8	5.91	1.1908	---	0.00	702	1	100.0	30
07/05/20	9:00	6.6	7.0	6.4	67	0.9	0.0	---	0.00	0.0	---	6.6	6.3	6.3	---	1020.3	0.00	0.0	---	---	---	---	---	---	0.244	0.000	23.2	29	4.2	22.1	5.90	1.1902	---	0.00	703	1	100.0	30
07/05/20	9:30	8.0	8.9	7.0	59	0.5	0.0	N	0.00	0.4	N	8.0	7.6	7.6	---	1020.3	0.00	0.0	---	---	---	---	---	---	0.215	0.000	23.3	29	4.3	22.2	5.89	1.1897	---	0.00	702	1	100.0	30
07/05/20	10:00	9.9	11.0	8.9	48	-0.6	0.0	N	0.00	1.8	N	9.9	9.3	9.3	---	1020.4	0.00	0.0	---	---	---	---	---	---	0.175	0.000	23.5	29	4.4	22.4	5.88	1.1890	---	0.00	702	1	100.0	30
07/05/20	10:30	12.0	13.3	11.0	39	-1.5	0.0	N	0.00	1.8	N	12.0	10.8	10.8	---	1020.2	0.00	0.0	---	---	---	---	---	---	0.132	0.000	23.7	29	4.6	22.7	5.86	1.1878	---	0.00	703	1	100.0	30
07/05/20	11:00	13.7	13.9	13.3	37	-0.7	0.0	NNW	0.00	0.4	NNW	13.7	12.2	12.2	---	1020.2	0.00	0.0	---	---	---	---	---	---	0.096	0.000	22.3	30	3.9	20.9	6.16	1.1939	---	0.00	702	1	100.0	30
07/05/20	11:30	14.1	14.4	13.9	36	-0.8	0.0	NE	0.00	1.8	NE	14.1	12.6	12.6	---	1019.9	0.00	0.0	---	---	---	---	---	---	0.088	0.000	21.8	30	3.4	20.1	6.20	1.1961	---	0.00	703	1	100.0	30
07/05/20	12:00	14.8	15.3	14.4	34	-1.0	0.0	NE	0.00	2.2	ENE	14.8	13.1	13.1	---	1019.8	0.00	0.0	---	---	---	---	---	---	0.074	0.000	21.7	30	3.4	20.0	6.21	1.1962	---	0.00	702	1	100.0	30
07/05/20	12:30	15.7	16.1	15.3	34	-0.2	0.4	NE	0.80	3.1	NE	15.7	13.9	13.9	---	1019.3	0.00	0.0	---	---	---	---	---	---	0.056	0.000	21.8	30	3.4	20.1	6.20	1.1954	---	0.00	703	1	100.0	30
07/05/20	13:00	16.2	16.4	15.9	37	1.4	0.4	NE	0.80	3.6	NW	16.2	14.6	14.6	---	1018.8	0.00	0.0	---	---	---	---	---	---	0.045	0.000	21.8	30	3.5	20.2	6.20	1.1945	---	0.00	702	1	100.0	30
07/05/20	13:30	16.6	16.7	16.3	35	1.1	0.9	E	1.61	4.0	N	16.6	14.9	14.9	---	1018.0	0.00	0.0	---	---	---	---	---	---	0.036	0.000	21.8	30	3.4	20.1	6.20	1.1939	---	0.00	703	1	100.0	30
07/05/20	14:00	17.2	17.5	16.8	34	1.2	0.9	NW	1.61	4.5	NNW	17.2	15.4	15.4	---	1017.5	0.00	0.0	---	---	---	---	---	---	0.024	0.000	21.8	30	3.4	20.1	6.20	1.1933	---	0.00	702	1	100.0	30
07/05/20	14:30	17.7	18.0	17.4	33	1.2	0.4	N	0.80	4.5	N	17.7	15.9	15.9	---	1017.2	0.00	0.0	---	---	---	---	---	---	0.013	0.000	21.8	31	3.9	20.2	6.33	1.1926	---	0.00	702	1	100.0	30
07/05/20	15:00	18.4	18.7	18.0	31	0.9	0.4	NNW	0.80	4.0	NNE	18.4	16.5	16.5	---	1017.0	0.00	0.0	---	---	---	---	---	---	0.000	0.001	21.9	31	4.0	20.3	6.32	1.1918	---	0.00	703	1	100.0	30
07/05/20	15:30	18.8	19.2	18.6	31	1.3	0.4	NW	0.80	3.6	NNE	18.8	17.0	17.0	---	1016.7	0.00	0.0	---	---	---	---	---	---	0.000	0.010	22.0	31	4.1	20.4	6.32	1.1909	---	0.00	702	1	100.0	30
07/05/20	16:00	19.3	19.6	19.2	31	1.8	0.4	NW	0.80	3.6	WNW	19.3	17.5	17.5	---	1016.3	0.00	0.0	---	---	---	---	---	---	0.000	0.021	22.1	31	4.1	20.6	6.32	1.1903	---	0.00	703	1	100.0	30
07/05/20	16:30	19.4	19.6	19.2	31	1.8	0.4	NW	0.80	4.0	NNW	19.4	17.6	17.6	---	1016.1	0.00	0.0	---	---	---	---	---	---	0.000	0.022	21.9	31	4.0	20.3	6.32	1.1908	---	0.00	702	1	100.0	30
07/05/20	17:00	19.6	19.7	19.4	31	2.0	0.4	N	0.80	3.6	NE	19.6	17.7	17.7	---	1015.9	0.00	0.0	---	---	---	---	---	---	0.000	0.025	21.7	32	4.2	20.1	6.53	1.1912	---	0.00	703	1	100.0	30
