FH 62 C14  V1.06    Thermo ESM Andersen 
20-05-05  17:00 000000     1    12
20-05-05  16:30 000000     1    15
20-05-05  16:00 000000     1    22
20-05-05  15:30 000000     1    20
20-05-05  15:00 000000     1    12
20-05-05  14:30 000000     1    18
20-05-05  14:00 000000     1    16
20-05-05  13:30 000000     1    10
20-05-05  13:00 000000     1     7
20-05-05  12:30 000000     1    11
20-05-05  12:00 000000     1     3
20-05-05  11:30 000000     1    19
20-05-05  11:00 000000     1    28
20-05-05  10:30 000000     1    19
20-05-05  10:00 000000     1     0
20-05-05  09:30 000000     1    13
20-05-05  09:00 000000     1    19
20-05-05  08:30 000000     1    26
20-05-05  08:00 000000     1    20
20-05-05  07:30 000000     1    26
20-05-05  07:00 000000     1    18
20-05-05  06:30 000000     1    38
20-05-05  06:00 000000     1    47
20-05-05  05:30 000000     1    71
20-05-05  05:00 000000     1   121
20-05-05  04:30 000000     1   106
20-05-05  04:00 000000     1    28
20-05-05  03:30 000000     1    22
20-05-05  03:00 000000     1    15
20-05-05  02:30 000000     1    25
20-05-05  02:00 000000     1    20
20-05-05  01:30 000000     1    19
20-05-05  01:00 000000     1    25
20-05-05  00:30 00004F     1    20
20-05-05  00:00 000000     1    30
20-05-04  23:30 000000     1    25
20-05-04  23:00 000000     1    27
20-05-04  22:30 000000     1    53
20-05-04  22:00 000000     1    65
20-05-04  21:30 000000     1    63
20-05-04  21:00 000000     1    71
20-05-04  20:30 000000     1    74
20-05-04  20:00 000000     1    63
20-05-04  19:30 000000     1    57
20-05-04  19:00 000000     1    37
20-05-04  18:30 000000     1    35
20-05-04  18:00 000000     1    40
20-05-04  17:30 000000     1    32
20-05-04  17:00 200000     1    30
20-05-04  16:30 000000     1    28
20-05-04  16:00 000000     1    22
20-05-04  15:30 000000     1    25
20-05-04  15:00 000000     1    36
20-05-04  14:30 000000     1    31
20-05-04  14:00 000000     1    37
20-05-04  13:30 000000     1    35
20-05-04  13:00 000000     1    36
20-05-04  12:30 000000     1    45
20-05-04  12:00 000000     1    39
20-05-04  11:30 000000     1    23
20-05-04  11:00 000000     1    10
20-05-04  10:30 000000     1     8
20-05-04  10:00 000000     1    25
20-05-04  09:30 000000     1    53
20-05-04  09:00 000000     1    54
20-05-04  08:30 000000     1    40
20-05-04  08:00 000000     1    42
20-05-04  07:30 000000     1    31
20-05-04  07:00 000000     1    24
20-05-04  06:30 000000     1    15
20-05-04  06:00 000000     1     6
20-05-04  05:30 000000     1    22
20-05-04  05:00 000000     1    26
20-05-04  04:30 000000     1    15
20-05-04  04:00 000000     1    24
20-05-04  03:30 000000     1    16
20-05-04  03:00 000000     1    21
20-05-04  02:30 000000     1    44
20-05-04  02:00 000000     1    41
20-05-04  01:30 000000     1    49
20-05-04  01:00 000000     1    51
20-05-04  00:30 00004F     1    60
20-05-04  00:00 000000     1    47
20-05-03  23:30 000000     1    23
20-05-03  23:00 000000     1    28
20-05-03  22:30 000000     1    31
20-05-03  22:00 000000     1    48
20-05-03  21:30 000000     1    40
20-05-03  21:00 000000     1    48
20-05-03  20:30 000000     1    65
20-05-03  20:00 000000     1    52
20-05-03  19:30 200000     1    53
20-05-03  19:00 000000     1    61
20-05-03  18:30 000000     1    67
20-05-03  18:00 000000     1    52
20-05-03  17:30 000000     1    33
20-05-03  17:00 000000     1    36
20-05-03  16:30 000000     1    37
20-05-03  16:00 000000     1    35
20-05-03  15:30 000000     1    40
20-05-03  15:00 000000     1    43
20-05-03  14:30 000000     1    38
20-05-03  14:00 000000     1    35
20-05-03  13:30 000000     1    37
20-05-03  13:00 000000     1    42
20-05-03  12:30 000000     1    31
20-05-03  12:00 000000     1    32
20-05-03  11:30 000000     1    31
20-05-03  11:00 000000     1    14
20-05-03  10:30 000000     1     2
20-05-03  10:00 000000     1    25
20-05-03  09:30 000000     1    24
20-05-03  09:00 000000     1    21
20-05-03  08:30 000000     1    21
20-05-03  08:00 000000     1    23
20-05-03  07:30 000000     1    28
20-05-03  07:00 000000     1    18
20-05-03  06:30 000000     1    14
20-05-03  06:00 000000     1    19
20-05-03  05:30 000000     1    16
20-05-03  05:00 000000     1    18
20-05-03  04:30 000000    24    21
20-05-03  04:00 000000     1    16
20-05-03  03:30 000000     1    18
20-05-03  03:00 000000     1    33
20-05-03  02:30 000000     1    40
20-05-03  02:00 000000     1    46
20-05-03  01:30 000000     1    59
20-05-03  01:00 000000     1    75
20-05-03  00:30 00004F     1    73
20-05-03  00:00 000000     1    64
20-05-02  23:30 000000     1    54
20-05-02  23:00 000000     1    26
20-05-02  22:30 000000     1    31
20-05-02  22:00 000000     1    26
20-05-02  21:30 000000     1    23
20-05-02  21:00 000000     1    34
20-05-02  20:30 000000     1    41
20-05-02  20:00 000000     1    51
20-05-02  19:30 000000     1    52
20-05-02  19:00 000000     1    38
20-05-02  18:30 000000     1    30
20-05-02  18:00 000000     1    26
