FH 62 C14  V1.06    Thermo ESM Andersen 
20-05-07  17:00 000000     1    44
20-05-07  16:30 000000     1    35
20-05-07  16:00 000000     1    28
20-05-07  15:30 000000     1    21
20-05-07  15:00 000000     1    30
20-05-07  14:30 000000     1    46
20-05-07  14:00 000000     1    60
20-05-07  13:30 000000     1    60
20-05-07  13:00 000000     1    45
20-05-07  12:30 000000     1    21
20-05-07  12:00 000000     1    26
20-05-07  11:30 000000     1    29
20-05-07  11:00 000000     1    19
20-05-07  10:30 000000     1    15
20-05-07  10:00 000000     1    39
20-05-07  09:30 000000     1    62
20-05-07  09:00 000000     1    81
20-05-07  08:30 000000     1    68
20-05-07  08:00 000000     1    40
20-05-07  07:30 000000     1    28
20-05-07  07:00 000000     1    11
20-05-07  06:30 000000     1    17
20-05-07  06:00 000000     1    11
20-05-07  05:30 000000     1     2
20-05-07  05:00 000000     1     7
20-05-07  04:30 000000     1    12
20-05-07  04:00 000000     1    15
20-05-07  03:30 000000     1    22
20-05-07  03:00 000000     1    19
20-05-07  02:30 000000     1    13
20-05-07  02:00 000000     1    19
20-05-07  01:30 000000     1    27
20-05-07  01:00 000000     1    41
20-05-07  00:30 00004F     1    39
20-05-07  00:00 000000     1    37
20-05-06  23:30 000000     1    47
20-05-06  23:00 000000     1    50
20-05-06  22:30 000000     1    49
20-05-06  22:00 000000     1    62
20-05-06  21:30 000000     1    63
20-05-06  21:00 000000     1    45
20-05-06  20:30 000000     1    49
20-05-06  20:00 000000     1    48
20-05-06  19:30 000000     1    31
20-05-06  19:00 000000     1    20
20-05-06  18:30 000000     1    24
20-05-06  18:00 000000     1    27
20-05-06  17:30 000000     1    20
20-05-06  17:00 000000     1    22
20-05-06  16:30 000000     1    16
20-05-06  16:00 000000     1    22
20-05-06  15:30 000000     1    17
20-05-06  15:00 000000     1    19
20-05-06  14:30 000000     1    13
20-05-06  14:00 000000     1    22
20-05-06  13:30 000000     1    26
20-05-06  13:00 000000     1    35
20-05-06  12:30 000000     1    52
20-05-06  12:00 000000     1    50
20-05-06  11:30 000000     1    39
END
20-05-07  17:00 000000     1    44
20-05-07  16:30 000000     1    35
20-05-07  17:00 000000     1    44
20-05-07  16:30 000000     1    35
20-05-07  16:00 000000     1    28
20-05-07  15:30 000000     1    21
20-05-07  15:00 000000     1    30
20-05-07  14:30 000000     1    46
20-05-07  14:00 000000     1    60
20-05-07  13:30 000000     1    60
20-05-07  13:00 000000     1    45
20-05-07  12:30 000000     1    21
20-05-07  12:00 000000     1    26
20-05-07  11:30 000000     1    29
20-05-07  11:00 000000     1    19
20-05-07  10:30 000000     1    15
20-05-07  10:00 000000     1    39
20-05-07  09:30 000000     1    62
20-05-07  09:00 000000     1    81
20-05-07  08:30 000000     1    68
20-05-07  08:00 000000     1    40
20-05-07  07:30 000000     1    28
20-05-07  07:00 000000     1    11
20-05-07  06:30 000000     1    17
20-05-07  06:00 000000     1    11
20-05-07  05:30 000000     1     2
20-05-07  05:00 000000     1     7
20-05-07  04:30 000000     1    12
20-05-07  04:00 000000     1    15
20-05-07  03:30 000000     1    22
20-05-07  03:00 000000     1    19
20-05-07  02:30 000000     1    13
20-05-07  02:00 000000     1    19
20-05-07  01:30 000000     1    27
20-05-07  01:00 000000     1    41
20-05-07  00:30 00004F     1    39
20-05-07  00:00 000000     1    37
20-05-06  23:30 000000     1    47
20-05-06  23:00 000000     1    50
20-05-06  22:30 000000     1    49
20-05-06  22:00 000000     1    62
20-05-06  21:30 000000     1    63
20-05-06  21:00 000000     1    45
20-05-06  20:30 000000     1    49
20-05-06  20:00 000000     1    48
20-05-06  19:30 000000     1    31
20-05-06  19:00 000000     1    20
20-05-06  18:30 000000     1    24
20-05-06  18:00 000000     1    27
20-05-06  17:30 000000     1    20
20-05-06  17:00 000000     1    22
20-05-06  16:30 000000     1    16
20-05-06  16:00 000000     1    22
20-05-06  15:30 000000     1    17
20-05-06  15:00 000000     1    19
20-05-06  14:30 000000     1    13
20-05-06  14:00 000000     1    22
20-05-06  13:30 000000     1    26
20-05-06  13:00 000000     1    35
20-05-06  12:30 000000     1    52
20-05-06  12:00 000000     1    50
20-05-06  11:30 000000     1    39
20-05-06  11:00 000000     1    13
20-05-06  10:30 000000     1    13
20-05-06  10:00 000000     1    42
20-05-06  09:30 000000     1    37
20-05-06  09:00 000000     1    48
20-05-06  08:30 000000     1    36
20-05-06  08:00 000000     1    24
20-05-06  07:30 000000     1    16
20-05-06  07:00 000000    24    14
20-05-06  06:30 000000     1    12
20-05-06  06:00 000000     1    10
20-05-06  05:30 000000     1     7
20-05-06  05:00 000000     1    14
20-05-06  04:30 000000     1     4
20-05-06  04:00 000000     1    16
20-05-06  03:30 000000     1    11
20-05-06  03:00 000000     1    13
20-05-06  02:30 000000     1    14
20-05-06  02:00 000000     1    23
20-05-06  01:30 000000     1    35
20-05-06  01:00 000000     1    36
20-05-06  00:30 00004F     1    45
20-05-06  00:00 000000     1    50
20-05-05  23:30 000000     1    54
20-05-05  23:00 000000     1    41
20-05-05  22:30 000000     1    47
20-05-05  22:00 000000     1    43
20-05-05  21:30 000000     1    38
20-05-05  21:00 000000     1    46
20-05-05  20:30 000000     1    46
20-05-05  20:00 000000     1    34
20-05-05  19:30 000000     1    16
20-05-05  19:00 000000     1    18
20-05-05  18:30 000000     1    15
20-05-05  18:00 000000     1   -10
20-05-05  17:30 000000     1   -58
20-05-05  17:00 000000     1    12
20-05-05  16:30 000000     1    15
20-05-05  16:00 000000     1    22
20-05-05  15:30 000000     1    20
20-05-05  15:00 000000     1    12
20-05-05  14:30 000000     1    18
20-05-05  14:00 000000     1    16
20-05-05  13:30 000000     1    10
20-05-05  13:00 000000     1     7
20-05-05  12:30 000000     1    11
20-05-05  12:00 000000     1     3
20-05-05  11:30 000000     1    19
20-05-05  11:00 000000     1    28
20-05-05  10:30 000000     1    19
20-05-05  10:00 000000     1     0
20-05-05  09:30 000000     1    13
20-05-05  09:00 000000     1    19
20-05-05  08:30 000000     1    26
20-05-05  08:00 000000     1    20
20-05-05  07:30 000000     1    26
20-05-05  07:00 000000     1    18
20-05-05  06:30 000000     1    38
20-05-05  06:00 000000     1    47
20-05-05  05:30 000000     1    71
20-05-05  05:00 000000     1   121
20-05-05  04:30 000000     1   106
20-05-05  04:00 000000     1    28
20-05-05  03:30 000000     1    22
20-05-05  03:00 000000     1    15
20-05-05  02:30 000000     1    25
20-05-05  02:00 000000     1    20
20-05-05  01:30 000000     1    19
20-05-05  01:00 000000     1    25
20-05-05  00:30 00004F     1    20
20-05-05  00:00 000000     1    30
20-05-04  23:30 000000     1    25
20-05-04  23:00 000000     1    27
20-05-04  22:30 000000     1    53
20-05-04  22:00 000000     1    65
20-05-04  21:30 000000     1    63
20-05-04  21:00 000000     1    71
20-05-04  20:30 000000     1    74
20-05-04  20:00 000000     1    63
20-05-04  19:30 000000     1    57
20-05-04  19:00 000000     1    37
20-05-04  18:30 000000     1    35
20-05-04  18:00 000000     1    40
