FH 62 C14  V1.06    Thermo ESM Andersen 
20-05-18  11:30 000000     1    22
20-05-18  11:00 000000     1    13
20-05-18  10:30 000000     1    17
20-05-18  10:00 000000     1    29
20-05-18  09:30 000000     1    28
20-05-18  09:00 000000     1    27
20-05-18  08:30 000000     1     9
20-05-18  08:00 000000     1    17
20-05-18  07:30 000000     1    22
20-05-18  07:00 000000     1     4
20-05-18  06:30 000000     1    11
20-05-18  06:00 000000     1    16
20-05-18  05:30 000000     1    23
20-05-18  05:00 000000     1    15
20-05-18  04:30 000000     1     7
20-05-18  04:00 000000     1    10
20-05-18  03:30 000000     1    16
20-05-18  03:00 000000     1    11
20-05-18  02:30 000000     1    15
20-05-18  02:00 000000     1    19
20-05-18  01:30 000000     1    21
20-05-18  01:00 000000     1    36
20-05-18  00:30 00004F     1    28
20-05-18  00:00 000000     1    28
20-05-17  23:30 000000     1    24
20-05-17  23:00 000000     1    25
20-05-17  22:30 000000     1    30
20-05-17  22:00 000000     1    31
20-05-17  21:30 000000     1    33
20-05-17  21:00 000000     1    33
20-05-17  20:30 000000     1    37
20-05-17  20:00 000000     1    28
20-05-17  19:30 000000     1    32
20-05-17  19:00 000000     1    30
20-05-17  18:30 000000     1    27
20-05-17  18:00 000000     1    14
20-05-17  17:30 000000     1    19
20-05-17  17:00 000000     1    29
20-05-17  16:30 000000     1    17
20-05-17  16:00 000000     1    33
20-05-17  15:30 000000     1    37
20-05-17  15:00 000000     1    36
20-05-17  14:30 000000     1    27
20-05-17  14:00 000000     1    24
20-05-17  13:30 000000     1    17
20-05-17  13:00 000000     1    22
20-05-17  12:30 000000     1    16
20-05-17  12:00 000000     1    20
20-05-17  11:30 000000     1     4
20-05-17  11:00 000000     1     2
20-05-17  10:30 000000     1     5
20-05-17  10:00 000000     1     5
20-05-17  09:30 000000     1    20
20-05-17  09:00 000000     1    16
20-05-17  08:30 000000     1     4
20-05-17  08:00 000000     1    19
20-05-17  07:30 000000     1    19
20-05-17  07:00 000000     1    15
20-05-17  06:30 000000     1    18
20-05-17  06:00 000000     1    21
20-05-17  05:30 000000     1    23
20-05-17  05:00 000000     1    20
20-05-17  04:30 000000     1    14
20-05-17  04:00 000000     1    16
20-05-17  03:30 000000     1    15
20-05-17  03:00 000000     1    11
20-05-17  02:30 000000     1    14
20-05-17  02:00 000000     1     5
20-05-17  01:30 000000     1     9
20-05-17  01:00 000000     1    32
20-05-17  00:30 00004F     1    31
20-05-17  00:00 000000     1    31
20-05-16  23:30 000000     1    35
20-05-16  23:00 000000     1    66
20-05-16  22:30 000000     1    69
20-05-16  22:00 000000     1    71
20-05-16  21:30 000000     1    96
20-05-16  21:00 000000     1    62
20-05-16  20:30 000000     1    40
20-05-16  20:00 000000     1    31
20-05-16  19:30 000000     1    46
20-05-16  19:00 000000     1    56
20-05-16  18:30 000000     1    35
20-05-16  18:00 000000     1    34
20-05-16  17:30 000000     1    40
20-05-16  17:00 000000     1    36
20-05-16  16:30 000000     1    39
20-05-16  16:00 000000     1    37
20-05-16  15:30 000000     1    29
20-05-16  15:00 000000     1    28
20-05-16  14:30 000000     1    25
20-05-16  14:00 000000     1    25
20-05-16  13:30 000000     1    23
20-05-16  13:00 000000     1    21
20-05-16  12:30 000000     1    27
20-05-16  12:00 000000     1    30
20-05-16  11:30 000000     1    27
20-05-16  11:00 000000     1    27
20-05-16  10:30 000000     1    19
20-05-16  10:00 000000     1    26
20-05-16  09:30 000000     1    26
20-05-16  09:00 000000     1    14
20-05-16  08:30 000000     1    15
20-05-16  08:00 000000     1    19
20-05-16  07:30 000000     1    17
20-05-16  07:00 000000     1    16
20-05-16  06:30 000000     1    16
20-05-16  06:00 000000     1    20
20-05-16  05:30 000000     1    18
20-05-16  05:00 000000     1    28
20-05-16  04:30 000000     1     8
20-05-16  04:00 000000     1     9
20-05-16  03:30 000000     1    17
20-05-16  03:00 000000     1    21
20-05-16  02:30 000000     1    23
20-05-16  02:00 000000     1    21
20-05-16  01:30 000000     1    22
20-05-16  01:00 000000     1    35
20-05-16  00:30 00004F     1    35
20-05-16  00:00 000000     1    29
20-05-15  23:30 000000     1    42
20-05-15  23:00 000000     1    34
20-05-15  22:30 000000     1    32
20-05-15  22:00 000000     1    49
20-05-15  21:30 000000     1    56
20-05-15  21:00 000000     1    54
20-05-15  20:30 000000     1    48
20-05-15  20:00 000000     1    42
20-05-15  19:30 000000     1    44
20-05-15  19:00 000000     1    37
20-05-15  18:30 000000     1    21
20-05-15  18:00 000000     1    26
20-05-15  17:30 000000     1    23
20-05-15  17:00 000000     1    25
20-05-15  16:30 000000     1    24
20-05-15  16:00 000000     1    15
20-05-15  15:30 000000     1    10
20-05-15  15:00 000000     1    16
20-05-15  14:30 000000    24     9
20-05-15  14:00 000000     1    12
20-05-15  13:30 000000     1    25
20-05-15  13:00 000000     1    31
20-05-15  12:30 000000     1    20
20-05-15  12:00 000000     1    29
20-05-15  11:30 000000     1    30
20-05-15  11:00 000000     1    14
20-05-15  10:30 000000     1    16
20-05-15  10:00 000000     1    31
20-05-15  09:30 000000     1    27
20-05-15  09:00 000000     1    16
20-05-15  08:30 000000     1    18
20-05-15  08:00 000000     1    12
20-05-15  07:30 000000     1     8
20-05-15  07:00 000000     1     9
20-05-15  06:30 000000     1    10
20-05-15  06:00 000000     1     6
20-05-15  05:30 000000     1     4
20-05-15  05:00 000000     1     0
20-05-15  04:30 000000     1     7
20-05-15  04:00 000000     1     6
20-05-15  03:30 000000     1     8
20-05-15  03:00 000000     1     8
20-05-15  02:30 000000     1    11
20-05-15  02:00 000000     1    20
20-05-15  01:30 000000     1    20
20-05-15  01:00 000000     1    39
20-05-15  00:30 00004F     1    31
20-05-15  00:00 000000     1    27
20-05-14  23:30 000000     1    27
20-05-14  23:00 000000     1    22
20-05-14  22:30 000000     1    20
20-05-14  22:00 000000     1    41
20-05-14  21:30 000000     1    60
20-05-14  21:00 000000     1    54
20-05-14  20:30 000000     1    26
20-05-14  20:00 000000     1    30
20-05-14  19:30 000000     1    17
20-05-14  19:00 000000     1    17
20-05-14  18:30 000000     1    13
20-05-14  18:00 000000     1    19
20-05-14  17:30 000000     1    11
20-05-14  17:00 000000     1   116
20-05-14  16:30 000000     1   168
20-05-14  16:00 000000     1    31
20-05-14  15:30 000000     1    22
20-05-14  15:00 000000     1    14
20-05-14  14:30 000000     1    17
20-05-14  14:00 000000     1    10
20-05-14  13:30 000000     1    13
20-05-14  13:00 000000     1    30
20-05-14  12:30 000000     1    36
20-05-14  12:00 000000     1    34
20-05-14  11:30 000000     1    33
20-05-14  11:00 000000     1    -4
20-05-14  10:30 000000     1    30
20-05-14  10:00 000000     1    72
20-05-14  09:30 000000     1    73
20-05-14  09:00 000000     1    60
20-05-14  08:30 000000     1    40
20-05-14  08:00 000000     1    23
20-05-14  07:30 000000     1    27
20-05-14  07:00 000000     1    23
20-05-14  06:30 000000     1    19
20-05-14  06:00 000000     1    18
20-05-14  05:30 000000     1    14
20-05-14  05:00 000000     1    14
20-05-14  04:30 000000     1    17
20-05-14  04:00 000000     1    10
20-05-14  03:30 000000     1     9
20-05-14  03:00 000000     1    12
20-05-14  02:30 000000     1    34
20-05-14  02:00 000000     1    27
20-05-14  01:30 000000     1    26
20-05-14  01:00 000000     1    38
20-05-14  00:30 00004F     1    54
20-05-14  00:00 000000     1    50
20-05-13  23:30 000000     1    35
20-05-13  23:00 000000     1    46
20-05-13  22:30 000000     1    55
20-05-13  22:00 000000     1    49
20-05-13  21:30 000000     1    55
20-05-13  21:00 000000     1    52
20-05-13  20:30 000000     1    67
20-05-13  20:00 000000     1    61
20-05-13  19:30 000000     1    41
20-05-13  19:00 000000     1    32
20-05-13  18:30 000000     1    25
20-05-13  18:00 000000     1    32
20-05-13  17:30 000000     1    39
20-05-13  17:00 000000     1    41
20-05-13  16:30 000000     1    20
20-05-13  16:00 000000     1    26
20-05-13  15:30 000000     1    13
20-05-13  15:00 000000     1    26
20-05-13  14:30 000000     1    25
20-05-13  14:00 000000     1    27
20-05-13  13:30 000000     1    32
20-05-13  13:00 000000     1    27
20-05-13  12:30 000000     1    24
20-05-13  12:00 000000     1    30
20-05-13  11:30 000000     1    23
20-05-13  11:00 000000     1    19
20-05-13  10:30 000000     1    29
20-05-13  10:00 000000     1    55
20-05-13  09:30 000000     1    76
20-05-13  09:00 000000     1    56
20-05-13  08:30 000000     1    40
20-05-13  08:00 000000     1    35
20-05-13  07:30 000000     1    30
20-05-13  07:00 000000     1    18
20-05-13  06:30 000000     1    23
20-05-13  06:00 000000     1    15
20-05-13  05:30 000000     1    13
20-05-13  05:00 000000     1    14
20-05-13  04:30 000000     1    15
20-05-13  04:00 000000     1    19
20-05-13  03:30 000000     1    20
20-05-13  03:00 000000     1    21
20-05-13  02:30 000000     1    24
20-05-13  02:00 000000     1    33
20-05-13  01:30 000000     1    32
20-05-13  01:00 000000     1    38
20-05-13  00:30 00004F     1    45
20-05-13  00:00 000000     1    55
20-05-12  23:30 000000     1    56
20-05-12  23:00 000000     1    50
20-05-12  22:30 000000     1    37
20-05-12  22:00 000000     1    46
20-05-12  21:30 000000     1    58
20-05-12  21:00 000000     1    65
20-05-12  20:30 000000     1    68
20-05-12  20:00 000000     1    76
20-05-12  19:30 000000     1   107
20-05-12  19:00 000000     1    78
20-05-12  18:30 000000     1    40
20-05-12  18:00 000000     1    46
20-05-12  17:30 000000     1    39
20-05-12  17:00 000000     1    55
20-05-12  16:30 000000     1    40
